<?xml version="1.0" encoding="utf-8"?>
<!-- Generator: Adobe Illustrator 26.3.1, SVG Export Plug-In . SVG Version: 6.00 Build 0)  -->
<svg version="1.1" baseProfile="tiny" id="Layer_1" xmlns="http://www.w3.org/2000/svg" xmlns:xlink="http://www.w3.org/1999/xlink"
	 x="0px" y="0px" viewBox="0 0 297.2 655" overflow="visible" xml:space="preserve">
<path fill="#93BA3A" d="M274,120.9c0-0.6,0-1.1-0.1-1.7v-0.8c0-0.4,0-0.8,0-1.1c0-0.6-0.1-1.2-0.1-1.8v-0.6c0-0.4-0.1-0.8-0.1-1.2
	c-0.1-0.7-0.1-1.3-0.2-2.1c-0.1-0.5-0.1-1-0.2-1.5c-0.1-0.6-0.2-1.3-0.3-1.9c-0.1-0.5-0.2-1.1-0.3-1.6c-0.1-0.6-0.2-1.2-0.3-1.8
	s-0.2-1.1-0.3-1.6c-0.1-0.6-0.2-1.1-0.4-1.7c-0.1-0.6-0.3-1.1-0.4-1.7c-0.1-0.5-0.3-1-0.4-1.6c-0.2-0.6-0.3-1.2-0.5-1.8l-0.1-0.3
	c-0.1-0.4-0.2-0.8-0.4-1.2c-0.2-0.6-0.4-1.3-0.6-1.9l-0.1-0.4c-0.1-0.3-0.2-0.6-0.3-0.8c-0.3-0.7-0.5-1.4-0.8-2.1l-0.2-0.4
	c-0.1-0.2-0.1-0.4-0.2-0.6c-0.4-0.8-0.7-1.7-1.1-2.5l-0.2-0.5c-0.9-2-2-3.9-3-5.7l-0.1-0.2c-0.5-0.8-1-1.6-1.5-2.4
	c-0.1-0.1-0.4-0.6-0.4-0.6c-0.4-0.5-0.7-1-1.1-1.5l-0.4-0.5c-5-6.7-11.1-11.7-17.7-14.8c-2.1-1-4.2-1.7-6.3-2.3l-0.3-0.1
	c-0.3-0.1-0.7-0.2-1-0.2l-0.8-0.2c-0.7-0.1-1.4-0.3-2.1-0.4l-0.5-0.1c-1.9-0.3-3.7-0.4-5.4-0.4c-1.1,0.1-2.3,0.1-3.4,0.2
	c-0.3,0-0.6,0.1-0.9,0.1l-0.7,0.1c-0.6,0.1-1.1,0.1-1.7,0.2c-0.4,0.1-0.8,0.1-1.2,0.2l-0.3,0.1c-0.6,0.1-1.2,0.2-1.8,0.3
	c-0.4,0.1-0.8,0.2-1.2,0.3c-0.8,0.2-1.5,0.3-2.3,0.5l-0.3,0.1c-3.1,0.8-6,1.8-8.8,3.1c-5.4,2.4-10.2,5.6-14.3,9.6l-0.2,0.2
	c-0.6,0.6-1.3,1.3-1.9,1.9c-0.1,0.2-0.3,0.3-0.4,0.5l-0.3,0.3c-0.4,0.5-0.9,1-1.3,1.5c-0.2,0.3-0.4,0.5-0.6,0.8l-0.2,0.3
	c-0.4,0.5-0.7,0.9-1,1.4c-0.2,0.3-0.5,0.7-0.7,1l-0.1,0.1c-0.3,0.5-0.6,0.9-0.9,1.4c-0.3,0.4-0.5,0.8-0.8,1.3s-0.6,1-0.9,1.5
	c-0.2,0.4-0.5,0.9-0.7,1.3c-0.3,0.5-0.6,1.1-0.8,1.6l-0.1,0.2c-0.2,0.4-0.4,0.7-0.5,1.1c-0.3,0.6-0.6,1.2-0.8,1.9l-0.2,0.4
	c-0.1,0.3-0.2,0.5-0.3,0.8c-0.4,0.9-0.7,1.8-1.1,2.7l-0.2,0.5c-0.4,1.1-0.8,2.2-1.2,3.4c0,0.2-0.2,0.8-0.2,0.8
	c-0.3,0.9-0.5,1.8-0.8,2.7c-0.1,0.2-0.1,0.5-0.2,0.7l-0.1,0.4c-0.2,0.9-0.4,1.7-0.6,2.6c-0.1,0.3-0.3,1.3-0.3,1.3
	c-0.2,0.9-0.4,1.7-0.5,2.6c-0.1,0.4-0.2,0.9-0.2,1.3c-0.2,0.9-0.3,1.8-0.4,2.8c0,0-0.1,0.9-0.2,1.3c-0.1,1-0.2,2-0.4,3
	c0,0-0.1,1-0.1,1.3c-0.1,1.1-0.2,2.2-0.3,3.3l-0.1,1c-0.1,1.6-0.2,3.1-0.2,4.5l-0.5,110.7h-16.3c-0.5,0-0.9,0-1.4,0
	c-11.2,0-17.4-6.7-18.5-19.9v-46.5c-1.8-15.9-6.2-26.6-13.2-31.8c-0.6-0.5-1.3-0.9-2-1.3l-0.2-0.1c-2.6-1.4-5.7-2.2-8.9-2.3
	c-3.3,0-6.2,0.7-8.7,1.9c-2,1-3.7,2.3-5.2,4.1l-0.2,0.3c-0.2,0.2-0.4,0.5-0.6,0.8l-0.3,0.4c-0.2,0.3-0.5,0.7-0.7,1.1
	c-0.1,0.1-0.1,0.2-0.2,0.3l-0.1,0.2c-0.1,0.2-0.3,0.5-0.4,0.7s-0.2,0.4-0.3,0.7c-0.1,0.2-0.2,0.4-0.3,0.7L91,147
	c-0.1,0.2-0.2,0.4-0.2,0.6c-0.2,0.4-0.3,0.8-0.5,1.2c-0.1,0.2-0.1,0.4-0.2,0.7c0,0-0.2,0.6-0.3,0.9s-0.2,0.6-0.3,0.9
	c-0.1,0.2-0.1,0.5-0.2,0.7c-0.1,0.5-0.2,1-0.4,1.5c-0.1,0.3-0.1,0.6-0.2,0.9c-0.1,0.3-0.1,0.6-0.2,1c-0.1,0.3-0.1,0.6-0.2,0.9
	c-0.1,0.3-0.1,0.6-0.1,1c-0.1,0.4-0.1,0.8-0.1,1.2s-0.1,0.7-0.1,1.1c-0.1,0.5-0.1,1.1-0.2,1.6l-0.1,0.9c0,0.5-0.1,1-0.1,1.4v0.8
	c0,0.8-0.1,1.5-0.1,2.3l-0.8,72.3c-1,14.8,1.4,25.5,7.2,31.7c4.3,4.6,10.6,7,18.7,7l55.5,1.8l-1,224.3h-41.9c-0.7,0-1.4,0.1-2.1,0.1
	c-16.9,0-26.3-10.1-27.9-30v-71.1c-0.2-1.4-0.3-2.8-0.5-4.1l-0.1-0.8c-0.2-1.2-0.4-2.5-0.6-3.7v-0.3c-0.4-2.7-1-5.3-1.5-7.8
	l-0.1-0.3c-0.6-2.5-1.2-4.8-1.9-7.1l-0.1-0.2c-0.3-1.1-0.7-2.1-1.1-3.2v-0.1c-0.7-2-1.5-4-2.4-5.9l-0.2-0.4
	c-0.4-0.9-0.9-1.7-1.3-2.5l-0.1-0.1c-0.4-0.8-0.9-1.6-1.4-2.4l-0.2-0.4c-0.4-0.6-0.8-1.3-1.3-1.9l-0.3-0.4c-1-1.4-2.1-2.7-3.2-3.9
	l-0.4-0.4c-0.5-0.5-1-1-1.6-1.5l-0.2-0.2c-0.6-0.5-1.2-1-1.9-1.5l0,0l-0.2-0.1c-0.5-0.3-0.9-0.6-1.4-0.9l-0.4-0.2
	c-4.4-2.8-9.6-4.3-15.2-4.5c-5.1,0-9.5,1-13.4,2.8c-11,5.4-16.7,18.5-17.8,40.2v0.4c-0.1,1.2-0.1,2.4-0.1,3.6v0.1l-1.2,110.6
	c-1.6,22.7,2.2,39,11.1,48.7c6.6,7.1,16.3,10.8,28.8,10.8l101.7,3.3l-0.4,88h101.9l6.1-528.2c0.1-1.2,0.1-2.4,0.1-3.7
	c0-0.4,0-0.9,0-1.3v-1.1C274,121.7,274,121.3,274,120.9z"/>
<path fill="#40672A" d="M116.1,172.2c-0.1,24.5,0.3,42.3,1.9,54c1.5,11.8,4.2,17.5,15.9,20.4c7.9,1.9,19.9,2.5,33.3,2.7l0.1-11.6
	h-15.7c-0.5,0-0.9,0-1.4,0c-11.2,0-17.4-6.7-18.5-19.9v-46.5c-1.9-17.4-7-28.6-15.2-33.2c0,0.5,0,1.1,0,1.6
	C116.3,151.4,116.1,162.4,116.1,172.2z"/>
<path fill="#40672A" d="M70.6,403.9c-0.2,37.4,0.5,64.6,2.8,82.5s6.4,26.7,24.3,31c15.4,3.8,41.1,4.3,68.1,4.4l0.1-18.2h-41.3
	c-0.7,0-1.4,0.1-2.1,0.1c-16.9,0-26.3-10.1-27.9-30v-71.1c-0.2-1.4-0.3-2.8-0.5-4.1l-0.1-0.8c-0.2-1.2-0.4-2.5-0.6-3.7v-0.3
	c-0.4-2.7-1-5.3-1.5-7.8l-0.1-0.3c-0.6-2.5-1.2-4.8-1.9-7.1l-0.1-0.2c-0.3-1.1-0.7-2.1-1.1-3.2V375c-0.7-2-1.5-4-2.4-5.9l-0.2-0.4
	c-0.4-0.9-0.9-1.7-1.3-2.5l-0.1-0.1c-0.4-0.8-0.9-1.6-1.4-2.4l-0.2-0.4c-0.4-0.6-0.8-1.3-1.3-1.9l-0.3-0.4c-1-1.4-2.1-2.7-3.2-3.9
	l-0.4-0.4c-0.5-0.5-1-1-1.6-1.5l-0.2-0.2c-0.6-0.5-1.3-1.1-1.9-1.5l-0.2-0.1c-0.5-0.3-0.9-0.6-1.4-0.9l-0.4-0.2
	c-0.4-0.2-0.8-0.5-1.2-0.7c0,0.9,0,1.9,0,2.8C70.8,372.2,70.6,388.8,70.6,403.9z"/>
<path fill="#40672A" d="M135.4,262.4c-15.7-1.7-27-5.2-32.5-14.4s-5.3-24.1-5.5-46.1c-0.2-18.9-0.7-43.1-1.3-62.8
	c-1,0.7-1.9,1.6-2.7,2.6l-0.2,0.3c-0.2,0.2-0.4,0.5-0.6,0.8l-0.3,0.4c-0.2,0.3-0.5,0.7-0.7,1.1c-0.1,0.1-0.1,0.2-0.2,0.3l-0.1,0.2
	c-0.1,0.2-0.3,0.5-0.4,0.7s-0.2,0.4-0.3,0.7c-0.1,0.2-0.2,0.4-0.3,0.7l-0.1,0.2c-0.1,0.2-0.2,0.4-0.2,0.6c-0.2,0.4-0.3,0.8-0.5,1.2
	c-0.1,0.2-0.1,0.4-0.2,0.7c0,0-0.2,0.6-0.3,0.9s-0.2,0.6-0.3,0.9c-0.1,0.2-0.1,0.5-0.2,0.7c-0.1,0.5-0.2,1-0.4,1.5
	c-0.1,0.3-0.1,0.6-0.2,0.9c-0.1,0.3-0.1,0.6-0.2,1c-0.1,0.3-0.1,0.6-0.2,0.9c-0.1,0.3-0.1,0.6-0.1,1c-0.1,0.4-0.1,0.8-0.1,1.2
	s-0.1,0.7-0.1,1.1c-0.1,0.5-0.1,1.1-0.2,1.6l-0.1,0.9c0,0.5-0.1,1-0.1,1.4v0.8c0,0.8-0.1,1.5-0.1,2.3L85.9,239
	c-1,14.8,1.4,25.5,7.2,31.7c4.3,4.6,10.6,7,18.7,7l54.9,1.8l0.1-15.3C155.6,263.8,144.7,263.4,135.4,262.4z"/>
<path fill="#40672A" d="M100.1,541.6c-24-2.6-41.2-8-49.6-22s-8.1-36.8-8.4-70.3c-0.3-29-1-66-2-96.3c-8.6,6.4-13.1,18.8-14.1,37.9
	v0.4c-0.1,1.2-0.1,2.4-0.1,3.6v0.1l-1.2,110.6c-1.6,22.7,2.2,39,11.1,48.7c6.6,7.1,16.3,10.8,28.8,10.8l101.1,3.3l0.1-24.1
	C141.9,544.1,118.9,543.7,100.1,541.6z"/>
<path fill="#40672A" d="M211.4,58.5c-9,2.3-16.7,6.6-23,12.6l-0.2,0.2c0,0-0.1,0.1-0.1,0.2v584.9h23.4V65.1L211.4,58.5L211.4,58.5z"
	/>
<path fill="#40672A" d="M259.7,75c-6.5-8.7-14.8-14.6-23.9-17.1v7.2v591.3h24.4V75.6l-0.1-0.1L259.7,75z"/>
<path fill="#DD1215" d="M72.4,352.4l0.4,0.2c0.5,0.3,0.9,0.6,1.4,0.9l0.2,0.1l0,0c7.6-18,8.9-65.7,4.1-69.7
	c-6.1-3.9-7.9,29-10.3,40.9c-1.6-13.3-9.1-46.2-16.7-55c-8.5-0.2-3.3,42.9-2,52.9c-8.3-11.4-15.7-17.5-21.5-13.8
	c-5.9,5.9,7.3,26.6,15.8,41.7c3.8-1.9,8.3-2.8,13.4-2.8C62.8,348.1,67.9,349.6,72.4,352.4z"/>
<path fill="#DD1215" d="M116.2,138.1l0.2,0.1c0.7,0.4,1.4,0.9,2,1.3c5.1-11.8,9.4-27.4,6.3-30c-4-2.5-8.6,3.2-10.2,11
	c-1.1-8.7-4-49.6-8-49.9c-5.5-0.2-5.2,42-4.3,48.5c-5.4-7.5-10.3-11.5-14-9c-3.9,3.9,4.9,17.6,10.4,27.5c2.5-1.2,5.3-1.8,8.7-1.9
	C110.5,135.8,113.5,136.6,116.2,138.1z"/>
<path fill="#DD1215" d="M236,49.6c4-0.7,7.5-1.5,10.7-2.3c6.4-18.7,10.3-37.3,5.7-41.2c-7.7-4.9-16.7,6.2-19.8,21.3
	c-2-16.8-7.1-25.2-14.8-26c-10.7-0.3-10.6,10.6-8.9,23.3c-10.5-14.4-19.8-22.2-27.1-17.4c-7.1,7.1,15.9,45.6,15.9,45.6
	C211.8,52.1,225.4,51.3,236,49.6z"/>
<path fill="#C61718" d="M246.8,47.2c-3.2,0.9-6.8,1.7-10.7,2.3c-10.6,1.7-24.2,2.6-38.3,3.2c0.9,1.5,1.7,3,2.5,4.5
	c0.7,1.3,1.4,2.5,2.1,3.8l0,0c0.1,0.2,0.2,0.3,0.3,0.5c2.8-1.2,5.7-2.3,8.8-3.1l0.3-0.1c0.7-0.2,1.5-0.4,2.3-0.5
	c0.4-0.1,0.8-0.2,1.2-0.3c0.6-0.1,1.2-0.2,1.8-0.3l0.3-0.1c0.4-0.1,0.8-0.1,1.2-0.2c0.6-0.1,1.1-0.1,1.7-0.2l0.7-0.1
	c0.3,0,0.6-0.1,0.9-0.1c1.1-0.1,2.3-0.2,3.4-0.2c1.8,0,3.6,0.1,5.4,0.4l0.5,0.1c0.7,0.1,1.4,0.2,2.1,0.4l0.8,0.2
	c0.4,0.1,0.7,0.2,1,0.2l0.3,0.1c2.2,0.6,4.3,1.4,6.3,2.3c0.1-0.2,0.1-0.4,0.2-0.5l0,0C243.8,55.6,245.3,51.4,246.8,47.2L246.8,47.2z
	"/>
<polygon fill="#AA4F18" points="199,562.9 169.6,539.3 203.3,539.7 "/>
<polygon fill="#AA4F18" points="173.4,381.9 163,345.7 190.3,365.5 "/>
<polygon fill="#AA4F18" points="88.5,245.4 69.9,230.5 91.2,230.7 "/>
<polygon fill="#AA4F18" points="28.4,515.6 0,492.9 32.6,493.2 "/>
<polygon fill="#AA4F18" points="94,175.4 74.5,166.7 93,162.1 "/>
<polygon fill="#AA4F18" points="36.8,408.7 7.1,395.4 35.4,388.4 "/>
<polygon fill="#AA4F18" points="180.8,236.8 153.7,224.7 179.5,218.3 "/>
<polygon fill="#AA4F18" points="143.7,269.8 134.5,298 125.5,273.1 "/>
<polygon fill="#AA4F18" points="111.1,556.3 101.9,584.5 92.8,559.5 "/>
<polygon fill="#AA4F18" points="262,114.7 287.8,92.9 257.6,94.1 "/>
<polygon fill="#AA4F18" points="268.2,212.1 294,190.2 263.8,191.4 "/>
<polygon fill="#AA4F18" points="248.4,290.6 283.9,275.8 250.7,266.6 "/>
<polygon fill="#AA4F18" points="271.4,374 297.2,352.2 267,353.3 "/>
<polygon fill="#AA4F18" points="246,467.5 237.4,434.8 225.5,462.6 "/>
<polygon fill="#AA4F18" points="263.9,551.5 289.7,573.3 259.5,572.1 "/>
<polygon fill="#AA4F18" points="171.1,148.5 142.5,115.5 180.9,123 "/>
<polygon fill="#AA4F18" points="170.6,601.2 150.9,585.5 173.5,585.7 "/>
</svg>
