<?xml version="1.0" encoding="utf-8"?>
<!-- Generator: Adobe Illustrator 19.1.0, SVG Export Plug-In . SVG Version: 6.00 Build 0)  -->
<svg version="1.1" baseProfile="tiny" id="Layer_1" xmlns="http://www.w3.org/2000/svg" xmlns:xlink="http://www.w3.org/1999/xlink"
	 x="0px" y="0px" viewBox="-156 69 297.2 655" xml:space="preserve">
<g>
	<g>
		<path fill="#93BA3A" d="M118,189.9c0-0.6,0-1.1-0.1-1.7v-0.8c0-0.4,0-0.8,0-1.1c0-0.6-0.1-1.2-0.1-1.8v-0.6c0-0.4-0.1-0.8-0.1-1.2
			c-0.1-0.7-0.1-1.3-0.2-2.1c-0.1-0.5-0.1-1-0.2-1.5c-0.1-0.6-0.2-1.3-0.3-1.9c-0.1-0.5-0.2-1.1-0.3-1.6c-0.1-0.6-0.2-1.2-0.3-1.8
			c-0.1-0.6-0.2-1.1-0.3-1.6c-0.1-0.6-0.2-1.1-0.4-1.7c-0.1-0.6-0.3-1.1-0.4-1.7c-0.1-0.5-0.3-1-0.4-1.6c-0.2-0.6-0.3-1.2-0.5-1.8
			l-0.1-0.3c-0.1-0.4-0.2-0.8-0.4-1.2c-0.2-0.6-0.4-1.3-0.6-1.9l-0.1-0.4c-0.1-0.3-0.2-0.6-0.3-0.8c-0.3-0.7-0.5-1.4-0.8-2.1
			l-0.2-0.4c-0.1-0.2-0.1-0.4-0.2-0.6c-0.4-0.8-0.7-1.7-1.1-2.5l-0.2-0.5c-0.9-2-2-3.9-3-5.7l-0.1-0.2c-0.5-0.8-1-1.6-1.5-2.4
			c-0.1-0.1-0.4-0.6-0.4-0.6c-0.4-0.5-0.7-1-1.1-1.5l-0.4-0.5c-5-6.7-11.1-11.7-17.7-14.8c-2.1-1-4.2-1.7-6.3-2.3l-0.3-0.1
			c-0.3-0.1-0.7-0.2-1-0.2l-0.8-0.2c-0.7-0.1-1.4-0.3-2.1-0.4l-0.5-0.1c-1.9-0.3-3.7-0.4-5.4-0.4c-1.1,0.1-2.3,0.1-3.4,0.2
			c-0.3,0-0.6,0.1-0.9,0.1l-0.7,0.1c-0.6,0.1-1.1,0.1-1.7,0.2c-0.4,0.1-0.8,0.1-1.2,0.2l-0.3,0.1c-0.6,0.1-1.2,0.2-1.8,0.3
			c-0.4,0.1-0.8,0.2-1.2,0.3c-0.8,0.2-1.5,0.3-2.3,0.5l-0.3,0.1c-3.1,0.8-6,1.8-8.8,3.1c-5.4,2.4-10.2,5.6-14.3,9.6l-0.2,0.2
			c-0.6,0.6-1.3,1.3-1.9,1.9c-0.1,0.2-0.3,0.3-0.4,0.5l-0.3,0.3c-0.4,0.5-0.9,1-1.3,1.5c-0.2,0.3-0.4,0.5-0.6,0.8l-0.2,0.3
			c-0.4,0.5-0.7,0.9-1,1.4c-0.2,0.3-0.5,0.7-0.7,1l-0.1,0.1c-0.3,0.5-0.6,0.9-0.9,1.4c-0.3,0.4-0.5,0.8-0.8,1.3s-0.6,1-0.9,1.5
			c-0.2,0.4-0.5,0.9-0.7,1.3c-0.3,0.5-0.6,1.1-0.8,1.6l-0.1,0.2c-0.2,0.4-0.4,0.7-0.5,1.1c-0.3,0.6-0.6,1.2-0.8,1.9l-0.2,0.4
			c-0.1,0.3-0.2,0.5-0.3,0.8c-0.4,0.9-0.7,1.8-1.1,2.7l-0.2,0.5c-0.4,1.1-0.8,2.2-1.2,3.4c0,0.2-0.2,0.8-0.2,0.8
			c-0.3,0.9-0.5,1.8-0.8,2.7c-0.1,0.2-0.1,0.5-0.2,0.7l-0.1,0.4c-0.2,0.9-0.4,1.7-0.6,2.6c-0.1,0.3-0.3,1.3-0.3,1.3
			c-0.2,0.9-0.4,1.7-0.5,2.6c-0.1,0.4-0.2,0.9-0.2,1.3c-0.2,0.9-0.3,1.8-0.4,2.8c0,0-0.1,0.9-0.2,1.3c-0.1,1-0.2,2-0.4,3
			c0,0-0.1,1-0.1,1.3c-0.1,1.1-0.2,2.2-0.3,3.3l-0.1,1c-0.1,1.6-0.2,3.1-0.2,4.5l-0.5,110.7H-3.7c-0.5,0-0.9,0-1.4,0
			c-11.2,0-17.4-6.7-18.5-19.9v-46.5c-1.8-15.9-6.2-26.6-13.2-31.8c-0.6-0.5-1.3-0.9-2-1.3l-0.2-0.1c-2.6-1.4-5.7-2.2-8.9-2.3
			c-3.3,0-6.2,0.7-8.7,1.9c-2,1-3.7,2.3-5.2,4.1l-0.2,0.3c-0.2,0.2-0.4,0.5-0.6,0.8l-0.3,0.4c-0.2,0.3-0.5,0.7-0.7,1.1
			c-0.1,0.1-0.1,0.2-0.2,0.3l-0.1,0.2c-0.1,0.2-0.3,0.5-0.4,0.7c-0.1,0.2-0.2,0.4-0.3,0.7c-0.1,0.2-0.2,0.4-0.3,0.7L-65,216
			c-0.1,0.2-0.2,0.4-0.2,0.6c-0.2,0.4-0.3,0.8-0.5,1.2c-0.1,0.2-0.1,0.4-0.2,0.7c0,0-0.2,0.6-0.3,0.9s-0.2,0.6-0.3,0.9
			c-0.1,0.2-0.1,0.5-0.2,0.7c-0.1,0.5-0.2,1-0.4,1.5c-0.1,0.3-0.1,0.6-0.2,0.9c-0.1,0.3-0.1,0.6-0.2,1c-0.1,0.3-0.1,0.6-0.2,0.9
			c-0.1,0.3-0.1,0.6-0.1,1c-0.1,0.4-0.1,0.8-0.1,1.2s-0.1,0.7-0.1,1.1c-0.1,0.5-0.1,1.1-0.2,1.6l-0.1,0.9c0,0.5-0.1,1-0.1,1.4v0.8
			c0,0.8-0.1,1.5-0.1,2.3l-0.8,72.3c-1,14.8,1.4,25.5,7.2,31.7c4.3,4.6,10.6,7,18.7,7l55.5,1.8l-1,224.3h-41.9
			c-0.7,0-1.4,0.1-2.1,0.1c-16.9,0-26.3-10.1-27.9-30v-71.1c-0.2-1.4-0.3-2.8-0.5-4.1l-0.1-0.8c-0.2-1.2-0.4-2.5-0.6-3.7v-0.3
			c-0.4-2.7-1-5.3-1.5-7.8l-0.1-0.3c-0.6-2.5-1.2-4.8-1.9-7.1l-0.1-0.2c-0.3-1.1-0.7-2.1-1.1-3.2v-0.1c-0.7-2-1.5-4-2.4-5.9
			l-0.2-0.4c-0.4-0.9-0.9-1.7-1.3-2.5l-0.1-0.1c-0.4-0.8-0.9-1.6-1.4-2.4l-0.2-0.4c-0.4-0.6-0.8-1.3-1.3-1.9l-0.3-0.4
			c-1-1.4-2.1-2.7-3.2-3.9l-0.4-0.4c-0.5-0.5-1-1-1.6-1.5l-0.2-0.2c-0.6-0.5-1.2-1-1.9-1.5l0,0l-0.2-0.1c-0.5-0.3-0.9-0.6-1.4-0.9
			l-0.4-0.2c-4.4-2.8-9.6-4.3-15.2-4.5c-5.1,0-9.5,1-13.4,2.8c-11,5.4-16.7,18.5-17.8,40.2v0.4c-0.1,1.2-0.1,2.4-0.1,3.6v0.1
			l-1.2,110.6c-1.6,22.7,2.2,39,11.1,48.7c6.6,7.1,16.3,10.8,28.8,10.8l101.7,3.3l-0.4,88h101.9l6.1-528.2c0.1-1.2,0.1-2.4,0.1-3.7
			c0-0.4,0-0.9,0-1.3v-1.1C118,190.7,118,190.3,118,189.9z"/>
		<path fill="#40672A" d="M-39.9,241.2c-0.1,24.5,0.3,42.3,1.9,54c1.5,11.8,4.2,17.5,15.9,20.4c7.9,1.9,19.9,2.5,33.3,2.7l0.1-11.6
			H-4.4c-0.5,0-0.9,0-1.4,0c-11.2,0-17.4-6.7-18.5-19.9v-46.5c-1.9-17.4-7-28.6-15.2-33.2c0,0.5,0,1.1,0,1.6
			C-39.7,220.4-39.9,231.4-39.9,241.2z"/>
		<path fill="#40672A" d="M-85.4,472.9c-0.2,37.4,0.5,64.6,2.8,82.5c2.3,17.9,6.4,26.7,24.3,31c15.4,3.8,41.1,4.3,68.1,4.4l0.1-18.2
			h-41.3c-0.7,0-1.4,0.1-2.1,0.1c-16.9,0-26.3-10.1-27.9-30v-71.1c-0.2-1.4-0.3-2.8-0.5-4.1l-0.1-0.8c-0.2-1.2-0.4-2.5-0.6-3.7v-0.3
			c-0.4-2.7-1-5.3-1.5-7.8l-0.1-0.3c-0.6-2.5-1.2-4.8-1.9-7.1l-0.1-0.2c-0.3-1.1-0.7-2.1-1.1-3.2V444c-0.7-2-1.5-4-2.4-5.9l-0.2-0.4
			c-0.4-0.9-0.9-1.7-1.3-2.5l-0.1-0.1c-0.4-0.8-0.9-1.6-1.4-2.4l-0.2-0.4c-0.4-0.6-0.8-1.3-1.3-1.9l-0.3-0.4c-1-1.4-2.1-2.7-3.2-3.9
			l-0.4-0.4c-0.5-0.5-1-1-1.6-1.5l-0.2-0.2c-0.6-0.5-1.3-1.1-1.9-1.5l-0.2-0.1c-0.5-0.3-0.9-0.6-1.4-0.9l-0.4-0.2
			c-0.4-0.2-0.8-0.5-1.2-0.7c0,0.9,0,1.9,0,2.8C-85.2,441.2-85.4,457.8-85.4,472.9z"/>
		<path fill="#40672A" d="M-20.6,331.4c-15.7-1.7-27-5.2-32.5-14.4c-5.5-9.2-5.3-24.1-5.5-46.1c-0.2-18.9-0.7-43.1-1.3-62.8
			c-1,0.7-1.9,1.6-2.7,2.6l-0.2,0.3c-0.2,0.2-0.4,0.5-0.6,0.8l-0.3,0.4c-0.2,0.3-0.5,0.7-0.7,1.1c-0.1,0.1-0.1,0.2-0.2,0.3l-0.1,0.2
			c-0.1,0.2-0.3,0.5-0.4,0.7c-0.1,0.2-0.2,0.4-0.3,0.7c-0.1,0.2-0.2,0.4-0.3,0.7l-0.1,0.2c-0.1,0.2-0.2,0.4-0.2,0.6
			c-0.2,0.4-0.3,0.8-0.5,1.2c-0.1,0.2-0.1,0.4-0.2,0.7c0,0-0.2,0.6-0.3,0.9s-0.2,0.6-0.3,0.9c-0.1,0.2-0.1,0.5-0.2,0.7
			c-0.1,0.5-0.2,1-0.4,1.5c-0.1,0.3-0.1,0.6-0.2,0.9c-0.1,0.3-0.1,0.6-0.2,1c-0.1,0.3-0.1,0.6-0.2,0.9c-0.1,0.3-0.1,0.6-0.1,1
			c-0.1,0.4-0.1,0.8-0.1,1.2s-0.1,0.7-0.1,1.1c-0.1,0.5-0.1,1.1-0.2,1.6l-0.1,0.9c0,0.5-0.1,1-0.1,1.4v0.8c0,0.8-0.1,1.5-0.1,2.3
			l-0.8,72.3c-1,14.8,1.4,25.5,7.2,31.7c4.3,4.6,10.6,7,18.7,7l54.9,1.8l0.1-15.3C-0.4,332.8-11.3,332.4-20.6,331.4z"/>
		<path fill="#40672A" d="M-55.9,610.6c-24-2.6-41.2-8-49.6-22s-8.1-36.8-8.4-70.3c-0.3-29-1-66-2-96.3
			c-8.6,6.4-13.1,18.8-14.1,37.9v0.4c-0.1,1.2-0.1,2.4-0.1,3.6v0.1l-1.2,110.6c-1.6,22.7,2.2,39,11.1,48.7
			c6.6,7.1,16.3,10.8,28.8,10.8l101.1,3.3l0.1-24.1C-14.1,613.1-37.1,612.7-55.9,610.6z"/>
		<path fill="#40672A" d="M55.4,127.5c-9,2.3-16.7,6.6-23,12.6l-0.2,0.2c0,0-0.1,0.1-0.1,0.2v584.9h23.4V134.1L55.4,127.5
			L55.4,127.5z"/>
		<path fill="#40672A" d="M103.7,144c-6.5-8.7-14.8-14.6-23.9-17.1v7.2v591.3h24.4V144.6l-0.1-0.1L103.7,144z"/>
	</g>
	<g>
		<path fill="#DD1215" d="M-83.6,421.4l0.4,0.2c0.5,0.3,0.9,0.6,1.4,0.9l0.2,0.1l0,0c7.6-18,8.9-65.7,4.1-69.7
			c-6.1-3.9-7.9,29-10.3,40.9c-1.6-13.3-9.1-46.2-16.7-55c-8.5-0.2-3.3,42.9-2,52.9c-8.3-11.4-15.7-17.5-21.5-13.8
			c-5.9,5.9,7.3,26.6,15.8,41.7c3.8-1.9,8.3-2.8,13.4-2.8C-93.2,417.1-88.1,418.6-83.6,421.4z"/>
		<path fill="#DD1215" d="M-39.8,207.1l0.2,0.1c0.7,0.4,1.4,0.9,2,1.3c5.1-11.8,9.4-27.4,6.3-30c-4-2.5-8.6,3.2-10.2,11
			c-1.1-8.7-4-49.6-8-49.9c-5.5-0.2-5.2,42-4.3,48.5c-5.4-7.5-10.3-11.5-14-9c-3.9,3.9,4.9,17.6,10.4,27.5c2.5-1.2,5.3-1.8,8.7-1.9
			C-45.5,204.8-42.5,205.6-39.8,207.1z"/>
		<path fill="#DD1215" d="M80,118.6c4-0.7,7.5-1.5,10.7-2.3C97.1,97.6,101,79,96.4,75.1c-7.7-4.9-16.7,6.2-19.8,21.3
			c-2-16.8-7.1-25.2-14.8-26C51.1,70.1,51.2,81,52.9,93.7C42.4,79.3,33.1,71.5,25.8,76.3c-7.1,7.1,15.9,45.6,15.9,45.6
			C55.8,121.1,69.4,120.3,80,118.6z"/>
		<path fill="#C61718" d="M90.8,116.2c-3.2,0.9-6.8,1.7-10.7,2.3c-10.6,1.7-24.2,2.6-38.3,3.2c0.9,1.5,1.7,3,2.5,4.5
			c0.7,1.3,1.4,2.5,2.1,3.8l0,0c0.1,0.2,0.2,0.3,0.3,0.5c2.8-1.2,5.7-2.3,8.8-3.1l0.3-0.1c0.7-0.2,1.5-0.4,2.3-0.5
			c0.4-0.1,0.8-0.2,1.2-0.3c0.6-0.1,1.2-0.2,1.8-0.3l0.3-0.1c0.4-0.1,0.8-0.1,1.2-0.2c0.6-0.1,1.1-0.1,1.7-0.2l0.7-0.1
			c0.3,0,0.6-0.1,0.9-0.1c1.1-0.1,2.3-0.2,3.4-0.2c1.8,0,3.6,0.1,5.4,0.4l0.5,0.1c0.7,0.1,1.4,0.2,2.1,0.4l0.8,0.2
			c0.4,0.1,0.7,0.2,1,0.2l0.3,0.1c2.2,0.6,4.3,1.4,6.3,2.3c0.1-0.2,0.1-0.4,0.2-0.5l0,0C87.8,124.6,89.3,120.4,90.8,116.2
			L90.8,116.2z"/>
	</g>
	<g>
		<polygon fill="#AA4F18" points="43,631.9 13.6,608.3 47.3,608.7 		"/>
		<polygon fill="#AA4F18" points="17.4,450.9 7,414.7 34.3,434.5 		"/>
		<polygon fill="#AA4F18" points="-67.5,314.4 -86.1,299.5 -64.8,299.7 		"/>
		<polygon fill="#AA4F18" points="-127.6,584.6 -156,561.9 -123.4,562.2 		"/>
		<polygon fill="#AA4F18" points="-62,244.4 -81.5,235.7 -63,231.1 		"/>
		<polygon fill="#AA4F18" points="-119.2,477.7 -148.9,464.4 -120.6,457.4 		"/>
		<polygon fill="#AA4F18" points="24.8,305.8 -2.3,293.7 23.5,287.3 		"/>
		<polygon fill="#AA4F18" points="-12.3,338.8 -21.5,367 -30.5,342.1 		"/>
		<polygon fill="#AA4F18" points="-44.9,625.3 -54.1,653.5 -63.2,628.5 		"/>
		<polygon fill="#AA4F18" points="106,183.7 131.8,161.9 101.6,163.1 		"/>
		<polygon fill="#AA4F18" points="112.2,281.1 138,259.2 107.8,260.4 		"/>
		<polygon fill="#AA4F18" points="92.4,359.6 127.9,344.8 94.7,335.6 		"/>
		<polygon fill="#AA4F18" points="115.4,443 141.2,421.2 111,422.3 		"/>
		<polygon fill="#AA4F18" points="90,536.5 81.4,503.8 69.5,531.6 		"/>
		<polygon fill="#AA4F18" points="107.9,620.5 133.7,642.3 103.5,641.1 		"/>
		<polygon fill="#AA4F18" points="15.1,217.5 -13.5,184.5 24.9,192 		"/>
		<polygon fill="#AA4F18" points="14.6,670.2 -5.1,654.5 17.5,654.7 		"/>
	</g>
</g>
</svg>
