<?xml version="1.0"?>
<svg xmlns="http://www.w3.org/2000/svg" width="1000" height="1000" viewBox="-500 -500 1000 1000">
    <path d="M-134.21,-150C-134.21,-141.28 -141.28,-134.21 -150,-134.21C-158.72,-134.21 -165.79,-141.28 -165.79,-150C-165.79,-158.72 -158.72,-165.79 -150,-165.79C-141.28,-165.79 -134.21,-158.72 -134.21,-150Z" stroke-width="5.0" fill="none" stroke="#000000"/>
    <path d="M-118.42,-150C-118.42,-141.28 -125.49,-134.21 -134.21,-134.21C-142.93,-134.21 -150,-141.28 -150,-150C-150,-158.72 -142.93,-165.79 -134.21,-165.79C-125.49,-165.79 -118.42,-158.72 -118.42,-150Z" stroke-width="0.25" fill="none" stroke="#000000"/>
    <path d="M-102.63,-150C-102.63,-141.28 -109.70,-134.21 -118.42,-134.21C-127.14,-134.21 -134.21,-141.28 -134.21,-150C-134.21,-158.72 -127.14,-165.79 -118.42,-165.79C-109.70,-165.79 -102.63,-158.72 -102.63,-150Z" stroke-width="0.25" fill="none" stroke="#000000"/>
    <path d="M-86.84,-150C-86.84,-141.28 -93.91,-134.21 -102.63,-134.21C-111.35,-134.21 -118.42,-141.28 -118.42,-150C-118.42,-158.72 -111.35,-165.79 -102.63,-165.79C-93.91,-165.79 -86.84,-158.72 -86.84,-150Z" stroke-width="0.25" fill="none" stroke="#000000"/>
    <path d="M-71.05,-150C-71.05,-141.28 -78.12,-134.21 -86.84,-134.21C-95.56,-134.21 -102.63,-141.28 -102.63,-150C-102.63,-158.72 -95.56,-165.79 -86.84,-165.79C-78.12,-165.79 -71.05,-158.72 -71.05,-150Z" stroke-width="0.25" fill="none" stroke="#000000"/>
    <path d="M-55.26,-150C-55.26,-141.28 -62.33,-134.21 -71.05,-134.21C-79.77,-134.21 -86.84,-141.28 -86.84,-150C-86.84,-158.72 -79.77,-165.79 -71.05,-165.79C-62.33,-165.79 -55.26,-158.72 -55.26,-150Z" stroke-width="0.25" fill="none" stroke="#000000"/>
    <path d="M-39.47,-150C-39.47,-141.28 -46.54,-134.21 -55.26,-134.21C-63.98,-134.21 -71.05,-141.28 -71.05,-150C-71.05,-158.72 -63.98,-165.79 -55.26,-165.79C-46.54,-165.79 -39.47,-158.72 -39.47,-150Z" stroke-width="0.25" fill="none" stroke="#000000"/>
    <path d="M-23.68,-150C-23.68,-141.28 -30.75,-134.21 -39.47,-134.21C-48.19,-134.21 -55.26,-141.28 -55.26,-150C-55.26,-158.72 -48.19,-165.79 -39.47,-165.79C-30.75,-165.79 -23.68,-158.72 -23.68,-150Z" stroke-width="0.25" fill="none" stroke="#000000"/>
    <path d="M-7.89,-150C-7.89,-141.28 -14.96,-134.21 -23.68,-134.21C-32.40,-134.21 -39.47,-141.28 -39.47,-150C-39.47,-158.72 -32.40,-165.79 -23.68,-165.79C-14.96,-165.79 -7.89,-158.72 -7.89,-150Z" stroke-width="0.25" fill="none" stroke="#000000"/>
    <path d="M7.89,-150C7.89,-141.28 0.83,-134.21 -7.89,-134.21C-16.62,-134.21 -23.68,-141.28 -23.68,-150C-23.68,-158.72 -16.62,-165.79 -7.89,-165.79C0.83,-165.79 7.89,-158.72 7.89,-150Z" stroke-width="0.25" fill="none" stroke="#000000"/>
    <path d="M23.68,-150C23.68,-141.28 16.62,-134.21 7.89,-134.21C-0.83,-134.21 -7.89,-141.28 -7.89,-150C-7.89,-158.72 -0.83,-165.79 7.89,-165.79C16.62,-165.79 23.68,-158.72 23.68,-150Z" stroke-width="0.25" fill="none" stroke="#000000"/>
    <path d="M39.47,-150C39.47,-141.28 32.40,-134.21 23.68,-134.21C14.96,-134.21 7.89,-141.28 7.89,-150C7.89,-158.72 14.96,-165.79 23.68,-165.79C32.40,-165.79 39.47,-158.72 39.47,-150Z" stroke-width="0.25" fill="none" stroke="#000000"/>
    <path d="M55.26,-150C55.26,-141.28 48.19,-134.21 39.47,-134.21C30.75,-134.21 23.68,-141.28 23.68,-150C23.68,-158.72 30.75,-165.79 39.47,-165.79C48.19,-165.79 55.26,-158.72 55.26,-150Z" stroke-width="0.25" fill="none" stroke="#000000"/>
    <path d="M71.05,-150C71.05,-141.28 63.98,-134.21 55.26,-134.21C46.54,-134.21 39.47,-141.28 39.47,-150C39.47,-158.72 46.54,-165.79 55.26,-165.79C63.98,-165.79 71.05,-158.72 71.05,-150Z" stroke-width="0.25" fill="none" stroke="#000000"/>
    <path d="M86.84,-150C86.84,-141.28 79.77,-134.21 71.05,-134.21C62.33,-134.21 55.26,-141.28 55.26,-150C55.26,-158.72 62.33,-165.79 71.05,-165.79C79.77,-165.79 86.84,-158.72 86.84,-150Z" stroke-width="0.25" fill="none" stroke="#000000"/>
    <path d="M102.63,-150C102.63,-141.28 95.56,-134.21 86.84,-134.21C78.12,-134.21 71.05,-141.28 71.05,-150C71.05,-158.72 78.12,-165.79 86.84,-165.79C95.56,-165.79 102.63,-158.72 102.63,-150Z" stroke-width="0.25" fill="none" stroke="#000000"/>
    <path d="M118.42,-150C118.42,-141.28 111.35,-134.21 102.63,-134.21C93.91,-134.21 86.84,-141.28 86.84,-150C86.84,-158.72 93.91,-165.79 102.63,-165.79C111.35,-165.79 118.42,-158.72 118.42,-150Z" stroke-width="0.25" fill="none" stroke="#000000"/>
    <path d="M134.21,-150C134.21,-141.28 127.14,-134.21 118.42,-134.21C109.70,-134.21 102.63,-141.28 102.63,-150C102.63,-158.72 109.70,-165.79 118.42,-165.79C127.14,-165.79 134.21,-158.72 134.21,-150Z" stroke-width="0.25" fill="none" stroke="#000000"/>
    <path d="M150,-150C150,-141.28 142.93,-134.21 134.21,-134.21C125.49,-134.21 118.42,-141.28 118.42,-150C118.42,-158.72 125.49,-165.79 134.21,-165.79C142.93,-165.79 150,-158.72 150,-150Z" stroke-width="0.25" fill="none" stroke="#000000"/>
    <path d="M165.79,-150C165.79,-141.28 158.72,-134.21 150,-134.21C141.28,-134.21 134.21,-141.28 134.21,-150C134.21,-158.72 141.28,-165.79 150,-165.79C158.72,-165.79 165.79,-158.72 165.79,-150Z" stroke-width="0.25" fill="none" stroke="#000000"/>
    <path d="M-134.21,-134.21C-134.21,-125.49 -141.28,-118.42 -150,-118.42C-158.72,-118.42 -165.79,-125.49 -165.79,-134.21C-165.79,-142.93 -158.72,-150 -150,-150C-141.28,-150 -134.21,-142.93 -134.21,-134.21Z" stroke-width="0.25" fill="#00FF00" stroke="#000000"/>
    <path d="M-118.42,-134.21C-118.42,-125.49 -125.49,-118.42 -134.21,-118.42C-142.93,-118.42 -150,-125.49 -150,-134.21C-150,-142.93 -142.93,-150 -134.21,-150C-125.49,-150 -118.42,-142.93 -118.42,-134.21Z" stroke-width="0.25" fill="none" stroke="#000000"/>
    <path d="M-102.63,-134.21C-102.63,-125.49 -109.70,-118.42 -118.42,-118.42C-127.14,-118.42 -134.21,-125.49 -134.21,-134.21C-134.21,-142.93 -127.14,-150 -118.42,-150C-109.70,-150 -102.63,-142.93 -102.63,-134.21Z" stroke-width="0.25" fill="none" stroke="#000000"/>
    <path d="M-86.84,-134.21C-86.84,-125.49 -93.91,-118.42 -102.63,-118.42C-111.35,-118.42 -118.42,-125.49 -118.42,-134.21C-118.42,-142.93 -111.35,-150 -102.63,-150C-93.91,-150 -86.84,-142.93 -86.84,-134.21Z" stroke-width="0.25" fill="none" stroke="#FF0000"/>
    <path d="M-71.05,-134.21C-71.05,-125.49 -78.12,-118.42 -86.84,-118.42C-95.56,-118.42 -102.63,-125.49 -102.63,-134.21C-102.63,-142.93 -95.56,-150 -86.84,-150C-78.12,-150 -71.05,-142.93 -71.05,-134.21Z" stroke-width="0.25" fill="none" stroke="#000000"/>
    <path d="M-55.26,-134.21C-55.26,-125.49 -62.33,-118.42 -71.05,-118.42C-79.77,-118.42 -86.84,-125.49 -86.84,-134.21C-86.84,-142.93 -79.77,-150 -71.05,-150C-62.33,-150 -55.26,-142.93 -55.26,-134.21Z" stroke-width="0.25" fill="none" stroke="#000000"/>
    <path d="M-39.47,-134.21C-39.47,-125.49 -46.54,-118.42 -55.26,-118.42C-63.98,-118.42 -71.05,-125.49 -71.05,-134.21C-71.05,-142.93 -63.98,-150 -55.26,-150C-46.54,-150 -39.47,-142.93 -39.47,-134.21Z" stroke-width="0.25" fill="none" stroke="#000000"/>
    <path d="M-23.68,-134.21C-23.68,-125.49 -30.75,-118.42 -39.47,-118.42C-48.19,-118.42 -55.26,-125.49 -55.26,-134.21C-55.26,-142.93 -48.19,-150 -39.47,-150C-30.75,-150 -23.68,-142.93 -23.68,-134.21Z" stroke-width="0.25" fill="none" stroke="#000000"/>
    <path d="M-7.89,-134.21C-7.89,-125.49 -14.96,-118.42 -23.68,-118.42C-32.40,-118.42 -39.47,-125.49 -39.47,-134.21C-39.47,-142.93 -32.40,-150 -23.68,-150C-14.96,-150 -7.89,-142.93 -7.89,-134.21Z" stroke-width="0.25" fill="none" stroke="#000000"/>
    <path d="M7.89,-134.21C7.89,-125.49 0.83,-118.42 -7.89,-118.42C-16.62,-118.42 -23.68,-125.49 -23.68,-134.21C-23.68,-142.93 -16.62,-150 -7.89,-150C0.83,-150 7.89,-142.93 7.89,-134.21Z" stroke-width="0.25" fill="none" stroke="#000000"/>
    <path d="M23.68,-134.21C23.68,-125.49 16.62,-118.42 7.89,-118.42C-0.83,-118.42 -7.89,-125.49 -7.89,-134.21C-7.89,-142.93 -0.83,-150 7.89,-150C16.62,-150 23.68,-142.93 23.68,-134.21Z" stroke-width="0.25" fill="none" stroke="#000000"/>
    <path d="M39.47,-134.21C39.47,-125.49 32.40,-118.42 23.68,-118.42C14.96,-118.42 7.89,-125.49 7.89,-134.21C7.89,-142.93 14.96,-150 23.68,-150C32.40,-150 39.47,-142.93 39.47,-134.21Z" stroke-width="0.25" fill="none" stroke="#000000"/>
    <path d="M55.26,-134.21C55.26,-125.49 48.19,-118.42 39.47,-118.42C30.75,-118.42 23.68,-125.49 23.68,-134.21C23.68,-142.93 30.75,-150 39.47,-150C48.19,-150 55.26,-142.93 55.26,-134.21Z" stroke-width="0.25" fill="none" stroke="#000000"/>
    <path d="M71.05,-134.21C71.05,-125.49 63.98,-118.42 55.26,-118.42C46.54,-118.42 39.47,-125.49 39.47,-134.21C39.47,-142.93 46.54,-150 55.26,-150C63.98,-150 71.05,-142.93 71.05,-134.21Z" stroke-width="0.25" fill="none" stroke="#000000"/>
    <path d="M86.84,-134.21C86.84,-125.49 79.77,-118.42 71.05,-118.42C62.33,-118.42 55.26,-125.49 55.26,-134.21C55.26,-142.93 62.33,-150 71.05,-150C79.77,-150 86.84,-142.93 86.84,-134.21Z" stroke-width="0.25" fill="none" stroke="#000000"/>
    <path d="M102.63,-134.21C102.63,-125.49 95.56,-118.42 86.84,-118.42C78.12,-118.42 71.05,-125.49 71.05,-134.21C71.05,-142.93 78.12,-150 86.84,-150C95.56,-150 102.63,-142.93 102.63,-134.21Z" stroke-width="0.25" fill="none" stroke="#000000"/>
    <path d="M118.42,-134.21C118.42,-125.49 111.35,-118.42 102.63,-118.42C93.91,-118.42 86.84,-125.49 86.84,-134.21C86.84,-142.93 93.91,-150 102.63,-150C111.35,-150 118.42,-142.93 118.42,-134.21Z" stroke-width="0.25" fill="none" stroke="#000000"/>
    <path d="M134.21,-134.21C134.21,-125.49 127.14,-118.42 118.42,-118.42C109.70,-118.42 102.63,-125.49 102.63,-134.21C102.63,-142.93 109.70,-150 118.42,-150C127.14,-150 134.21,-142.93 134.21,-134.21Z" stroke-width="0.25" fill="none" stroke="#000000"/>
    <path d="M150,-134.21C150,-125.49 142.93,-118.42 134.21,-118.42C125.49,-118.42 118.42,-125.49 118.42,-134.21C118.42,-142.93 125.49,-150 134.21,-150C142.93,-150 150,-142.93 150,-134.21Z" stroke-width="0.25" fill="none" stroke="#000000"/>
    <path d="M165.79,-134.21C165.79,-125.49 158.72,-118.42 150,-118.42C141.28,-118.42 134.21,-125.49 134.21,-134.21C134.21,-142.93 141.28,-150 150,-150C158.72,-150 165.79,-142.93 165.79,-134.21Z" stroke-width="0.25" fill="none" stroke="#000000"/>
    <path d="M-134.21,-118.42C-134.21,-109.70 -141.28,-102.63 -150,-102.63C-158.72,-102.63 -165.79,-109.70 -165.79,-118.42C-165.79,-127.14 -158.72,-134.21 -150,-134.21C-141.28,-134.21 -134.21,-127.14 -134.21,-118.42Z" stroke-width="0.25" fill="none" stroke="#000000"/>
    <path d="M-118.42,-118.42C-118.42,-109.70 -125.49,-102.63 -134.21,-102.63C-142.93,-102.63 -150,-109.70 -150,-118.42C-150,-127.14 -142.93,-134.21 -134.21,-134.21C-125.49,-134.21 -118.42,-127.14 -118.42,-118.42Z" stroke-width="0.25" fill="none" stroke="#000000"/>
    <path d="M-102.63,-118.42C-102.63,-109.70 -109.70,-102.63 -118.42,-102.63C-127.14,-102.63 -134.21,-109.70 -134.21,-118.42C-134.21,-127.14 -127.14,-134.21 -118.42,-134.21C-109.70,-134.21 -102.63,-127.14 -102.63,-118.42Z" stroke-width="0.25" fill="none" stroke="#000000"/>
    <path d="M-86.84,-118.42C-86.84,-109.70 -93.91,-102.63 -102.63,-102.63C-111.35,-102.63 -118.42,-109.70 -118.42,-118.42C-118.42,-127.14 -111.35,-134.21 -102.63,-134.21C-93.91,-134.21 -86.84,-127.14 -86.84,-118.42Z" stroke-width="0.25" fill="none" stroke="#000000"/>
    <path d="M-71.05,-118.42C-71.05,-109.70 -78.12,-102.63 -86.84,-102.63C-95.56,-102.63 -102.63,-109.70 -102.63,-118.42C-102.63,-127.14 -95.56,-134.21 -86.84,-134.21C-78.12,-134.21 -71.05,-127.14 -71.05,-118.42Z" stroke-width="0.25" fill="none" stroke="#000000"/>
    <path d="M-55.26,-118.42C-55.26,-109.70 -62.33,-102.63 -71.05,-102.63C-79.77,-102.63 -86.84,-109.70 -86.84,-118.42C-86.84,-127.14 -79.77,-134.21 -71.05,-134.21C-62.33,-134.21 -55.26,-127.14 -55.26,-118.42Z" stroke-width="0.25" fill="none" stroke="#000000"/>
    <path d="M-39.47,-118.42C-39.47,-109.70 -46.54,-102.63 -55.26,-102.63C-63.98,-102.63 -71.05,-109.70 -71.05,-118.42C-71.05,-127.14 -63.98,-134.21 -55.26,-134.21C-46.54,-134.21 -39.47,-127.14 -39.47,-118.42Z" stroke-width="0.25" fill="none" stroke="#000000"/>
    <path d="M-23.68,-118.42C-23.68,-109.70 -30.75,-102.63 -39.47,-102.63C-48.19,-102.63 -55.26,-109.70 -55.26,-118.42C-55.26,-127.14 -48.19,-134.21 -39.47,-134.21C-30.75,-134.21 -23.68,-127.14 -23.68,-118.42Z" stroke-width="0.25" fill="none" stroke="#000000"/>
    <path d="M-7.89,-118.42C-7.89,-109.70 -14.96,-102.63 -23.68,-102.63C-32.40,-102.63 -39.47,-109.70 -39.47,-118.42C-39.47,-127.14 -32.40,-134.21 -23.68,-134.21C-14.96,-134.21 -7.89,-127.14 -7.89,-118.42Z" stroke-width="0.25" fill="none" stroke="#000000"/>
    <path d="M7.89,-118.42C7.89,-109.70 0.83,-102.63 -7.89,-102.63C-16.62,-102.63 -23.68,-109.70 -23.68,-118.42C-23.68,-127.14 -16.62,-134.21 -7.89,-134.21C0.83,-134.21 7.89,-127.14 7.89,-118.42Z" stroke-width="0.25" fill="none" stroke="#000000"/>
    <path d="M23.68,-118.42C23.68,-109.70 16.62,-102.63 7.89,-102.63C-0.83,-102.63 -7.89,-109.70 -7.89,-118.42C-7.89,-127.14 -0.83,-134.21 7.89,-134.21C16.62,-134.21 23.68,-127.14 23.68,-118.42Z" stroke-width="0.25" fill="none" stroke="#000000"/>
    <path d="M39.47,-118.42C39.47,-109.70 32.40,-102.63 23.68,-102.63C14.96,-102.63 7.89,-109.70 7.89,-118.42C7.89,-127.14 14.96,-134.21 23.68,-134.21C32.40,-134.21 39.47,-127.14 39.47,-118.42Z" stroke-width="0.25" fill="none" stroke="#000000"/>
    <path d="M55.26,-118.42C55.26,-109.70 48.19,-102.63 39.47,-102.63C30.75,-102.63 23.68,-109.70 23.68,-118.42C23.68,-127.14 30.75,-134.21 39.47,-134.21C48.19,-134.21 55.26,-127.14 55.26,-118.42Z" stroke-width="0.25" fill="none" stroke="#000000"/>
    <path d="M71.05,-118.42C71.05,-109.70 63.98,-102.63 55.26,-102.63C46.54,-102.63 39.47,-109.70 39.47,-118.42C39.47,-127.14 46.54,-134.21 55.26,-134.21C63.98,-134.21 71.05,-127.14 71.05,-118.42Z" stroke-width="0.25" fill="none" stroke="#000000"/>
    <path d="M86.84,-118.42C86.84,-109.70 79.77,-102.63 71.05,-102.63C62.33,-102.63 55.26,-109.70 55.26,-118.42C55.26,-127.14 62.33,-134.21 71.05,-134.21C79.77,-134.21 86.84,-127.14 86.84,-118.42Z" stroke-width="0.25" fill="none" stroke="#000000"/>
    <path d="M102.63,-118.42C102.63,-109.70 95.56,-102.63 86.84,-102.63C78.12,-102.63 71.05,-109.70 71.05,-118.42C71.05,-127.14 78.12,-134.21 86.84,-134.21C95.56,-134.21 102.63,-127.14 102.63,-118.42Z" stroke-width="0.25" fill="none" stroke="#000000"/>
    <path d="M118.42,-118.42C118.42,-109.70 111.35,-102.63 102.63,-102.63C93.91,-102.63 86.84,-109.70 86.84,-118.42C86.84,-127.14 93.91,-134.21 102.63,-134.21C111.35,-134.21 118.42,-127.14 118.42,-118.42Z" stroke-width="0.25" fill="none" stroke="#000000"/>
    <path d="M134.21,-118.42C134.21,-109.70 127.14,-102.63 118.42,-102.63C109.70,-102.63 102.63,-109.70 102.63,-118.42C102.63,-127.14 109.70,-134.21 118.42,-134.21C127.14,-134.21 134.21,-127.14 134.21,-118.42Z" stroke-width="0.25" fill="none" stroke="#000000"/>
    <path d="M150,-118.42C150,-109.70 142.93,-102.63 134.21,-102.63C125.49,-102.63 118.42,-109.70 118.42,-118.42C118.42,-127.14 125.49,-134.21 134.21,-134.21C142.93,-134.21 150,-127.14 150,-118.42Z" stroke-width="0.25" fill="none" stroke="#000000"/>
    <path d="M165.79,-118.42C165.79,-109.70 158.72,-102.63 150,-102.63C141.28,-102.63 134.21,-109.70 134.21,-118.42C134.21,-127.14 141.28,-134.21 150,-134.21C158.72,-134.21 165.79,-127.14 165.79,-118.42Z" stroke-width="0.25" fill="none" stroke="#000000"/>
    <path d="M-134.21,-102.63C-134.21,-93.91 -141.28,-86.84 -150,-86.84C-158.72,-86.84 -165.79,-93.91 -165.79,-102.63C-165.79,-111.35 -158.72,-118.42 -150,-118.42C-141.28,-118.42 -134.21,-111.35 -134.21,-102.63Z" stroke-width="0.25" fill="none" stroke="#000000"/>
    <path d="M-118.42,-102.63C-118.42,-93.91 -125.49,-86.84 -134.21,-86.84C-142.93,-86.84 -150,-93.91 -150,-102.63C-150,-111.35 -142.93,-118.42 -134.21,-118.42C-125.49,-118.42 -118.42,-111.35 -118.42,-102.63Z" stroke-width="0.25" fill="none" stroke="#000000"/>
    <path d="M-102.63,-102.63C-102.63,-93.91 -109.70,-86.84 -118.42,-86.84C-127.14,-86.84 -134.21,-93.91 -134.21,-102.63C-134.21,-111.35 -127.14,-118.42 -118.42,-118.42C-109.70,-118.42 -102.63,-111.35 -102.63,-102.63Z" stroke-width="0.25" fill="none" stroke="#000000"/>
    <path d="M-86.84,-102.63C-86.84,-93.91 -93.91,-86.84 -102.63,-86.84C-111.35,-86.84 -118.42,-93.91 -118.42,-102.63C-118.42,-111.35 -111.35,-118.42 -102.63,-118.42C-93.91,-118.42 -86.84,-111.35 -86.84,-102.63Z" stroke-width="0.25" fill="none" stroke="#000000"/>
    <path d="M-71.05,-102.63C-71.05,-93.91 -78.12,-86.84 -86.84,-86.84C-95.56,-86.84 -102.63,-93.91 -102.63,-102.63C-102.63,-111.35 -95.56,-118.42 -86.84,-118.42C-78.12,-118.42 -71.05,-111.35 -71.05,-102.63Z" stroke-width="0.25" fill="none" stroke="#000000"/>
    <path d="M-55.26,-102.63C-55.26,-93.91 -62.33,-86.84 -71.05,-86.84C-79.77,-86.84 -86.84,-93.91 -86.84,-102.63C-86.84,-111.35 -79.77,-118.42 -71.05,-118.42C-62.33,-118.42 -55.26,-111.35 -55.26,-102.63Z" stroke-width="0.25" fill="none" stroke="#000000"/>
    <path d="M-39.47,-102.63C-39.47,-93.91 -46.54,-86.84 -55.26,-86.84C-63.98,-86.84 -71.05,-93.91 -71.05,-102.63C-71.05,-111.35 -63.98,-118.42 -55.26,-118.42C-46.54,-118.42 -39.47,-111.35 -39.47,-102.63Z" stroke-width="0.25" fill="none" stroke="#000000"/>
    <path d="M-23.68,-102.63C-23.68,-93.91 -30.75,-86.84 -39.47,-86.84C-48.19,-86.84 -55.26,-93.91 -55.26,-102.63C-55.26,-111.35 -48.19,-118.42 -39.47,-118.42C-30.75,-118.42 -23.68,-111.35 -23.68,-102.63Z" stroke-width="0.25" fill="none" stroke="#000000"/>
    <path d="M-7.89,-102.63C-7.89,-93.91 -14.96,-86.84 -23.68,-86.84C-32.40,-86.84 -39.47,-93.91 -39.47,-102.63C-39.47,-111.35 -32.40,-118.42 -23.68,-118.42C-14.96,-118.42 -7.89,-111.35 -7.89,-102.63Z" stroke-width="0.25" fill="none" stroke="#000000"/>
    <path d="M7.89,-102.63C7.89,-93.91 0.83,-86.84 -7.89,-86.84C-16.62,-86.84 -23.68,-93.91 -23.68,-102.63C-23.68,-111.35 -16.62,-118.42 -7.89,-118.42C0.83,-118.42 7.89,-111.35 7.89,-102.63Z" stroke-width="0.25" fill="none" stroke="#000000"/>
    <path d="M23.68,-102.63C23.68,-93.91 16.62,-86.84 7.89,-86.84C-0.83,-86.84 -7.89,-93.91 -7.89,-102.63C-7.89,-111.35 -0.83,-118.42 7.89,-118.42C16.62,-118.42 23.68,-111.35 23.68,-102.63Z" stroke-width="0.25" fill="none" stroke="#000000"/>
    <path d="M39.47,-102.63C39.47,-93.91 32.40,-86.84 23.68,-86.84C14.96,-86.84 7.89,-93.91 7.89,-102.63C7.89,-111.35 14.96,-118.42 23.68,-118.42C32.40,-118.42 39.47,-111.35 39.47,-102.63Z" stroke-width="0.25" fill="none" stroke="#000000"/>
    <path d="M55.26,-102.63C55.26,-93.91 48.19,-86.84 39.47,-86.84C30.75,-86.84 23.68,-93.91 23.68,-102.63C23.68,-111.35 30.75,-118.42 39.47,-118.42C48.19,-118.42 55.26,-111.35 55.26,-102.63Z" stroke-width="0.25" fill="none" stroke="#000000"/>
    <path d="M71.05,-102.63C71.05,-93.91 63.98,-86.84 55.26,-86.84C46.54,-86.84 39.47,-93.91 39.47,-102.63C39.47,-111.35 46.54,-118.42 55.26,-118.42C63.98,-118.42 71.05,-111.35 71.05,-102.63Z" stroke-width="0.25" fill="none" stroke="#000000"/>
    <path d="M86.84,-102.63C86.84,-93.91 79.77,-86.84 71.05,-86.84C62.33,-86.84 55.26,-93.91 55.26,-102.63C55.26,-111.35 62.33,-118.42 71.05,-118.42C79.77,-118.42 86.84,-111.35 86.84,-102.63Z" stroke-width="0.25" fill="none" stroke="#000000"/>
    <path d="M102.63,-102.63C102.63,-93.91 95.56,-86.84 86.84,-86.84C78.12,-86.84 71.05,-93.91 71.05,-102.63C71.05,-111.35 78.12,-118.42 86.84,-118.42C95.56,-118.42 102.63,-111.35 102.63,-102.63Z" stroke-width="0.25" fill="none" stroke="#000000"/>
    <path d="M118.42,-102.63C118.42,-93.91 111.35,-86.84 102.63,-86.84C93.91,-86.84 86.84,-93.91 86.84,-102.63C86.84,-111.35 93.91,-118.42 102.63,-118.42C111.35,-118.42 118.42,-111.35 118.42,-102.63Z" stroke-width="0.25" fill="none" stroke="#000000"/>
    <path d="M134.21,-102.63C134.21,-93.91 127.14,-86.84 118.42,-86.84C109.70,-86.84 102.63,-93.91 102.63,-102.63C102.63,-111.35 109.70,-118.42 118.42,-118.42C127.14,-118.42 134.21,-111.35 134.21,-102.63Z" stroke-width="0.25" fill="none" stroke="#000000"/>
    <path d="M150,-102.63C150,-93.91 142.93,-86.84 134.21,-86.84C125.49,-86.84 118.42,-93.91 118.42,-102.63C118.42,-111.35 125.49,-118.42 134.21,-118.42C142.93,-118.42 150,-111.35 150,-102.63Z" stroke-width="0.25" fill="none" stroke="#000000"/>
    <path d="M165.79,-102.63C165.79,-93.91 158.72,-86.84 150,-86.84C141.28,-86.84 134.21,-93.91 134.21,-102.63C134.21,-111.35 141.28,-118.42 150,-118.42C158.72,-118.42 165.79,-111.35 165.79,-102.63Z" stroke-width="0.25" fill="none" stroke="#000000"/>
    <path d="M-134.21,-86.84C-134.21,-78.12 -141.28,-71.05 -150,-71.05C-158.72,-71.05 -165.79,-78.12 -165.79,-86.84C-165.79,-95.56 -158.72,-102.63 -150,-102.63C-141.28,-102.63 -134.21,-95.56 -134.21,-86.84Z" stroke-width="0.25" fill="none" stroke="#000000"/>
    <path d="M-118.42,-86.84C-118.42,-78.12 -125.49,-71.05 -134.21,-71.05C-142.93,-71.05 -150,-78.12 -150,-86.84C-150,-95.56 -142.93,-102.63 -134.21,-102.63C-125.49,-102.63 -118.42,-95.56 -118.42,-86.84Z" stroke-width="0.25" fill="none" stroke="#000000"/>
    <path d="M-102.63,-86.84C-102.63,-78.12 -109.70,-71.05 -118.42,-71.05C-127.14,-71.05 -134.21,-78.12 -134.21,-86.84C-134.21,-95.56 -127.14,-102.63 -118.42,-102.63C-109.70,-102.63 -102.63,-95.56 -102.63,-86.84Z" stroke-width="0.25" fill="none" stroke="#000000"/>
    <path d="M-86.84,-86.84C-86.84,-78.12 -93.91,-71.05 -102.63,-71.05C-111.35,-71.05 -118.42,-78.12 -118.42,-86.84C-118.42,-95.56 -111.35,-102.63 -102.63,-102.63C-93.91,-102.63 -86.84,-95.56 -86.84,-86.84Z" stroke-width="0.25" fill="none" stroke="#000000"/>
    <path d="M-71.05,-86.84C-71.05,-78.12 -78.12,-71.05 -86.84,-71.05C-95.56,-71.05 -102.63,-78.12 -102.63,-86.84C-102.63,-95.56 -95.56,-102.63 -86.84,-102.63C-78.12,-102.63 -71.05,-95.56 -71.05,-86.84Z" stroke-width="0.25" fill="none" stroke="#000000"/>
    <path d="M-55.26,-86.84C-55.26,-78.12 -62.33,-71.05 -71.05,-71.05C-79.77,-71.05 -86.84,-78.12 -86.84,-86.84C-86.84,-95.56 -79.77,-102.63 -71.05,-102.63C-62.33,-102.63 -55.26,-95.56 -55.26,-86.84Z" stroke-width="0.25" fill="none" stroke="#000000"/>
    <path d="M-39.47,-86.84C-39.47,-78.12 -46.54,-71.05 -55.26,-71.05C-63.98,-71.05 -71.05,-78.12 -71.05,-86.84C-71.05,-95.56 -63.98,-102.63 -55.26,-102.63C-46.54,-102.63 -39.47,-95.56 -39.47,-86.84Z" stroke-width="0.25" fill="none" stroke="#000000"/>
    <path d="M-23.68,-86.84C-23.68,-78.12 -30.75,-71.05 -39.47,-71.05C-48.19,-71.05 -55.26,-78.12 -55.26,-86.84C-55.26,-95.56 -48.19,-102.63 -39.47,-102.63C-30.75,-102.63 -23.68,-95.56 -23.68,-86.84Z" stroke-width="0.25" fill="none" stroke="#000000"/>
    <path d="M-7.89,-86.84C-7.89,-78.12 -14.96,-71.05 -23.68,-71.05C-32.40,-71.05 -39.47,-78.12 -39.47,-86.84C-39.47,-95.56 -32.40,-102.63 -23.68,-102.63C-14.96,-102.63 -7.89,-95.56 -7.89,-86.84Z" stroke-width="0.25" fill="none" stroke="#000000"/>
    <path d="M7.89,-86.84C7.89,-78.12 0.83,-71.05 -7.89,-71.05C-16.62,-71.05 -23.68,-78.12 -23.68,-86.84C-23.68,-95.56 -16.62,-102.63 -7.89,-102.63C0.83,-102.63 7.89,-95.56 7.89,-86.84Z" stroke-width="0.25" fill="none" stroke="#000000"/>
    <path d="M23.68,-86.84C23.68,-78.12 16.62,-71.05 7.89,-71.05C-0.83,-71.05 -7.89,-78.12 -7.89,-86.84C-7.89,-95.56 -0.83,-102.63 7.89,-102.63C16.62,-102.63 23.68,-95.56 23.68,-86.84Z" stroke-width="0.25" fill="none" stroke="#000000"/>
    <path d="M39.47,-86.84C39.47,-78.12 32.40,-71.05 23.68,-71.05C14.96,-71.05 7.89,-78.12 7.89,-86.84C7.89,-95.56 14.96,-102.63 23.68,-102.63C32.40,-102.63 39.47,-95.56 39.47,-86.84Z" stroke-width="0.25" fill="none" stroke="#000000"/>
    <path d="M55.26,-86.84C55.26,-78.12 48.19,-71.05 39.47,-71.05C30.75,-71.05 23.68,-78.12 23.68,-86.84C23.68,-95.56 30.75,-102.63 39.47,-102.63C48.19,-102.63 55.26,-95.56 55.26,-86.84Z" stroke-width="0.25" fill="none" stroke="#000000"/>
    <path d="M71.05,-86.84C71.05,-78.12 63.98,-71.05 55.26,-71.05C46.54,-71.05 39.47,-78.12 39.47,-86.84C39.47,-95.56 46.54,-102.63 55.26,-102.63C63.98,-102.63 71.05,-95.56 71.05,-86.84Z" stroke-width="0.25" fill="none" stroke="#000000"/>
    <path d="M86.84,-86.84C86.84,-78.12 79.77,-71.05 71.05,-71.05C62.33,-71.05 55.26,-78.12 55.26,-86.84C55.26,-95.56 62.33,-102.63 71.05,-102.63C79.77,-102.63 86.84,-95.56 86.84,-86.84Z" stroke-width="0.25" fill="none" stroke="#000000"/>
    <path d="M102.63,-86.84C102.63,-78.12 95.56,-71.05 86.84,-71.05C78.12,-71.05 71.05,-78.12 71.05,-86.84C71.05,-95.56 78.12,-102.63 86.84,-102.63C95.56,-102.63 102.63,-95.56 102.63,-86.84Z" stroke-width="0.25" fill="none" stroke="#000000"/>
    <path d="M118.42,-86.84C118.42,-78.12 111.35,-71.05 102.63,-71.05C93.91,-71.05 86.84,-78.12 86.84,-86.84C86.84,-95.56 93.91,-102.63 102.63,-102.63C111.35,-102.63 118.42,-95.56 118.42,-86.84Z" stroke-width="0.25" fill="none" stroke="#000000"/>
    <path d="M134.21,-86.84C134.21,-78.12 127.14,-71.05 118.42,-71.05C109.70,-71.05 102.63,-78.12 102.63,-86.84C102.63,-95.56 109.70,-102.63 118.42,-102.63C127.14,-102.63 134.21,-95.56 134.21,-86.84Z" stroke-width="0.25" fill="none" stroke="#000000"/>
    <path d="M150,-86.84C150,-78.12 142.93,-71.05 134.21,-71.05C125.49,-71.05 118.42,-78.12 118.42,-86.84C118.42,-95.56 125.49,-102.63 134.21,-102.63C142.93,-102.63 150,-95.56 150,-86.84Z" stroke-width="0.25" fill="none" stroke="#000000"/>
    <path d="M165.79,-86.84C165.79,-78.12 158.72,-71.05 150,-71.05C141.28,-71.05 134.21,-78.12 134.21,-86.84C134.21,-95.56 141.28,-102.63 150,-102.63C158.72,-102.63 165.79,-95.56 165.79,-86.84Z" stroke-width="0.25" fill="none" stroke="#000000"/>
    <path d="M-134.21,-71.05C-134.21,-62.33 -141.28,-55.26 -150,-55.26C-158.72,-55.26 -165.79,-62.33 -165.79,-71.05C-165.79,-79.77 -158.72,-86.84 -150,-86.84C-141.28,-86.84 -134.21,-79.77 -134.21,-71.05Z" stroke-width="0.25" fill="none" stroke="#000000"/>
    <path d="M-118.42,-71.05C-118.42,-62.33 -125.49,-55.26 -134.21,-55.26C-142.93,-55.26 -150,-62.33 -150,-71.05C-150,-79.77 -142.93,-86.84 -134.21,-86.84C-125.49,-86.84 -118.42,-79.77 -118.42,-71.05Z" stroke-width="0.25" fill="none" stroke="#000000"/>
    <path d="M-102.63,-71.05C-102.63,-62.33 -109.70,-55.26 -118.42,-55.26C-127.14,-55.26 -134.21,-62.33 -134.21,-71.05C-134.21,-79.77 -127.14,-86.84 -118.42,-86.84C-109.70,-86.84 -102.63,-79.77 -102.63,-71.05Z" stroke-width="0.25" fill="none" stroke="#000000"/>
    <path d="M-86.84,-71.05C-86.84,-62.33 -93.91,-55.26 -102.63,-55.26C-111.35,-55.26 -118.42,-62.33 -118.42,-71.05C-118.42,-79.77 -111.35,-86.84 -102.63,-86.84C-93.91,-86.84 -86.84,-79.77 -86.84,-71.05Z" stroke-width="0.25" fill="none" stroke="#000000"/>
    <path d="M-71.05,-71.05C-71.05,-62.33 -78.12,-55.26 -86.84,-55.26C-95.56,-55.26 -102.63,-62.33 -102.63,-71.05C-102.63,-79.77 -95.56,-86.84 -86.84,-86.84C-78.12,-86.84 -71.05,-79.77 -71.05,-71.05Z" stroke-width="0.25" fill="none" stroke="#000000"/>
    <path d="M-55.26,-71.05C-55.26,-62.33 -62.33,-55.26 -71.05,-55.26C-79.77,-55.26 -86.84,-62.33 -86.84,-71.05C-86.84,-79.77 -79.77,-86.84 -71.05,-86.84C-62.33,-86.84 -55.26,-79.77 -55.26,-71.05Z" stroke-width="0.25" fill="none" stroke="#000000"/>
    <path d="M-39.47,-71.05C-39.47,-62.33 -46.54,-55.26 -55.26,-55.26C-63.98,-55.26 -71.05,-62.33 -71.05,-71.05C-71.05,-79.77 -63.98,-86.84 -55.26,-86.84C-46.54,-86.84 -39.47,-79.77 -39.47,-71.05Z" stroke-width="0.25" fill="none" stroke="#000000"/>
    <path d="M-23.68,-71.05C-23.68,-62.33 -30.75,-55.26 -39.47,-55.26C-48.19,-55.26 -55.26,-62.33 -55.26,-71.05C-55.26,-79.77 -48.19,-86.84 -39.47,-86.84C-30.75,-86.84 -23.68,-79.77 -23.68,-71.05Z" stroke-width="0.25" fill="none" stroke="#000000"/>
    <path d="M-7.89,-71.05C-7.89,-62.33 -14.96,-55.26 -23.68,-55.26C-32.40,-55.26 -39.47,-62.33 -39.47,-71.05C-39.47,-79.77 -32.40,-86.84 -23.68,-86.84C-14.96,-86.84 -7.89,-79.77 -7.89,-71.05Z" stroke-width="0.25" fill="none" stroke="#000000"/>
    <path d="M7.89,-71.05C7.89,-62.33 0.83,-55.26 -7.89,-55.26C-16.62,-55.26 -23.68,-62.33 -23.68,-71.05C-23.68,-79.77 -16.62,-86.84 -7.89,-86.84C0.83,-86.84 7.89,-79.77 7.89,-71.05Z" stroke-width="0.25" fill="none" stroke="#000000"/>
    <path d="M23.68,-71.05C23.68,-62.33 16.62,-55.26 7.89,-55.26C-0.83,-55.26 -7.89,-62.33 -7.89,-71.05C-7.89,-79.77 -0.83,-86.84 7.89,-86.84C16.62,-86.84 23.68,-79.77 23.68,-71.05Z" stroke-width="0.25" fill="none" stroke="#000000"/>
    <path d="M39.47,-71.05C39.47,-62.33 32.40,-55.26 23.68,-55.26C14.96,-55.26 7.89,-62.33 7.89,-71.05C7.89,-79.77 14.96,-86.84 23.68,-86.84C32.40,-86.84 39.47,-79.77 39.47,-71.05Z" stroke-width="0.25" fill="none" stroke="#000000"/>
    <path d="M55.26,-71.05C55.26,-62.33 48.19,-55.26 39.47,-55.26C30.75,-55.26 23.68,-62.33 23.68,-71.05C23.68,-79.77 30.75,-86.84 39.47,-86.84C48.19,-86.84 55.26,-79.77 55.26,-71.05Z" stroke-width="0.25" fill="none" stroke="#000000"/>
    <path d="M71.05,-71.05C71.05,-62.33 63.98,-55.26 55.26,-55.26C46.54,-55.26 39.47,-62.33 39.47,-71.05C39.47,-79.77 46.54,-86.84 55.26,-86.84C63.98,-86.84 71.05,-79.77 71.05,-71.05Z" stroke-width="0.25" fill="none" stroke="#000000"/>
    <path d="M86.84,-71.05C86.84,-62.33 79.77,-55.26 71.05,-55.26C62.33,-55.26 55.26,-62.33 55.26,-71.05C55.26,-79.77 62.33,-86.84 71.05,-86.84C79.77,-86.84 86.84,-79.77 86.84,-71.05Z" stroke-width="0.25" fill="none" stroke="#000000"/>
    <path d="M102.63,-71.05C102.63,-62.33 95.56,-55.26 86.84,-55.26C78.12,-55.26 71.05,-62.33 71.05,-71.05C71.05,-79.77 78.12,-86.84 86.84,-86.84C95.56,-86.84 102.63,-79.77 102.63,-71.05Z" stroke-width="0.25" fill="none" stroke="#000000"/>
    <path d="M118.42,-71.05C118.42,-62.33 111.35,-55.26 102.63,-55.26C93.91,-55.26 86.84,-62.33 86.84,-71.05C86.84,-79.77 93.91,-86.84 102.63,-86.84C111.35,-86.84 118.42,-79.77 118.42,-71.05Z" stroke-width="0.25" fill="none" stroke="#000000"/>
    <path d="M134.21,-71.05C134.21,-62.33 127.14,-55.26 118.42,-55.26C109.70,-55.26 102.63,-62.33 102.63,-71.05C102.63,-79.77 109.70,-86.84 118.42,-86.84C127.14,-86.84 134.21,-79.77 134.21,-71.05Z" stroke-width="0.25" fill="none" stroke="#000000"/>
    <path d="M150,-71.05C150,-62.33 142.93,-55.26 134.21,-55.26C125.49,-55.26 118.42,-62.33 118.42,-71.05C118.42,-79.77 125.49,-86.84 134.21,-86.84C142.93,-86.84 150,-79.77 150,-71.05Z" stroke-width="0.25" fill="none" stroke="#000000"/>
    <path d="M165.79,-71.05C165.79,-62.33 158.72,-55.26 150,-55.26C141.28,-55.26 134.21,-62.33 134.21,-71.05C134.21,-79.77 141.28,-86.84 150,-86.84C158.72,-86.84 165.79,-79.77 165.79,-71.05Z" stroke-width="0.25" fill="none" stroke="#000000"/>
    <path d="M-134.21,-55.26C-134.21,-46.54 -141.28,-39.47 -150,-39.47C-158.72,-39.47 -165.79,-46.54 -165.79,-55.26C-165.79,-63.98 -158.72,-71.05 -150,-71.05C-141.28,-71.05 -134.21,-63.98 -134.21,-55.26Z" stroke-width="0.25" fill="none" stroke="#000000"/>
    <path d="M-118.42,-55.26C-118.42,-46.54 -125.49,-39.47 -134.21,-39.47C-142.93,-39.47 -150,-46.54 -150,-55.26C-150,-63.98 -142.93,-71.05 -134.21,-71.05C-125.49,-71.05 -118.42,-63.98 -118.42,-55.26Z" stroke-width="0.25" fill="none" stroke="#000000"/>
    <path d="M-102.63,-55.26C-102.63,-46.54 -109.70,-39.47 -118.42,-39.47C-127.14,-39.47 -134.21,-46.54 -134.21,-55.26C-134.21,-63.98 -127.14,-71.05 -118.42,-71.05C-109.70,-71.05 -102.63,-63.98 -102.63,-55.26Z" stroke-width="0.25" fill="none" stroke="#000000"/>
    <path d="M-86.84,-55.26C-86.84,-46.54 -93.91,-39.47 -102.63,-39.47C-111.35,-39.47 -118.42,-46.54 -118.42,-55.26C-118.42,-63.98 -111.35,-71.05 -102.63,-71.05C-93.91,-71.05 -86.84,-63.98 -86.84,-55.26Z" stroke-width="0.25" fill="none" stroke="#000000"/>
    <path d="M-71.05,-55.26C-71.05,-46.54 -78.12,-39.47 -86.84,-39.47C-95.56,-39.47 -102.63,-46.54 -102.63,-55.26C-102.63,-63.98 -95.56,-71.05 -86.84,-71.05C-78.12,-71.05 -71.05,-63.98 -71.05,-55.26Z" stroke-width="0.25" fill="none" stroke="#000000"/>
    <path d="M-55.26,-55.26C-55.26,-46.54 -62.33,-39.47 -71.05,-39.47C-79.77,-39.47 -86.84,-46.54 -86.84,-55.26C-86.84,-63.98 -79.77,-71.05 -71.05,-71.05C-62.33,-71.05 -55.26,-63.98 -55.26,-55.26Z" stroke-width="0.25" fill="none" stroke="#000000"/>
    <path d="M-39.47,-55.26C-39.47,-46.54 -46.54,-39.47 -55.26,-39.47C-63.98,-39.47 -71.05,-46.54 -71.05,-55.26C-71.05,-63.98 -63.98,-71.05 -55.26,-71.05C-46.54,-71.05 -39.47,-63.98 -39.47,-55.26Z" stroke-width="0.25" fill="none" stroke="#000000"/>
    <path d="M-23.68,-55.26C-23.68,-46.54 -30.75,-39.47 -39.47,-39.47C-48.19,-39.47 -55.26,-46.54 -55.26,-55.26C-55.26,-63.98 -48.19,-71.05 -39.47,-71.05C-30.75,-71.05 -23.68,-63.98 -23.68,-55.26Z" stroke-width="0.25" fill="none" stroke="#000000"/>
    <path d="M-7.89,-55.26C-7.89,-46.54 -14.96,-39.47 -23.68,-39.47C-32.40,-39.47 -39.47,-46.54 -39.47,-55.26C-39.47,-63.98 -32.40,-71.05 -23.68,-71.05C-14.96,-71.05 -7.89,-63.98 -7.89,-55.26Z" stroke-width="0.25" fill="none" stroke="#000000"/>
    <path d="M7.89,-55.26C7.89,-46.54 0.83,-39.47 -7.89,-39.47C-16.62,-39.47 -23.68,-46.54 -23.68,-55.26C-23.68,-63.98 -16.62,-71.05 -7.89,-71.05C0.83,-71.05 7.89,-63.98 7.89,-55.26Z" stroke-width="0.25" fill="none" stroke="#000000"/>
    <path d="M23.68,-55.26C23.68,-46.54 16.62,-39.47 7.89,-39.47C-0.83,-39.47 -7.89,-46.54 -7.89,-55.26C-7.89,-63.98 -0.83,-71.05 7.89,-71.05C16.62,-71.05 23.68,-63.98 23.68,-55.26Z" stroke-width="0.25" fill="none" stroke="#000000"/>
    <path d="M39.47,-55.26C39.47,-46.54 32.40,-39.47 23.68,-39.47C14.96,-39.47 7.89,-46.54 7.89,-55.26C7.89,-63.98 14.96,-71.05 23.68,-71.05C32.40,-71.05 39.47,-63.98 39.47,-55.26Z" stroke-width="0.25" fill="none" stroke="#000000"/>
    <path d="M55.26,-55.26C55.26,-46.54 48.19,-39.47 39.47,-39.47C30.75,-39.47 23.68,-46.54 23.68,-55.26C23.68,-63.98 30.75,-71.05 39.47,-71.05C48.19,-71.05 55.26,-63.98 55.26,-55.26Z" stroke-width="0.25" fill="none" stroke="#000000"/>
    <path d="M71.05,-55.26C71.05,-46.54 63.98,-39.47 55.26,-39.47C46.54,-39.47 39.47,-46.54 39.47,-55.26C39.47,-63.98 46.54,-71.05 55.26,-71.05C63.98,-71.05 71.05,-63.98 71.05,-55.26Z" stroke-width="0.25" fill="none" stroke="#000000"/>
    <path d="M86.84,-55.26C86.84,-46.54 79.77,-39.47 71.05,-39.47C62.33,-39.47 55.26,-46.54 55.26,-55.26C55.26,-63.98 62.33,-71.05 71.05,-71.05C79.77,-71.05 86.84,-63.98 86.84,-55.26Z" stroke-width="0.25" fill="none" stroke="#000000"/>
    <path d="M102.63,-55.26C102.63,-46.54 95.56,-39.47 86.84,-39.47C78.12,-39.47 71.05,-46.54 71.05,-55.26C71.05,-63.98 78.12,-71.05 86.84,-71.05C95.56,-71.05 102.63,-63.98 102.63,-55.26Z" stroke-width="0.25" fill="none" stroke="#000000"/>
    <path d="M118.42,-55.26C118.42,-46.54 111.35,-39.47 102.63,-39.47C93.91,-39.47 86.84,-46.54 86.84,-55.26C86.84,-63.98 93.91,-71.05 102.63,-71.05C111.35,-71.05 118.42,-63.98 118.42,-55.26Z" stroke-width="0.25" fill="none" stroke="#000000"/>
    <path d="M134.21,-55.26C134.21,-46.54 127.14,-39.47 118.42,-39.47C109.70,-39.47 102.63,-46.54 102.63,-55.26C102.63,-63.98 109.70,-71.05 118.42,-71.05C127.14,-71.05 134.21,-63.98 134.21,-55.26Z" stroke-width="0.25" fill="none" stroke="#000000"/>
    <path d="M150,-55.26C150,-46.54 142.93,-39.47 134.21,-39.47C125.49,-39.47 118.42,-46.54 118.42,-55.26C118.42,-63.98 125.49,-71.05 134.21,-71.05C142.93,-71.05 150,-63.98 150,-55.26Z" stroke-width="0.25" fill="none" stroke="#000000"/>
    <path d="M165.79,-55.26C165.79,-46.54 158.72,-39.47 150,-39.47C141.28,-39.47 134.21,-46.54 134.21,-55.26C134.21,-63.98 141.28,-71.05 150,-71.05C158.72,-71.05 165.79,-63.98 165.79,-55.26Z" stroke-width="0.25" fill="none" stroke="#000000"/>
    <path d="M-134.21,-39.47C-134.21,-30.75 -141.28,-23.68 -150,-23.68C-158.72,-23.68 -165.79,-30.75 -165.79,-39.47C-165.79,-48.19 -158.72,-55.26 -150,-55.26C-141.28,-55.26 -134.21,-48.19 -134.21,-39.47Z" stroke-width="0.25" fill="none" stroke="#000000"/>
    <path d="M-118.42,-39.47C-118.42,-30.75 -125.49,-23.68 -134.21,-23.68C-142.93,-23.68 -150,-30.75 -150,-39.47C-150,-48.19 -142.93,-55.26 -134.21,-55.26C-125.49,-55.26 -118.42,-48.19 -118.42,-39.47Z" stroke-width="0.25" fill="none" stroke="#000000"/>
    <path d="M-102.63,-39.47C-102.63,-30.75 -109.70,-23.68 -118.42,-23.68C-127.14,-23.68 -134.21,-30.75 -134.21,-39.47C-134.21,-48.19 -127.14,-55.26 -118.42,-55.26C-109.70,-55.26 -102.63,-48.19 -102.63,-39.47Z" stroke-width="0.25" fill="none" stroke="#000000"/>
    <path d="M-86.84,-39.47C-86.84,-30.75 -93.91,-23.68 -102.63,-23.68C-111.35,-23.68 -118.42,-30.75 -118.42,-39.47C-118.42,-48.19 -111.35,-55.26 -102.63,-55.26C-93.91,-55.26 -86.84,-48.19 -86.84,-39.47Z" stroke-width="0.25" fill="none" stroke="#000000"/>
    <path d="M-71.05,-39.47C-71.05,-30.75 -78.12,-23.68 -86.84,-23.68C-95.56,-23.68 -102.63,-30.75 -102.63,-39.47C-102.63,-48.19 -95.56,-55.26 -86.84,-55.26C-78.12,-55.26 -71.05,-48.19 -71.05,-39.47Z" stroke-width="0.25" fill="none" stroke="#000000"/>
    <path d="M-55.26,-39.47C-55.26,-30.75 -62.33,-23.68 -71.05,-23.68C-79.77,-23.68 -86.84,-30.75 -86.84,-39.47C-86.84,-48.19 -79.77,-55.26 -71.05,-55.26C-62.33,-55.26 -55.26,-48.19 -55.26,-39.47Z" stroke-width="0.25" fill="none" stroke="#000000"/>
    <path d="M-39.47,-39.47C-39.47,-30.75 -46.54,-23.68 -55.26,-23.68C-63.98,-23.68 -71.05,-30.75 -71.05,-39.47C-71.05,-48.19 -63.98,-55.26 -55.26,-55.26C-46.54,-55.26 -39.47,-48.19 -39.47,-39.47Z" stroke-width="0.25" fill="none" stroke="#000000"/>
    <path d="M-23.68,-39.47C-23.68,-30.75 -30.75,-23.68 -39.47,-23.68C-48.19,-23.68 -55.26,-30.75 -55.26,-39.47C-55.26,-48.19 -48.19,-55.26 -39.47,-55.26C-30.75,-55.26 -23.68,-48.19 -23.68,-39.47Z" stroke-width="0.25" fill="none" stroke="#000000"/>
    <path d="M-7.89,-39.47C-7.89,-30.75 -14.96,-23.68 -23.68,-23.68C-32.40,-23.68 -39.47,-30.75 -39.47,-39.47C-39.47,-48.19 -32.40,-55.26 -23.68,-55.26C-14.96,-55.26 -7.89,-48.19 -7.89,-39.47Z" stroke-width="0.25" fill="none" stroke="#000000"/>
    <path d="M7.89,-39.47C7.89,-30.75 0.83,-23.68 -7.89,-23.68C-16.62,-23.68 -23.68,-30.75 -23.68,-39.47C-23.68,-48.19 -16.62,-55.26 -7.89,-55.26C0.83,-55.26 7.89,-48.19 7.89,-39.47Z" stroke-width="0.25" fill="none" stroke="#000000"/>
    <path d="M23.68,-39.47C23.68,-30.75 16.62,-23.68 7.89,-23.68C-0.83,-23.68 -7.89,-30.75 -7.89,-39.47C-7.89,-48.19 -0.83,-55.26 7.89,-55.26C16.62,-55.26 23.68,-48.19 23.68,-39.47Z" stroke-width="0.25" fill="none" stroke="#000000"/>
    <path d="M39.47,-39.47C39.47,-30.75 32.40,-23.68 23.68,-23.68C14.96,-23.68 7.89,-30.75 7.89,-39.47C7.89,-48.19 14.96,-55.26 23.68,-55.26C32.40,-55.26 39.47,-48.19 39.47,-39.47Z" stroke-width="0.25" fill="none" stroke="#000000"/>
    <path d="M55.26,-39.47C55.26,-30.75 48.19,-23.68 39.47,-23.68C30.75,-23.68 23.68,-30.75 23.68,-39.47C23.68,-48.19 30.75,-55.26 39.47,-55.26C48.19,-55.26 55.26,-48.19 55.26,-39.47Z" stroke-width="0.25" fill="none" stroke="#000000"/>
    <path d="M71.05,-39.47C71.05,-30.75 63.98,-23.68 55.26,-23.68C46.54,-23.68 39.47,-30.75 39.47,-39.47C39.47,-48.19 46.54,-55.26 55.26,-55.26C63.98,-55.26 71.05,-48.19 71.05,-39.47Z" stroke-width="0.25" fill="none" stroke="#000000"/>
    <path d="M86.84,-39.47C86.84,-30.75 79.77,-23.68 71.05,-23.68C62.33,-23.68 55.26,-30.75 55.26,-39.47C55.26,-48.19 62.33,-55.26 71.05,-55.26C79.77,-55.26 86.84,-48.19 86.84,-39.47Z" stroke-width="0.25" fill="none" stroke="#000000"/>
    <path d="M102.63,-39.47C102.63,-30.75 95.56,-23.68 86.84,-23.68C78.12,-23.68 71.05,-30.75 71.05,-39.47C71.05,-48.19 78.12,-55.26 86.84,-55.26C95.56,-55.26 102.63,-48.19 102.63,-39.47Z" stroke-width="0.25" fill="none" stroke="#000000"/>
    <path d="M118.42,-39.47C118.42,-30.75 111.35,-23.68 102.63,-23.68C93.91,-23.68 86.84,-30.75 86.84,-39.47C86.84,-48.19 93.91,-55.26 102.63,-55.26C111.35,-55.26 118.42,-48.19 118.42,-39.47Z" stroke-width="0.25" fill="none" stroke="#000000"/>
    <path d="M134.21,-39.47C134.21,-30.75 127.14,-23.68 118.42,-23.68C109.70,-23.68 102.63,-30.75 102.63,-39.47C102.63,-48.19 109.70,-55.26 118.42,-55.26C127.14,-55.26 134.21,-48.19 134.21,-39.47Z" stroke-width="0.25" fill="none" stroke="#000000"/>
    <path d="M150,-39.47C150,-30.75 142.93,-23.68 134.21,-23.68C125.49,-23.68 118.42,-30.75 118.42,-39.47C118.42,-48.19 125.49,-55.26 134.21,-55.26C142.93,-55.26 150,-48.19 150,-39.47Z" stroke-width="0.25" fill="none" stroke="#000000"/>
    <path d="M165.79,-39.47C165.79,-30.75 158.72,-23.68 150,-23.68C141.28,-23.68 134.21,-30.75 134.21,-39.47C134.21,-48.19 141.28,-55.26 150,-55.26C158.72,-55.26 165.79,-48.19 165.79,-39.47Z" stroke-width="0.25" fill="none" stroke="#000000"/>
    <path d="M-134.21,-23.68C-134.21,-14.96 -141.28,-7.89 -150,-7.89C-158.72,-7.89 -165.79,-14.96 -165.79,-23.68C-165.79,-32.40 -158.72,-39.47 -150,-39.47C-141.28,-39.47 -134.21,-32.40 -134.21,-23.68Z" stroke-width="0.25" fill="none" stroke="#000000"/>
    <path d="M-118.42,-23.68C-118.42,-14.96 -125.49,-7.89 -134.21,-7.89C-142.93,-7.89 -150,-14.96 -150,-23.68C-150,-32.40 -142.93,-39.47 -134.21,-39.47C-125.49,-39.47 -118.42,-32.40 -118.42,-23.68Z" stroke-width="0.25" fill="none" stroke="#000000"/>
    <path d="M-102.63,-23.68C-102.63,-14.96 -109.70,-7.89 -118.42,-7.89C-127.14,-7.89 -134.21,-14.96 -134.21,-23.68C-134.21,-32.40 -127.14,-39.47 -118.42,-39.47C-109.70,-39.47 -102.63,-32.40 -102.63,-23.68Z" stroke-width="0.25" fill="none" stroke="#000000"/>
    <path d="M-86.84,-23.68C-86.84,-14.96 -93.91,-7.89 -102.63,-7.89C-111.35,-7.89 -118.42,-14.96 -118.42,-23.68C-118.42,-32.40 -111.35,-39.47 -102.63,-39.47C-93.91,-39.47 -86.84,-32.40 -86.84,-23.68Z" stroke-width="0.25" fill="none" stroke="#000000"/>
    <path d="M-71.05,-23.68C-71.05,-14.96 -78.12,-7.89 -86.84,-7.89C-95.56,-7.89 -102.63,-14.96 -102.63,-23.68C-102.63,-32.40 -95.56,-39.47 -86.84,-39.47C-78.12,-39.47 -71.05,-32.40 -71.05,-23.68Z" stroke-width="0.25" fill="none" stroke="#000000"/>
    <path d="M-55.26,-23.68C-55.26,-14.96 -62.33,-7.89 -71.05,-7.89C-79.77,-7.89 -86.84,-14.96 -86.84,-23.68C-86.84,-32.40 -79.77,-39.47 -71.05,-39.47C-62.33,-39.47 -55.26,-32.40 -55.26,-23.68Z" stroke-width="0.25" fill="none" stroke="#000000"/>
    <path d="M-39.47,-23.68C-39.47,-14.96 -46.54,-7.89 -55.26,-7.89C-63.98,-7.89 -71.05,-14.96 -71.05,-23.68C-71.05,-32.40 -63.98,-39.47 -55.26,-39.47C-46.54,-39.47 -39.47,-32.40 -39.47,-23.68Z" stroke-width="0.25" fill="none" stroke="#000000"/>
    <path d="M-23.68,-23.68C-23.68,-14.96 -30.75,-7.89 -39.47,-7.89C-48.19,-7.89 -55.26,-14.96 -55.26,-23.68C-55.26,-32.40 -48.19,-39.47 -39.47,-39.47C-30.75,-39.47 -23.68,-32.40 -23.68,-23.68Z" stroke-width="0.25" fill="none" stroke="#000000"/>
    <path d="M-7.89,-23.68C-7.89,-14.96 -14.96,-7.89 -23.68,-7.89C-32.40,-7.89 -39.47,-14.96 -39.47,-23.68C-39.47,-32.40 -32.40,-39.47 -23.68,-39.47C-14.96,-39.47 -7.89,-32.40 -7.89,-23.68Z" stroke-width="0.25" fill="none" stroke="#000000"/>
    <path d="M7.89,-23.68C7.89,-14.96 0.83,-7.89 -7.89,-7.89C-16.62,-7.89 -23.68,-14.96 -23.68,-23.68C-23.68,-32.40 -16.62,-39.47 -7.89,-39.47C0.83,-39.47 7.89,-32.40 7.89,-23.68Z" stroke-width="0.25" fill="none" stroke="#000000"/>
    <path d="M23.68,-23.68C23.68,-14.96 16.62,-7.89 7.89,-7.89C-0.83,-7.89 -7.89,-14.96 -7.89,-23.68C-7.89,-32.40 -0.83,-39.47 7.89,-39.47C16.62,-39.47 23.68,-32.40 23.68,-23.68Z" stroke-width="0.25" fill="none" stroke="#000000"/>
    <path d="M39.47,-23.68C39.47,-14.96 32.40,-7.89 23.68,-7.89C14.96,-7.89 7.89,-14.96 7.89,-23.68C7.89,-32.40 14.96,-39.47 23.68,-39.47C32.40,-39.47 39.47,-32.40 39.47,-23.68Z" stroke-width="0.25" fill="none" stroke="#000000"/>
    <path d="M55.26,-23.68C55.26,-14.96 48.19,-7.89 39.47,-7.89C30.75,-7.89 23.68,-14.96 23.68,-23.68C23.68,-32.40 30.75,-39.47 39.47,-39.47C48.19,-39.47 55.26,-32.40 55.26,-23.68Z" stroke-width="0.25" fill="none" stroke="#000000"/>
    <path d="M71.05,-23.68C71.05,-14.96 63.98,-7.89 55.26,-7.89C46.54,-7.89 39.47,-14.96 39.47,-23.68C39.47,-32.40 46.54,-39.47 55.26,-39.47C63.98,-39.47 71.05,-32.40 71.05,-23.68Z" stroke-width="0.25" fill="none" stroke="#000000"/>
    <path d="M86.84,-23.68C86.84,-14.96 79.77,-7.89 71.05,-7.89C62.33,-7.89 55.26,-14.96 55.26,-23.68C55.26,-32.40 62.33,-39.47 71.05,-39.47C79.77,-39.47 86.84,-32.40 86.84,-23.68Z" stroke-width="0.25" fill="none" stroke="#000000"/>
    <path d="M102.63,-23.68C102.63,-14.96 95.56,-7.89 86.84,-7.89C78.12,-7.89 71.05,-14.96 71.05,-23.68C71.05,-32.40 78.12,-39.47 86.84,-39.47C95.56,-39.47 102.63,-32.40 102.63,-23.68Z" stroke-width="0.25" fill="none" stroke="#000000"/>
    <path d="M118.42,-23.68C118.42,-14.96 111.35,-7.89 102.63,-7.89C93.91,-7.89 86.84,-14.96 86.84,-23.68C86.84,-32.40 93.91,-39.47 102.63,-39.47C111.35,-39.47 118.42,-32.40 118.42,-23.68Z" stroke-width="0.25" fill="none" stroke="#000000"/>
    <path d="M134.21,-23.68C134.21,-14.96 127.14,-7.89 118.42,-7.89C109.70,-7.89 102.63,-14.96 102.63,-23.68C102.63,-32.40 109.70,-39.47 118.42,-39.47C127.14,-39.47 134.21,-32.40 134.21,-23.68Z" stroke-width="0.25" fill="none" stroke="#000000"/>
    <path d="M150,-23.68C150,-14.96 142.93,-7.89 134.21,-7.89C125.49,-7.89 118.42,-14.96 118.42,-23.68C118.42,-32.40 125.49,-39.47 134.21,-39.47C142.93,-39.47 150,-32.40 150,-23.68Z" stroke-width="0.25" fill="none" stroke="#000000"/>
    <path d="M165.79,-23.68C165.79,-14.96 158.72,-7.89 150,-7.89C141.28,-7.89 134.21,-14.96 134.21,-23.68C134.21,-32.40 141.28,-39.47 150,-39.47C158.72,-39.47 165.79,-32.40 165.79,-23.68Z" stroke-width="0.25" fill="none" stroke="#000000"/>
    <path d="M-134.21,-7.89C-134.21,0.83 -141.28,7.89 -150,7.89C-158.72,7.89 -165.79,0.83 -165.79,-7.89C-165.79,-16.62 -158.72,-23.68 -150,-23.68C-141.28,-23.68 -134.21,-16.62 -134.21,-7.89Z" stroke-width="0.25" fill="none" stroke="#000000"/>
    <path d="M-118.42,-7.89C-118.42,0.83 -125.49,7.89 -134.21,7.89C-142.93,7.89 -150,0.83 -150,-7.89C-150,-16.62 -142.93,-23.68 -134.21,-23.68C-125.49,-23.68 -118.42,-16.62 -118.42,-7.89Z" stroke-width="0.25" fill="none" stroke="#000000"/>
    <path d="M-102.63,-7.89C-102.63,0.83 -109.70,7.89 -118.42,7.89C-127.14,7.89 -134.21,0.83 -134.21,-7.89C-134.21,-16.62 -127.14,-23.68 -118.42,-23.68C-109.70,-23.68 -102.63,-16.62 -102.63,-7.89Z" stroke-width="0.25" fill="none" stroke="#000000"/>
    <path d="M-86.84,-7.89C-86.84,0.83 -93.91,7.89 -102.63,7.89C-111.35,7.89 -118.42,0.83 -118.42,-7.89C-118.42,-16.62 -111.35,-23.68 -102.63,-23.68C-93.91,-23.68 -86.84,-16.62 -86.84,-7.89Z" stroke-width="0.25" fill="none" stroke="#000000"/>
    <path d="M-71.05,-7.89C-71.05,0.83 -78.12,7.89 -86.84,7.89C-95.56,7.89 -102.63,0.83 -102.63,-7.89C-102.63,-16.62 -95.56,-23.68 -86.84,-23.68C-78.12,-23.68 -71.05,-16.62 -71.05,-7.89Z" stroke-width="0.25" fill="none" stroke="#000000"/>
    <path d="M-55.26,-7.89C-55.26,0.83 -62.33,7.89 -71.05,7.89C-79.77,7.89 -86.84,0.83 -86.84,-7.89C-86.84,-16.62 -79.77,-23.68 -71.05,-23.68C-62.33,-23.68 -55.26,-16.62 -55.26,-7.89Z" stroke-width="0.25" fill="none" stroke="#000000"/>
    <path d="M-39.47,-7.89C-39.47,0.83 -46.54,7.89 -55.26,7.89C-63.98,7.89 -71.05,0.83 -71.05,-7.89C-71.05,-16.62 -63.98,-23.68 -55.26,-23.68C-46.54,-23.68 -39.47,-16.62 -39.47,-7.89Z" stroke-width="0.25" fill="none" stroke="#000000"/>
    <path d="M-23.68,-7.89C-23.68,0.83 -30.75,7.89 -39.47,7.89C-48.19,7.89 -55.26,0.83 -55.26,-7.89C-55.26,-16.62 -48.19,-23.68 -39.47,-23.68C-30.75,-23.68 -23.68,-16.62 -23.68,-7.89Z" stroke-width="0.25" fill="none" stroke="#000000"/>
    <path d="M-7.89,-7.89C-7.89,0.83 -14.96,7.89 -23.68,7.89C-32.40,7.89 -39.47,0.83 -39.47,-7.89C-39.47,-16.62 -32.40,-23.68 -23.68,-23.68C-14.96,-23.68 -7.89,-16.62 -7.89,-7.89Z" stroke-width="0.25" fill="none" stroke="#000000"/>
    <path d="M7.89,-7.89C7.89,0.83 0.83,7.89 -7.89,7.89C-16.62,7.89 -23.68,0.83 -23.68,-7.89C-23.68,-16.62 -16.62,-23.68 -7.89,-23.68C0.83,-23.68 7.89,-16.62 7.89,-7.89Z" stroke-width="0.25" fill="none" stroke="#000000"/>
    <path d="M23.68,-7.89C23.68,0.83 16.62,7.89 7.89,7.89C-0.83,7.89 -7.89,0.83 -7.89,-7.89C-7.89,-16.62 -0.83,-23.68 7.89,-23.68C16.62,-23.68 23.68,-16.62 23.68,-7.89Z" stroke-width="0.25" fill="none" stroke="#000000"/>
    <path d="M39.47,-7.89C39.47,0.83 32.40,7.89 23.68,7.89C14.96,7.89 7.89,0.83 7.89,-7.89C7.89,-16.62 14.96,-23.68 23.68,-23.68C32.40,-23.68 39.47,-16.62 39.47,-7.89Z" stroke-width="0.25" fill="none" stroke="#000000"/>
    <path d="M55.26,-7.89C55.26,0.83 48.19,7.89 39.47,7.89C30.75,7.89 23.68,0.83 23.68,-7.89C23.68,-16.62 30.75,-23.68 39.47,-23.68C48.19,-23.68 55.26,-16.62 55.26,-7.89Z" stroke-width="0.25" fill="none" stroke="#000000"/>
    <path d="M71.05,-7.89C71.05,0.83 63.98,7.89 55.26,7.89C46.54,7.89 39.47,0.83 39.47,-7.89C39.47,-16.62 46.54,-23.68 55.26,-23.68C63.98,-23.68 71.05,-16.62 71.05,-7.89Z" stroke-width="0.25" fill="none" stroke="#000000"/>
    <path d="M86.84,-7.89C86.84,0.83 79.77,7.89 71.05,7.89C62.33,7.89 55.26,0.83 55.26,-7.89C55.26,-16.62 62.33,-23.68 71.05,-23.68C79.77,-23.68 86.84,-16.62 86.84,-7.89Z" stroke-width="0.25" fill="none" stroke="#000000"/>
    <path d="M102.63,-7.89C102.63,0.83 95.56,7.89 86.84,7.89C78.12,7.89 71.05,0.83 71.05,-7.89C71.05,-16.62 78.12,-23.68 86.84,-23.68C95.56,-23.68 102.63,-16.62 102.63,-7.89Z" stroke-width="0.25" fill="none" stroke="#000000"/>
    <path d="M118.42,-7.89C118.42,0.83 111.35,7.89 102.63,7.89C93.91,7.89 86.84,0.83 86.84,-7.89C86.84,-16.62 93.91,-23.68 102.63,-23.68C111.35,-23.68 118.42,-16.62 118.42,-7.89Z" stroke-width="0.25" fill="none" stroke="#000000"/>
    <path d="M134.21,-7.89C134.21,0.83 127.14,7.89 118.42,7.89C109.70,7.89 102.63,0.83 102.63,-7.89C102.63,-16.62 109.70,-23.68 118.42,-23.68C127.14,-23.68 134.21,-16.62 134.21,-7.89Z" stroke-width="0.25" fill="none" stroke="#000000"/>
    <path d="M150,-7.89C150,0.83 142.93,7.89 134.21,7.89C125.49,7.89 118.42,0.83 118.42,-7.89C118.42,-16.62 125.49,-23.68 134.21,-23.68C142.93,-23.68 150,-16.62 150,-7.89Z" stroke-width="0.25" fill="none" stroke="#000000"/>
    <path d="M165.79,-7.89C165.79,0.83 158.72,7.89 150,7.89C141.28,7.89 134.21,0.83 134.21,-7.89C134.21,-16.62 141.28,-23.68 150,-23.68C158.72,-23.68 165.79,-16.62 165.79,-7.89Z" stroke-width="0.25" fill="none" stroke="#000000"/>
    <path d="M-134.21,7.89C-134.21,16.62 -141.28,23.68 -150,23.68C-158.72,23.68 -165.79,16.62 -165.79,7.89C-165.79,-0.83 -158.72,-7.89 -150,-7.89C-141.28,-7.89 -134.21,-0.83 -134.21,7.89Z" stroke-width="0.25" fill="none" stroke="#000000"/>
    <path d="M-118.42,7.89C-118.42,16.62 -125.49,23.68 -134.21,23.68C-142.93,23.68 -150,16.62 -150,7.89C-150,-0.83 -142.93,-7.89 -134.21,-7.89C-125.49,-7.89 -118.42,-0.83 -118.42,7.89Z" stroke-width="0.25" fill="none" stroke="#000000"/>
    <path d="M-102.63,7.89C-102.63,16.62 -109.70,23.68 -118.42,23.68C-127.14,23.68 -134.21,16.62 -134.21,7.89C-134.21,-0.83 -127.14,-7.89 -118.42,-7.89C-109.70,-7.89 -102.63,-0.83 -102.63,7.89Z" stroke-width="0.25" fill="none" stroke="#000000"/>
    <path d="M-86.84,7.89C-86.84,16.62 -93.91,23.68 -102.63,23.68C-111.35,23.68 -118.42,16.62 -118.42,7.89C-118.42,-0.83 -111.35,-7.89 -102.63,-7.89C-93.91,-7.89 -86.84,-0.83 -86.84,7.89Z" stroke-width="0.25" fill="none" stroke="#000000"/>
    <path d="M-71.05,7.89C-71.05,16.62 -78.12,23.68 -86.84,23.68C-95.56,23.68 -102.63,16.62 -102.63,7.89C-102.63,-0.83 -95.56,-7.89 -86.84,-7.89C-78.12,-7.89 -71.05,-0.83 -71.05,7.89Z" stroke-width="0.25" fill="none" stroke="#000000"/>
    <path d="M-55.26,7.89C-55.26,16.62 -62.33,23.68 -71.05,23.68C-79.77,23.68 -86.84,16.62 -86.84,7.89C-86.84,-0.83 -79.77,-7.89 -71.05,-7.89C-62.33,-7.89 -55.26,-0.83 -55.26,7.89Z" stroke-width="0.25" fill="none" stroke="#000000"/>
    <path d="M-39.47,7.89C-39.47,16.62 -46.54,23.68 -55.26,23.68C-63.98,23.68 -71.05,16.62 -71.05,7.89C-71.05,-0.83 -63.98,-7.89 -55.26,-7.89C-46.54,-7.89 -39.47,-0.83 -39.47,7.89Z" stroke-width="0.25" fill="none" stroke="#000000"/>
    <path d="M-23.68,7.89C-23.68,16.62 -30.75,23.68 -39.47,23.68C-48.19,23.68 -55.26,16.62 -55.26,7.89C-55.26,-0.83 -48.19,-7.89 -39.47,-7.89C-30.75,-7.89 -23.68,-0.83 -23.68,7.89Z" stroke-width="0.25" fill="none" stroke="#000000"/>
    <path d="M-7.89,7.89C-7.89,16.62 -14.96,23.68 -23.68,23.68C-32.40,23.68 -39.47,16.62 -39.47,7.89C-39.47,-0.83 -32.40,-7.89 -23.68,-7.89C-14.96,-7.89 -7.89,-0.83 -7.89,7.89Z" stroke-width="0.25" fill="none" stroke="#000000"/>
    <path d="M7.89,7.89C7.89,16.62 0.83,23.68 -7.89,23.68C-16.62,23.68 -23.68,16.62 -23.68,7.89C-23.68,-0.83 -16.62,-7.89 -7.89,-7.89C0.83,-7.89 7.89,-0.83 7.89,7.89Z" stroke-width="0.25" fill="none" stroke="#000000"/>
    <path d="M23.68,7.89C23.68,16.62 16.62,23.68 7.89,23.68C-0.83,23.68 -7.89,16.62 -7.89,7.89C-7.89,-0.83 -0.83,-7.89 7.89,-7.89C16.62,-7.89 23.68,-0.83 23.68,7.89Z" stroke-width="0.25" fill="none" stroke="#000000"/>
    <path d="M39.47,7.89C39.47,16.62 32.40,23.68 23.68,23.68C14.96,23.68 7.89,16.62 7.89,7.89C7.89,-0.83 14.96,-7.89 23.68,-7.89C32.40,-7.89 39.47,-0.83 39.47,7.89Z" stroke-width="0.25" fill="none" stroke="#000000"/>
    <path d="M55.26,7.89C55.26,16.62 48.19,23.68 39.47,23.68C30.75,23.68 23.68,16.62 23.68,7.89C23.68,-0.83 30.75,-7.89 39.47,-7.89C48.19,-7.89 55.26,-0.83 55.26,7.89Z" stroke-width="0.25" fill="none" stroke="#000000"/>
    <path d="M71.05,7.89C71.05,16.62 63.98,23.68 55.26,23.68C46.54,23.68 39.47,16.62 39.47,7.89C39.47,-0.83 46.54,-7.89 55.26,-7.89C63.98,-7.89 71.05,-0.83 71.05,7.89Z" stroke-width="0.25" fill="none" stroke="#000000"/>
    <path d="M86.84,7.89C86.84,16.62 79.77,23.68 71.05,23.68C62.33,23.68 55.26,16.62 55.26,7.89C55.26,-0.83 62.33,-7.89 71.05,-7.89C79.77,-7.89 86.84,-0.83 86.84,7.89Z" stroke-width="0.25" fill="none" stroke="#000000"/>
    <path d="M102.63,7.89C102.63,16.62 95.56,23.68 86.84,23.68C78.12,23.68 71.05,16.62 71.05,7.89C71.05,-0.83 78.12,-7.89 86.84,-7.89C95.56,-7.89 102.63,-0.83 102.63,7.89Z" stroke-width="0.25" fill="none" stroke="#000000"/>
    <path d="M118.42,7.89C118.42,16.62 111.35,23.68 102.63,23.68C93.91,23.68 86.84,16.62 86.84,7.89C86.84,-0.83 93.91,-7.89 102.63,-7.89C111.35,-7.89 118.42,-0.83 118.42,7.89Z" stroke-width="0.25" fill="none" stroke="#000000"/>
    <path d="M134.21,7.89C134.21,16.62 127.14,23.68 118.42,23.68C109.70,23.68 102.63,16.62 102.63,7.89C102.63,-0.83 109.70,-7.89 118.42,-7.89C127.14,-7.89 134.21,-0.83 134.21,7.89Z" stroke-width="0.25" fill="none" stroke="#000000"/>
    <path d="M150,7.89C150,16.62 142.93,23.68 134.21,23.68C125.49,23.68 118.42,16.62 118.42,7.89C118.42,-0.83 125.49,-7.89 134.21,-7.89C142.93,-7.89 150,-0.83 150,7.89Z" stroke-width="0.25" fill="none" stroke="#000000"/>
    <path d="M165.79,7.89C165.79,16.62 158.72,23.68 150,23.68C141.28,23.68 134.21,16.62 134.21,7.89C134.21,-0.83 141.28,-7.89 150,-7.89C158.72,-7.89 165.79,-0.83 165.79,7.89Z" stroke-width="0.25" fill="none" stroke="#000000"/>
    <path d="M-134.21,23.68C-134.21,32.40 -141.28,39.47 -150,39.47C-158.72,39.47 -165.79,32.40 -165.79,23.68C-165.79,14.96 -158.72,7.89 -150,7.89C-141.28,7.89 -134.21,14.96 -134.21,23.68Z" stroke-width="0.25" fill="none" stroke="#000000"/>
    <path d="M-118.42,23.68C-118.42,32.40 -125.49,39.47 -134.21,39.47C-142.93,39.47 -150,32.40 -150,23.68C-150,14.96 -142.93,7.89 -134.21,7.89C-125.49,7.89 -118.42,14.96 -118.42,23.68Z" stroke-width="0.25" fill="none" stroke="#000000"/>
    <path d="M-102.63,23.68C-102.63,32.40 -109.70,39.47 -118.42,39.47C-127.14,39.47 -134.21,32.40 -134.21,23.68C-134.21,14.96 -127.14,7.89 -118.42,7.89C-109.70,7.89 -102.63,14.96 -102.63,23.68Z" stroke-width="0.25" fill="none" stroke="#000000"/>
    <path d="M-86.84,23.68C-86.84,32.40 -93.91,39.47 -102.63,39.47C-111.35,39.47 -118.42,32.40 -118.42,23.68C-118.42,14.96 -111.35,7.89 -102.63,7.89C-93.91,7.89 -86.84,14.96 -86.84,23.68Z" stroke-width="0.25" fill="none" stroke="#000000"/>
    <path d="M-71.05,23.68C-71.05,32.40 -78.12,39.47 -86.84,39.47C-95.56,39.47 -102.63,32.40 -102.63,23.68C-102.63,14.96 -95.56,7.89 -86.84,7.89C-78.12,7.89 -71.05,14.96 -71.05,23.68Z" stroke-width="0.25" fill="none" stroke="#000000"/>
    <path d="M-55.26,23.68C-55.26,32.40 -62.33,39.47 -71.05,39.47C-79.77,39.47 -86.84,32.40 -86.84,23.68C-86.84,14.96 -79.77,7.89 -71.05,7.89C-62.33,7.89 -55.26,14.96 -55.26,23.68Z" stroke-width="0.25" fill="none" stroke="#000000"/>
    <path d="M-39.47,23.68C-39.47,32.40 -46.54,39.47 -55.26,39.47C-63.98,39.47 -71.05,32.40 -71.05,23.68C-71.05,14.96 -63.98,7.89 -55.26,7.89C-46.54,7.89 -39.47,14.96 -39.47,23.68Z" stroke-width="0.25" fill="none" stroke="#000000"/>
    <path d="M-23.68,23.68C-23.68,32.40 -30.75,39.47 -39.47,39.47C-48.19,39.47 -55.26,32.40 -55.26,23.68C-55.26,14.96 -48.19,7.89 -39.47,7.89C-30.75,7.89 -23.68,14.96 -23.68,23.68Z" stroke-width="0.25" fill="none" stroke="#000000"/>
    <path d="M-7.89,23.68C-7.89,32.40 -14.96,39.47 -23.68,39.47C-32.40,39.47 -39.47,32.40 -39.47,23.68C-39.47,14.96 -32.40,7.89 -23.68,7.89C-14.96,7.89 -7.89,14.96 -7.89,23.68Z" stroke-width="0.25" fill="none" stroke="#000000"/>
    <path d="M7.89,23.68C7.89,32.40 0.83,39.47 -7.89,39.47C-16.62,39.47 -23.68,32.40 -23.68,23.68C-23.68,14.96 -16.62,7.89 -7.89,7.89C0.83,7.89 7.89,14.96 7.89,23.68Z" stroke-width="0.25" fill="none" stroke="#000000"/>
    <path d="M23.68,23.68C23.68,32.40 16.62,39.47 7.89,39.47C-0.83,39.47 -7.89,32.40 -7.89,23.68C-7.89,14.96 -0.83,7.89 7.89,7.89C16.62,7.89 23.68,14.96 23.68,23.68Z" stroke-width="0.25" fill="none" stroke="#000000"/>
    <path d="M39.47,23.68C39.47,32.40 32.40,39.47 23.68,39.47C14.96,39.47 7.89,32.40 7.89,23.68C7.89,14.96 14.96,7.89 23.68,7.89C32.40,7.89 39.47,14.96 39.47,23.68Z" stroke-width="0.25" fill="none" stroke="#000000"/>
    <path d="M55.26,23.68C55.26,32.40 48.19,39.47 39.47,39.47C30.75,39.47 23.68,32.40 23.68,23.68C23.68,14.96 30.75,7.89 39.47,7.89C48.19,7.89 55.26,14.96 55.26,23.68Z" stroke-width="0.25" fill="none" stroke="#000000"/>
    <path d="M71.05,23.68C71.05,32.40 63.98,39.47 55.26,39.47C46.54,39.47 39.47,32.40 39.47,23.68C39.47,14.96 46.54,7.89 55.26,7.89C63.98,7.89 71.05,14.96 71.05,23.68Z" stroke-width="0.25" fill="none" stroke="#000000"/>
    <path d="M86.84,23.68C86.84,32.40 79.77,39.47 71.05,39.47C62.33,39.47 55.26,32.40 55.26,23.68C55.26,14.96 62.33,7.89 71.05,7.89C79.77,7.89 86.84,14.96 86.84,23.68Z" stroke-width="0.25" fill="none" stroke="#000000"/>
    <path d="M102.63,23.68C102.63,32.40 95.56,39.47 86.84,39.47C78.12,39.47 71.05,32.40 71.05,23.68C71.05,14.96 78.12,7.89 86.84,7.89C95.56,7.89 102.63,14.96 102.63,23.68Z" stroke-width="0.25" fill="none" stroke="#000000"/>
    <path d="M118.42,23.68C118.42,32.40 111.35,39.47 102.63,39.47C93.91,39.47 86.84,32.40 86.84,23.68C86.84,14.96 93.91,7.89 102.63,7.89C111.35,7.89 118.42,14.96 118.42,23.68Z" stroke-width="0.25" fill="none" stroke="#000000"/>
    <path d="M134.21,23.68C134.21,32.40 127.14,39.47 118.42,39.47C109.70,39.47 102.63,32.40 102.63,23.68C102.63,14.96 109.70,7.89 118.42,7.89C127.14,7.89 134.21,14.96 134.21,23.68Z" stroke-width="0.25" fill="none" stroke="#000000"/>
    <path d="M150,23.68C150,32.40 142.93,39.47 134.21,39.47C125.49,39.47 118.42,32.40 118.42,23.68C118.42,14.96 125.49,7.89 134.21,7.89C142.93,7.89 150,14.96 150,23.68Z" stroke-width="0.25" fill="none" stroke="#000000"/>
    <path d="M165.79,23.68C165.79,32.40 158.72,39.47 150,39.47C141.28,39.47 134.21,32.40 134.21,23.68C134.21,14.96 141.28,7.89 150,7.89C158.72,7.89 165.79,14.96 165.79,23.68Z" stroke-width="0.25" fill="none" stroke="#000000"/>
    <path d="M-134.21,39.47C-134.21,48.19 -141.28,55.26 -150,55.26C-158.72,55.26 -165.79,48.19 -165.79,39.47C-165.79,30.75 -158.72,23.68 -150,23.68C-141.28,23.68 -134.21,30.75 -134.21,39.47Z" stroke-width="0.25" fill="none" stroke="#000000"/>
    <path d="M-118.42,39.47C-118.42,48.19 -125.49,55.26 -134.21,55.26C-142.93,55.26 -150,48.19 -150,39.47C-150,30.75 -142.93,23.68 -134.21,23.68C-125.49,23.68 -118.42,30.75 -118.42,39.47Z" stroke-width="0.25" fill="none" stroke="#000000"/>
    <path d="M-102.63,39.47C-102.63,48.19 -109.70,55.26 -118.42,55.26C-127.14,55.26 -134.21,48.19 -134.21,39.47C-134.21,30.75 -127.14,23.68 -118.42,23.68C-109.70,23.68 -102.63,30.75 -102.63,39.47Z" stroke-width="0.25" fill="none" stroke="#000000"/>
    <path d="M-86.84,39.47C-86.84,48.19 -93.91,55.26 -102.63,55.26C-111.35,55.26 -118.42,48.19 -118.42,39.47C-118.42,30.75 -111.35,23.68 -102.63,23.68C-93.91,23.68 -86.84,30.75 -86.84,39.47Z" stroke-width="0.25" fill="none" stroke="#000000"/>
    <path d="M-71.05,39.47C-71.05,48.19 -78.12,55.26 -86.84,55.26C-95.56,55.26 -102.63,48.19 -102.63,39.47C-102.63,30.75 -95.56,23.68 -86.84,23.68C-78.12,23.68 -71.05,30.75 -71.05,39.47Z" stroke-width="0.25" fill="none" stroke="#000000"/>
    <path d="M-55.26,39.47C-55.26,48.19 -62.33,55.26 -71.05,55.26C-79.77,55.26 -86.84,48.19 -86.84,39.47C-86.84,30.75 -79.77,23.68 -71.05,23.68C-62.33,23.68 -55.26,30.75 -55.26,39.47Z" stroke-width="0.25" fill="none" stroke="#000000"/>
    <path d="M-39.47,39.47C-39.47,48.19 -46.54,55.26 -55.26,55.26C-63.98,55.26 -71.05,48.19 -71.05,39.47C-71.05,30.75 -63.98,23.68 -55.26,23.68C-46.54,23.68 -39.47,30.75 -39.47,39.47Z" stroke-width="0.25" fill="none" stroke="#000000"/>
    <path d="M-23.68,39.47C-23.68,48.19 -30.75,55.26 -39.47,55.26C-48.19,55.26 -55.26,48.19 -55.26,39.47C-55.26,30.75 -48.19,23.68 -39.47,23.68C-30.75,23.68 -23.68,30.75 -23.68,39.47Z" stroke-width="0.25" fill="none" stroke="#000000"/>
    <path d="M-7.89,39.47C-7.89,48.19 -14.96,55.26 -23.68,55.26C-32.40,55.26 -39.47,48.19 -39.47,39.47C-39.47,30.75 -32.40,23.68 -23.68,23.68C-14.96,23.68 -7.89,30.75 -7.89,39.47Z" stroke-width="0.25" fill="none" stroke="#000000"/>
    <path d="M7.89,39.47C7.89,48.19 0.83,55.26 -7.89,55.26C-16.62,55.26 -23.68,48.19 -23.68,39.47C-23.68,30.75 -16.62,23.68 -7.89,23.68C0.83,23.68 7.89,30.75 7.89,39.47Z" stroke-width="0.25" fill="none" stroke="#000000"/>
    <path d="M23.68,39.47C23.68,48.19 16.62,55.26 7.89,55.26C-0.83,55.26 -7.89,48.19 -7.89,39.47C-7.89,30.75 -0.83,23.68 7.89,23.68C16.62,23.68 23.68,30.75 23.68,39.47Z" stroke-width="0.25" fill="none" stroke="#000000"/>
    <path d="M39.47,39.47C39.47,48.19 32.40,55.26 23.68,55.26C14.96,55.26 7.89,48.19 7.89,39.47C7.89,30.75 14.96,23.68 23.68,23.68C32.40,23.68 39.47,30.75 39.47,39.47Z" stroke-width="0.25" fill="none" stroke="#000000"/>
    <path d="M55.26,39.47C55.26,48.19 48.19,55.26 39.47,55.26C30.75,55.26 23.68,48.19 23.68,39.47C23.68,30.75 30.75,23.68 39.47,23.68C48.19,23.68 55.26,30.75 55.26,39.47Z" stroke-width="0.25" fill="none" stroke="#000000"/>
    <path d="M71.05,39.47C71.05,48.19 63.98,55.26 55.26,55.26C46.54,55.26 39.47,48.19 39.47,39.47C39.47,30.75 46.54,23.68 55.26,23.68C63.98,23.68 71.05,30.75 71.05,39.47Z" stroke-width="0.25" fill="none" stroke="#000000"/>
    <path d="M86.84,39.47C86.84,48.19 79.77,55.26 71.05,55.26C62.33,55.26 55.26,48.19 55.26,39.47C55.26,30.75 62.33,23.68 71.05,23.68C79.77,23.68 86.84,30.75 86.84,39.47Z" stroke-width="0.25" fill="none" stroke="#000000"/>
    <path d="M102.63,39.47C102.63,48.19 95.56,55.26 86.84,55.26C78.12,55.26 71.05,48.19 71.05,39.47C71.05,30.75 78.12,23.68 86.84,23.68C95.56,23.68 102.63,30.75 102.63,39.47Z" stroke-width="0.25" fill="none" stroke="#000000"/>
    <path d="M118.42,39.47C118.42,48.19 111.35,55.26 102.63,55.26C93.91,55.26 86.84,48.19 86.84,39.47C86.84,30.75 93.91,23.68 102.63,23.68C111.35,23.68 118.42,30.75 118.42,39.47Z" stroke-width="0.25" fill="none" stroke="#000000"/>
    <path d="M134.21,39.47C134.21,48.19 127.14,55.26 118.42,55.26C109.70,55.26 102.63,48.19 102.63,39.47C102.63,30.75 109.70,23.68 118.42,23.68C127.14,23.68 134.21,30.75 134.21,39.47Z" stroke-width="0.25" fill="none" stroke="#000000"/>
    <path d="M150,39.47C150,48.19 142.93,55.26 134.21,55.26C125.49,55.26 118.42,48.19 118.42,39.47C118.42,30.75 125.49,23.68 134.21,23.68C142.93,23.68 150,30.75 150,39.47Z" stroke-width="0.25" fill="none" stroke="#000000"/>
    <path d="M165.79,39.47C165.79,48.19 158.72,55.26 150,55.26C141.28,55.26 134.21,48.19 134.21,39.47C134.21,30.75 141.28,23.68 150,23.68C158.72,23.68 165.79,30.75 165.79,39.47Z" stroke-width="0.25" fill="none" stroke="#000000"/>
    <path d="M-134.21,55.26C-134.21,63.98 -141.28,71.05 -150,71.05C-158.72,71.05 -165.79,63.98 -165.79,55.26C-165.79,46.54 -158.72,39.47 -150,39.47C-141.28,39.47 -134.21,46.54 -134.21,55.26Z" stroke-width="0.25" fill="none" stroke="#000000"/>
    <path d="M-118.42,55.26C-118.42,63.98 -125.49,71.05 -134.21,71.05C-142.93,71.05 -150,63.98 -150,55.26C-150,46.54 -142.93,39.47 -134.21,39.47C-125.49,39.47 -118.42,46.54 -118.42,55.26Z" stroke-width="0.25" fill="none" stroke="#000000"/>
    <path d="M-102.63,55.26C-102.63,63.98 -109.70,71.05 -118.42,71.05C-127.14,71.05 -134.21,63.98 -134.21,55.26C-134.21,46.54 -127.14,39.47 -118.42,39.47C-109.70,39.47 -102.63,46.54 -102.63,55.26Z" stroke-width="0.25" fill="none" stroke="#000000"/>
    <path d="M-86.84,55.26C-86.84,63.98 -93.91,71.05 -102.63,71.05C-111.35,71.05 -118.42,63.98 -118.42,55.26C-118.42,46.54 -111.35,39.47 -102.63,39.47C-93.91,39.47 -86.84,46.54 -86.84,55.26Z" stroke-width="0.25" fill="none" stroke="#000000"/>
    <path d="M-71.05,55.26C-71.05,63.98 -78.12,71.05 -86.84,71.05C-95.56,71.05 -102.63,63.98 -102.63,55.26C-102.63,46.54 -95.56,39.47 -86.84,39.47C-78.12,39.47 -71.05,46.54 -71.05,55.26Z" stroke-width="0.25" fill="none" stroke="#000000"/>
    <path d="M-55.26,55.26C-55.26,63.98 -62.33,71.05 -71.05,71.05C-79.77,71.05 -86.84,63.98 -86.84,55.26C-86.84,46.54 -79.77,39.47 -71.05,39.47C-62.33,39.47 -55.26,46.54 -55.26,55.26Z" stroke-width="0.25" fill="none" stroke="#000000"/>
    <path d="M-39.47,55.26C-39.47,63.98 -46.54,71.05 -55.26,71.05C-63.98,71.05 -71.05,63.98 -71.05,55.26C-71.05,46.54 -63.98,39.47 -55.26,39.47C-46.54,39.47 -39.47,46.54 -39.47,55.26Z" stroke-width="0.25" fill="none" stroke="#000000"/>
    <path d="M-23.68,55.26C-23.68,63.98 -30.75,71.05 -39.47,71.05C-48.19,71.05 -55.26,63.98 -55.26,55.26C-55.26,46.54 -48.19,39.47 -39.47,39.47C-30.75,39.47 -23.68,46.54 -23.68,55.26Z" stroke-width="0.25" fill="none" stroke="#000000"/>
    <path d="M-7.89,55.26C-7.89,63.98 -14.96,71.05 -23.68,71.05C-32.40,71.05 -39.47,63.98 -39.47,55.26C-39.47,46.54 -32.40,39.47 -23.68,39.47C-14.96,39.47 -7.89,46.54 -7.89,55.26Z" stroke-width="0.25" fill="none" stroke="#000000"/>
    <path d="M7.89,55.26C7.89,63.98 0.83,71.05 -7.89,71.05C-16.62,71.05 -23.68,63.98 -23.68,55.26C-23.68,46.54 -16.62,39.47 -7.89,39.47C0.83,39.47 7.89,46.54 7.89,55.26Z" stroke-width="0.25" fill="none" stroke="#000000"/>
    <path d="M23.68,55.26C23.68,63.98 16.62,71.05 7.89,71.05C-0.83,71.05 -7.89,63.98 -7.89,55.26C-7.89,46.54 -0.83,39.47 7.89,39.47C16.62,39.47 23.68,46.54 23.68,55.26Z" stroke-width="0.25" fill="none" stroke="#000000"/>
    <path d="M39.47,55.26C39.47,63.98 32.40,71.05 23.68,71.05C14.96,71.05 7.89,63.98 7.89,55.26C7.89,46.54 14.96,39.47 23.68,39.47C32.40,39.47 39.47,46.54 39.47,55.26Z" stroke-width="0.25" fill="none" stroke="#000000"/>
    <path d="M55.26,55.26C55.26,63.98 48.19,71.05 39.47,71.05C30.75,71.05 23.68,63.98 23.68,55.26C23.68,46.54 30.75,39.47 39.47,39.47C48.19,39.47 55.26,46.54 55.26,55.26Z" stroke-width="0.25" fill="none" stroke="#000000"/>
    <path d="M71.05,55.26C71.05,63.98 63.98,71.05 55.26,71.05C46.54,71.05 39.47,63.98 39.47,55.26C39.47,46.54 46.54,39.47 55.26,39.47C63.98,39.47 71.05,46.54 71.05,55.26Z" stroke-width="0.25" fill="none" stroke="#000000"/>
    <path d="M86.84,55.26C86.84,63.98 79.77,71.05 71.05,71.05C62.33,71.05 55.26,63.98 55.26,55.26C55.26,46.54 62.33,39.47 71.05,39.47C79.77,39.47 86.84,46.54 86.84,55.26Z" stroke-width="0.25" fill="none" stroke="#000000"/>
    <path d="M102.63,55.26C102.63,63.98 95.56,71.05 86.84,71.05C78.12,71.05 71.05,63.98 71.05,55.26C71.05,46.54 78.12,39.47 86.84,39.47C95.56,39.47 102.63,46.54 102.63,55.26Z" stroke-width="0.25" fill="none" stroke="#000000"/>
    <path d="M118.42,55.26C118.42,63.98 111.35,71.05 102.63,71.05C93.91,71.05 86.84,63.98 86.84,55.26C86.84,46.54 93.91,39.47 102.63,39.47C111.35,39.47 118.42,46.54 118.42,55.26Z" stroke-width="0.25" fill="none" stroke="#000000"/>
    <path d="M134.21,55.26C134.21,63.98 127.14,71.05 118.42,71.05C109.70,71.05 102.63,63.98 102.63,55.26C102.63,46.54 109.70,39.47 118.42,39.47C127.14,39.47 134.21,46.54 134.21,55.26Z" stroke-width="0.25" fill="none" stroke="#000000"/>
    <path d="M150,55.26C150,63.98 142.93,71.05 134.21,71.05C125.49,71.05 118.42,63.98 118.42,55.26C118.42,46.54 125.49,39.47 134.21,39.47C142.93,39.47 150,46.54 150,55.26Z" stroke-width="0.25" fill="none" stroke="#000000"/>
    <path d="M165.79,55.26C165.79,63.98 158.72,71.05 150,71.05C141.28,71.05 134.21,63.98 134.21,55.26C134.21,46.54 141.28,39.47 150,39.47C158.72,39.47 165.79,46.54 165.79,55.26Z" stroke-width="0.25" fill="none" stroke="#000000"/>
    <path d="M-134.21,71.05C-134.21,79.77 -141.28,86.84 -150,86.84C-158.72,86.84 -165.79,79.77 -165.79,71.05C-165.79,62.33 -158.72,55.26 -150,55.26C-141.28,55.26 -134.21,62.33 -134.21,71.05Z" stroke-width="0.25" fill="none" stroke="#000000"/>
    <path d="M-118.42,71.05C-118.42,79.77 -125.49,86.84 -134.21,86.84C-142.93,86.84 -150,79.77 -150,71.05C-150,62.33 -142.93,55.26 -134.21,55.26C-125.49,55.26 -118.42,62.33 -118.42,71.05Z" stroke-width="0.25" fill="none" stroke="#000000"/>
    <path d="M-102.63,71.05C-102.63,79.77 -109.70,86.84 -118.42,86.84C-127.14,86.84 -134.21,79.77 -134.21,71.05C-134.21,62.33 -127.14,55.26 -118.42,55.26C-109.70,55.26 -102.63,62.33 -102.63,71.05Z" stroke-width="0.25" fill="none" stroke="#000000"/>
    <path d="M-86.84,71.05C-86.84,79.77 -93.91,86.84 -102.63,86.84C-111.35,86.84 -118.42,79.77 -118.42,71.05C-118.42,62.33 -111.35,55.26 -102.63,55.26C-93.91,55.26 -86.84,62.33 -86.84,71.05Z" stroke-width="0.25" fill="none" stroke="#000000"/>
    <path d="M-71.05,71.05C-71.05,79.77 -78.12,86.84 -86.84,86.84C-95.56,86.84 -102.63,79.77 -102.63,71.05C-102.63,62.33 -95.56,55.26 -86.84,55.26C-78.12,55.26 -71.05,62.33 -71.05,71.05Z" stroke-width="0.25" fill="none" stroke="#000000"/>
    <path d="M-55.26,71.05C-55.26,79.77 -62.33,86.84 -71.05,86.84C-79.77,86.84 -86.84,79.77 -86.84,71.05C-86.84,62.33 -79.77,55.26 -71.05,55.26C-62.33,55.26 -55.26,62.33 -55.26,71.05Z" stroke-width="0.25" fill="none" stroke="#000000"/>
    <path d="M-39.47,71.05C-39.47,79.77 -46.54,86.84 -55.26,86.84C-63.98,86.84 -71.05,79.77 -71.05,71.05C-71.05,62.33 -63.98,55.26 -55.26,55.26C-46.54,55.26 -39.47,62.33 -39.47,71.05Z" stroke-width="0.25" fill="none" stroke="#000000"/>
    <path d="M-23.68,71.05C-23.68,79.77 -30.75,86.84 -39.47,86.84C-48.19,86.84 -55.26,79.77 -55.26,71.05C-55.26,62.33 -48.19,55.26 -39.47,55.26C-30.75,55.26 -23.68,62.33 -23.68,71.05Z" stroke-width="0.25" fill="none" stroke="#000000"/>
    <path d="M-7.89,71.05C-7.89,79.77 -14.96,86.84 -23.68,86.84C-32.40,86.84 -39.47,79.77 -39.47,71.05C-39.47,62.33 -32.40,55.26 -23.68,55.26C-14.96,55.26 -7.89,62.33 -7.89,71.05Z" stroke-width="0.25" fill="none" stroke="#000000"/>
    <path d="M7.89,71.05C7.89,79.77 0.83,86.84 -7.89,86.84C-16.62,86.84 -23.68,79.77 -23.68,71.05C-23.68,62.33 -16.62,55.26 -7.89,55.26C0.83,55.26 7.89,62.33 7.89,71.05Z" stroke-width="0.25" fill="none" stroke="#000000"/>
    <path d="M23.68,71.05C23.68,79.77 16.62,86.84 7.89,86.84C-0.83,86.84 -7.89,79.77 -7.89,71.05C-7.89,62.33 -0.83,55.26 7.89,55.26C16.62,55.26 23.68,62.33 23.68,71.05Z" stroke-width="0.25" fill="none" stroke="#000000"/>
    <path d="M39.47,71.05C39.47,79.77 32.40,86.84 23.68,86.84C14.96,86.84 7.89,79.77 7.89,71.05C7.89,62.33 14.96,55.26 23.68,55.26C32.40,55.26 39.47,62.33 39.47,71.05Z" stroke-width="0.25" fill="none" stroke="#000000"/>
    <path d="M55.26,71.05C55.26,79.77 48.19,86.84 39.47,86.84C30.75,86.84 23.68,79.77 23.68,71.05C23.68,62.33 30.75,55.26 39.47,55.26C48.19,55.26 55.26,62.33 55.26,71.05Z" stroke-width="0.25" fill="none" stroke="#000000"/>
    <path d="M71.05,71.05C71.05,79.77 63.98,86.84 55.26,86.84C46.54,86.84 39.47,79.77 39.47,71.05C39.47,62.33 46.54,55.26 55.26,55.26C63.98,55.26 71.05,62.33 71.05,71.05Z" stroke-width="0.25" fill="none" stroke="#000000"/>
    <path d="M86.84,71.05C86.84,79.77 79.77,86.84 71.05,86.84C62.33,86.84 55.26,79.77 55.26,71.05C55.26,62.33 62.33,55.26 71.05,55.26C79.77,55.26 86.84,62.33 86.84,71.05Z" stroke-width="0.25" fill="none" stroke="#000000"/>
    <path d="M102.63,71.05C102.63,79.77 95.56,86.84 86.84,86.84C78.12,86.84 71.05,79.77 71.05,71.05C71.05,62.33 78.12,55.26 86.84,55.26C95.56,55.26 102.63,62.33 102.63,71.05Z" stroke-width="0.25" fill="none" stroke="#000000"/>
    <path d="M118.42,71.05C118.42,79.77 111.35,86.84 102.63,86.84C93.91,86.84 86.84,79.77 86.84,71.05C86.84,62.33 93.91,55.26 102.63,55.26C111.35,55.26 118.42,62.33 118.42,71.05Z" stroke-width="0.25" fill="none" stroke="#000000"/>
    <path d="M134.21,71.05C134.21,79.77 127.14,86.84 118.42,86.84C109.70,86.84 102.63,79.77 102.63,71.05C102.63,62.33 109.70,55.26 118.42,55.26C127.14,55.26 134.21,62.33 134.21,71.05Z" stroke-width="0.25" fill="none" stroke="#000000"/>
    <path d="M150,71.05C150,79.77 142.93,86.84 134.21,86.84C125.49,86.84 118.42,79.77 118.42,71.05C118.42,62.33 125.49,55.26 134.21,55.26C142.93,55.26 150,62.33 150,71.05Z" stroke-width="0.25" fill="none" stroke="#000000"/>
    <path d="M165.79,71.05C165.79,79.77 158.72,86.84 150,86.84C141.28,86.84 134.21,79.77 134.21,71.05C134.21,62.33 141.28,55.26 150,55.26C158.72,55.26 165.79,62.33 165.79,71.05Z" stroke-width="0.25" fill="none" stroke="#000000"/>
    <path d="M-134.21,86.84C-134.21,95.56 -141.28,102.63 -150,102.63C-158.72,102.63 -165.79,95.56 -165.79,86.84C-165.79,78.12 -158.72,71.05 -150,71.05C-141.28,71.05 -134.21,78.12 -134.21,86.84Z" stroke-width="0.25" fill="none" stroke="#000000"/>
    <path d="M-118.42,86.84C-118.42,95.56 -125.49,102.63 -134.21,102.63C-142.93,102.63 -150,95.56 -150,86.84C-150,78.12 -142.93,71.05 -134.21,71.05C-125.49,71.05 -118.42,78.12 -118.42,86.84Z" stroke-width="0.25" fill="none" stroke="#000000"/>
    <path d="M-102.63,86.84C-102.63,95.56 -109.70,102.63 -118.42,102.63C-127.14,102.63 -134.21,95.56 -134.21,86.84C-134.21,78.12 -127.14,71.05 -118.42,71.05C-109.70,71.05 -102.63,78.12 -102.63,86.84Z" stroke-width="0.25" fill="none" stroke="#000000"/>
    <path d="M-86.84,86.84C-86.84,95.56 -93.91,102.63 -102.63,102.63C-111.35,102.63 -118.42,95.56 -118.42,86.84C-118.42,78.12 -111.35,71.05 -102.63,71.05C-93.91,71.05 -86.84,78.12 -86.84,86.84Z" stroke-width="0.25" fill="none" stroke="#000000"/>
    <path d="M-71.05,86.84C-71.05,95.56 -78.12,102.63 -86.84,102.63C-95.56,102.63 -102.63,95.56 -102.63,86.84C-102.63,78.12 -95.56,71.05 -86.84,71.05C-78.12,71.05 -71.05,78.12 -71.05,86.84Z" stroke-width="0.25" fill="none" stroke="#000000"/>
    <path d="M-55.26,86.84C-55.26,95.56 -62.33,102.63 -71.05,102.63C-79.77,102.63 -86.84,95.56 -86.84,86.84C-86.84,78.12 -79.77,71.05 -71.05,71.05C-62.33,71.05 -55.26,78.12 -55.26,86.84Z" stroke-width="0.25" fill="none" stroke="#000000"/>
    <path d="M-39.47,86.84C-39.47,95.56 -46.54,102.63 -55.26,102.63C-63.98,102.63 -71.05,95.56 -71.05,86.84C-71.05,78.12 -63.98,71.05 -55.26,71.05C-46.54,71.05 -39.47,78.12 -39.47,86.84Z" stroke-width="0.25" fill="none" stroke="#000000"/>
    <path d="M-23.68,86.84C-23.68,95.56 -30.75,102.63 -39.47,102.63C-48.19,102.63 -55.26,95.56 -55.26,86.84C-55.26,78.12 -48.19,71.05 -39.47,71.05C-30.75,71.05 -23.68,78.12 -23.68,86.84Z" stroke-width="0.25" fill="none" stroke="#000000"/>
    <path d="M-7.89,86.84C-7.89,95.56 -14.96,102.63 -23.68,102.63C-32.40,102.63 -39.47,95.56 -39.47,86.84C-39.47,78.12 -32.40,71.05 -23.68,71.05C-14.96,71.05 -7.89,78.12 -7.89,86.84Z" stroke-width="0.25" fill="none" stroke="#000000"/>
    <path d="M7.89,86.84C7.89,95.56 0.83,102.63 -7.89,102.63C-16.62,102.63 -23.68,95.56 -23.68,86.84C-23.68,78.12 -16.62,71.05 -7.89,71.05C0.83,71.05 7.89,78.12 7.89,86.84Z" stroke-width="0.25" fill="none" stroke="#000000"/>
    <path d="M23.68,86.84C23.68,95.56 16.62,102.63 7.89,102.63C-0.83,102.63 -7.89,95.56 -7.89,86.84C-7.89,78.12 -0.83,71.05 7.89,71.05C16.62,71.05 23.68,78.12 23.68,86.84Z" stroke-width="0.25" fill="none" stroke="#000000"/>
    <path d="M39.47,86.84C39.47,95.56 32.40,102.63 23.68,102.63C14.96,102.63 7.89,95.56 7.89,86.84C7.89,78.12 14.96,71.05 23.68,71.05C32.40,71.05 39.47,78.12 39.47,86.84Z" stroke-width="0.25" fill="none" stroke="#000000"/>
    <path d="M55.26,86.84C55.26,95.56 48.19,102.63 39.47,102.63C30.75,102.63 23.68,95.56 23.68,86.84C23.68,78.12 30.75,71.05 39.47,71.05C48.19,71.05 55.26,78.12 55.26,86.84Z" stroke-width="0.25" fill="none" stroke="#000000"/>
    <path d="M71.05,86.84C71.05,95.56 63.98,102.63 55.26,102.63C46.54,102.63 39.47,95.56 39.47,86.84C39.47,78.12 46.54,71.05 55.26,71.05C63.98,71.05 71.05,78.12 71.05,86.84Z" stroke-width="0.25" fill="none" stroke="#000000"/>
    <path d="M86.84,86.84C86.84,95.56 79.77,102.63 71.05,102.63C62.33,102.63 55.26,95.56 55.26,86.84C55.26,78.12 62.33,71.05 71.05,71.05C79.77,71.05 86.84,78.12 86.84,86.84Z" stroke-width="0.25" fill="none" stroke="#000000"/>
    <path d="M102.63,86.84C102.63,95.56 95.56,102.63 86.84,102.63C78.12,102.63 71.05,95.56 71.05,86.84C71.05,78.12 78.12,71.05 86.84,71.05C95.56,71.05 102.63,78.12 102.63,86.84Z" stroke-width="0.25" fill="none" stroke="#000000"/>
    <path d="M118.42,86.84C118.42,95.56 111.35,102.63 102.63,102.63C93.91,102.63 86.84,95.56 86.84,86.84C86.84,78.12 93.91,71.05 102.63,71.05C111.35,71.05 118.42,78.12 118.42,86.84Z" stroke-width="0.25" fill="none" stroke="#000000"/>
    <path d="M134.21,86.84C134.21,95.56 127.14,102.63 118.42,102.63C109.70,102.63 102.63,95.56 102.63,86.84C102.63,78.12 109.70,71.05 118.42,71.05C127.14,71.05 134.21,78.12 134.21,86.84Z" stroke-width="0.25" fill="none" stroke="#000000"/>
    <path d="M150,86.84C150,95.56 142.93,102.63 134.21,102.63C125.49,102.63 118.42,95.56 118.42,86.84C118.42,78.12 125.49,71.05 134.21,71.05C142.93,71.05 150,78.12 150,86.84Z" stroke-width="0.25" fill="none" stroke="#000000"/>
    <path d="M165.79,86.84C165.79,95.56 158.72,102.63 150,102.63C141.28,102.63 134.21,95.56 134.21,86.84C134.21,78.12 141.28,71.05 150,71.05C158.72,71.05 165.79,78.12 165.79,86.84Z" stroke-width="0.25" fill="none" stroke="#000000"/>
    <path d="M-134.21,102.63C-134.21,111.35 -141.28,118.42 -150,118.42C-158.72,118.42 -165.79,111.35 -165.79,102.63C-165.79,93.91 -158.72,86.84 -150,86.84C-141.28,86.84 -134.21,93.91 -134.21,102.63Z" stroke-width="0.25" fill="none" stroke="#000000"/>
    <path d="M-118.42,102.63C-118.42,111.35 -125.49,118.42 -134.21,118.42C-142.93,118.42 -150,111.35 -150,102.63C-150,93.91 -142.93,86.84 -134.21,86.84C-125.49,86.84 -118.42,93.91 -118.42,102.63Z" stroke-width="0.25" fill="none" stroke="#000000"/>
    <path d="M-102.63,102.63C-102.63,111.35 -109.70,118.42 -118.42,118.42C-127.14,118.42 -134.21,111.35 -134.21,102.63C-134.21,93.91 -127.14,86.84 -118.42,86.84C-109.70,86.84 -102.63,93.91 -102.63,102.63Z" stroke-width="0.25" fill="none" stroke="#000000"/>
    <path d="M-86.84,102.63C-86.84,111.35 -93.91,118.42 -102.63,118.42C-111.35,118.42 -118.42,111.35 -118.42,102.63C-118.42,93.91 -111.35,86.84 -102.63,86.84C-93.91,86.84 -86.84,93.91 -86.84,102.63Z" stroke-width="0.25" fill="none" stroke="#000000"/>
    <path d="M-71.05,102.63C-71.05,111.35 -78.12,118.42 -86.84,118.42C-95.56,118.42 -102.63,111.35 -102.63,102.63C-102.63,93.91 -95.56,86.84 -86.84,86.84C-78.12,86.84 -71.05,93.91 -71.05,102.63Z" stroke-width="0.25" fill="none" stroke="#000000"/>
    <path d="M-55.26,102.63C-55.26,111.35 -62.33,118.42 -71.05,118.42C-79.77,118.42 -86.84,111.35 -86.84,102.63C-86.84,93.91 -79.77,86.84 -71.05,86.84C-62.33,86.84 -55.26,93.91 -55.26,102.63Z" stroke-width="0.25" fill="none" stroke="#000000"/>
    <path d="M-39.47,102.63C-39.47,111.35 -46.54,118.42 -55.26,118.42C-63.98,118.42 -71.05,111.35 -71.05,102.63C-71.05,93.91 -63.98,86.84 -55.26,86.84C-46.54,86.84 -39.47,93.91 -39.47,102.63Z" stroke-width="0.25" fill="none" stroke="#000000"/>
    <path d="M-23.68,102.63C-23.68,111.35 -30.75,118.42 -39.47,118.42C-48.19,118.42 -55.26,111.35 -55.26,102.63C-55.26,93.91 -48.19,86.84 -39.47,86.84C-30.75,86.84 -23.68,93.91 -23.68,102.63Z" stroke-width="0.25" fill="none" stroke="#000000"/>
    <path d="M-7.89,102.63C-7.89,111.35 -14.96,118.42 -23.68,118.42C-32.40,118.42 -39.47,111.35 -39.47,102.63C-39.47,93.91 -32.40,86.84 -23.68,86.84C-14.96,86.84 -7.89,93.91 -7.89,102.63Z" stroke-width="0.25" fill="none" stroke="#000000"/>
    <path d="M7.89,102.63C7.89,111.35 0.83,118.42 -7.89,118.42C-16.62,118.42 -23.68,111.35 -23.68,102.63C-23.68,93.91 -16.62,86.84 -7.89,86.84C0.83,86.84 7.89,93.91 7.89,102.63Z" stroke-width="0.25" fill="none" stroke="#000000"/>
    <path d="M23.68,102.63C23.68,111.35 16.62,118.42 7.89,118.42C-0.83,118.42 -7.89,111.35 -7.89,102.63C-7.89,93.91 -0.83,86.84 7.89,86.84C16.62,86.84 23.68,93.91 23.68,102.63Z" stroke-width="0.25" fill="none" stroke="#000000"/>
    <path d="M39.47,102.63C39.47,111.35 32.40,118.42 23.68,118.42C14.96,118.42 7.89,111.35 7.89,102.63C7.89,93.91 14.96,86.84 23.68,86.84C32.40,86.84 39.47,93.91 39.47,102.63Z" stroke-width="0.25" fill="none" stroke="#000000"/>
    <path d="M55.26,102.63C55.26,111.35 48.19,118.42 39.47,118.42C30.75,118.42 23.68,111.35 23.68,102.63C23.68,93.91 30.75,86.84 39.47,86.84C48.19,86.84 55.26,93.91 55.26,102.63Z" stroke-width="0.25" fill="none" stroke="#000000"/>
    <path d="M71.05,102.63C71.05,111.35 63.98,118.42 55.26,118.42C46.54,118.42 39.47,111.35 39.47,102.63C39.47,93.91 46.54,86.84 55.26,86.84C63.98,86.84 71.05,93.91 71.05,102.63Z" stroke-width="0.25" fill="none" stroke="#000000"/>
    <path d="M86.84,102.63C86.84,111.35 79.77,118.42 71.05,118.42C62.33,118.42 55.26,111.35 55.26,102.63C55.26,93.91 62.33,86.84 71.05,86.84C79.77,86.84 86.84,93.91 86.84,102.63Z" stroke-width="0.25" fill="none" stroke="#000000"/>
    <path d="M102.63,102.63C102.63,111.35 95.56,118.42 86.84,118.42C78.12,118.42 71.05,111.35 71.05,102.63C71.05,93.91 78.12,86.84 86.84,86.84C95.56,86.84 102.63,93.91 102.63,102.63Z" stroke-width="0.25" fill="none" stroke="#000000"/>
    <path d="M118.42,102.63C118.42,111.35 111.35,118.42 102.63,118.42C93.91,118.42 86.84,111.35 86.84,102.63C86.84,93.91 93.91,86.84 102.63,86.84C111.35,86.84 118.42,93.91 118.42,102.63Z" stroke-width="0.25" fill="none" stroke="#000000"/>
    <path d="M134.21,102.63C134.21,111.35 127.14,118.42 118.42,118.42C109.70,118.42 102.63,111.35 102.63,102.63C102.63,93.91 109.70,86.84 118.42,86.84C127.14,86.84 134.21,93.91 134.21,102.63Z" stroke-width="0.25" fill="none" stroke="#000000"/>
    <path d="M150,102.63C150,111.35 142.93,118.42 134.21,118.42C125.49,118.42 118.42,111.35 118.42,102.63C118.42,93.91 125.49,86.84 134.21,86.84C142.93,86.84 150,93.91 150,102.63Z" stroke-width="0.25" fill="none" stroke="#000000"/>
    <path d="M165.79,102.63C165.79,111.35 158.72,118.42 150,118.42C141.28,118.42 134.21,111.35 134.21,102.63C134.21,93.91 141.28,86.84 150,86.84C158.72,86.84 165.79,93.91 165.79,102.63Z" stroke-width="0.25" fill="none" stroke="#000000"/>
    <path d="M-134.21,118.42C-134.21,127.14 -141.28,134.21 -150,134.21C-158.72,134.21 -165.79,127.14 -165.79,118.42C-165.79,109.70 -158.72,102.63 -150,102.63C-141.28,102.63 -134.21,109.70 -134.21,118.42Z" stroke-width="0.25" fill="none" stroke="#000000"/>
    <path d="M-118.42,118.42C-118.42,127.14 -125.49,134.21 -134.21,134.21C-142.93,134.21 -150,127.14 -150,118.42C-150,109.70 -142.93,102.63 -134.21,102.63C-125.49,102.63 -118.42,109.70 -118.42,118.42Z" stroke-width="0.25" fill="none" stroke="#000000"/>
    <path d="M-102.63,118.42C-102.63,127.14 -109.70,134.21 -118.42,134.21C-127.14,134.21 -134.21,127.14 -134.21,118.42C-134.21,109.70 -127.14,102.63 -118.42,102.63C-109.70,102.63 -102.63,109.70 -102.63,118.42Z" stroke-width="0.25" fill="none" stroke="#000000"/>
    <path d="M-86.84,118.42C-86.84,127.14 -93.91,134.21 -102.63,134.21C-111.35,134.21 -118.42,127.14 -118.42,118.42C-118.42,109.70 -111.35,102.63 -102.63,102.63C-93.91,102.63 -86.84,109.70 -86.84,118.42Z" stroke-width="0.25" fill="none" stroke="#000000"/>
    <path d="M-71.05,118.42C-71.05,127.14 -78.12,134.21 -86.84,134.21C-95.56,134.21 -102.63,127.14 -102.63,118.42C-102.63,109.70 -95.56,102.63 -86.84,102.63C-78.12,102.63 -71.05,109.70 -71.05,118.42Z" stroke-width="0.25" fill="none" stroke="#000000"/>
    <path d="M-55.26,118.42C-55.26,127.14 -62.33,134.21 -71.05,134.21C-79.77,134.21 -86.84,127.14 -86.84,118.42C-86.84,109.70 -79.77,102.63 -71.05,102.63C-62.33,102.63 -55.26,109.70 -55.26,118.42Z" stroke-width="0.25" fill="none" stroke="#000000"/>
    <path d="M-39.47,118.42C-39.47,127.14 -46.54,134.21 -55.26,134.21C-63.98,134.21 -71.05,127.14 -71.05,118.42C-71.05,109.70 -63.98,102.63 -55.26,102.63C-46.54,102.63 -39.47,109.70 -39.47,118.42Z" stroke-width="0.25" fill="none" stroke="#000000"/>
    <path d="M-23.68,118.42C-23.68,127.14 -30.75,134.21 -39.47,134.21C-48.19,134.21 -55.26,127.14 -55.26,118.42C-55.26,109.70 -48.19,102.63 -39.47,102.63C-30.75,102.63 -23.68,109.70 -23.68,118.42Z" stroke-width="0.25" fill="none" stroke="#000000"/>
    <path d="M-7.89,118.42C-7.89,127.14 -14.96,134.21 -23.68,134.21C-32.40,134.21 -39.47,127.14 -39.47,118.42C-39.47,109.70 -32.40,102.63 -23.68,102.63C-14.96,102.63 -7.89,109.70 -7.89,118.42Z" stroke-width="0.25" fill="none" stroke="#000000"/>
    <path d="M7.89,118.42C7.89,127.14 0.83,134.21 -7.89,134.21C-16.62,134.21 -23.68,127.14 -23.68,118.42C-23.68,109.70 -16.62,102.63 -7.89,102.63C0.83,102.63 7.89,109.70 7.89,118.42Z" stroke-width="0.25" fill="none" stroke="#000000"/>
    <path d="M23.68,118.42C23.68,127.14 16.62,134.21 7.89,134.21C-0.83,134.21 -7.89,127.14 -7.89,118.42C-7.89,109.70 -0.83,102.63 7.89,102.63C16.62,102.63 23.68,109.70 23.68,118.42Z" stroke-width="0.25" fill="none" stroke="#000000"/>
    <path d="M39.47,118.42C39.47,127.14 32.40,134.21 23.68,134.21C14.96,134.21 7.89,127.14 7.89,118.42C7.89,109.70 14.96,102.63 23.68,102.63C32.40,102.63 39.47,109.70 39.47,118.42Z" stroke-width="0.25" fill="none" stroke="#000000"/>
    <path d="M55.26,118.42C55.26,127.14 48.19,134.21 39.47,134.21C30.75,134.21 23.68,127.14 23.68,118.42C23.68,109.70 30.75,102.63 39.47,102.63C48.19,102.63 55.26,109.70 55.26,118.42Z" stroke-width="0.25" fill="none" stroke="#000000"/>
    <path d="M71.05,118.42C71.05,127.14 63.98,134.21 55.26,134.21C46.54,134.21 39.47,127.14 39.47,118.42C39.47,109.70 46.54,102.63 55.26,102.63C63.98,102.63 71.05,109.70 71.05,118.42Z" stroke-width="0.25" fill="none" stroke="#000000"/>
    <path d="M86.84,118.42C86.84,127.14 79.77,134.21 71.05,134.21C62.33,134.21 55.26,127.14 55.26,118.42C55.26,109.70 62.33,102.63 71.05,102.63C79.77,102.63 86.84,109.70 86.84,118.42Z" stroke-width="0.25" fill="none" stroke="#000000"/>
    <path d="M102.63,118.42C102.63,127.14 95.56,134.21 86.84,134.21C78.12,134.21 71.05,127.14 71.05,118.42C71.05,109.70 78.12,102.63 86.84,102.63C95.56,102.63 102.63,109.70 102.63,118.42Z" stroke-width="0.25" fill="none" stroke="#000000"/>
    <path d="M118.42,118.42C118.42,127.14 111.35,134.21 102.63,134.21C93.91,134.21 86.84,127.14 86.84,118.42C86.84,109.70 93.91,102.63 102.63,102.63C111.35,102.63 118.42,109.70 118.42,118.42Z" stroke-width="0.25" fill="none" stroke="#000000"/>
    <path d="M134.21,118.42C134.21,127.14 127.14,134.21 118.42,134.21C109.70,134.21 102.63,127.14 102.63,118.42C102.63,109.70 109.70,102.63 118.42,102.63C127.14,102.63 134.21,109.70 134.21,118.42Z" stroke-width="0.25" fill="none" stroke="#000000"/>
    <path d="M150,118.42C150,127.14 142.93,134.21 134.21,134.21C125.49,134.21 118.42,127.14 118.42,118.42C118.42,109.70 125.49,102.63 134.21,102.63C142.93,102.63 150,109.70 150,118.42Z" stroke-width="0.25" fill="none" stroke="#000000"/>
    <path d="M165.79,118.42C165.79,127.14 158.72,134.21 150,134.21C141.28,134.21 134.21,127.14 134.21,118.42C134.21,109.70 141.28,102.63 150,102.63C158.72,102.63 165.79,109.70 165.79,118.42Z" stroke-width="0.25" fill="none" stroke="#000000"/>
    <path d="M-134.21,134.21C-134.21,142.93 -141.28,150 -150,150C-158.72,150 -165.79,142.93 -165.79,134.21C-165.79,125.49 -158.72,118.42 -150,118.42C-141.28,118.42 -134.21,125.49 -134.21,134.21Z" stroke-width="0.25" fill="none" stroke="#000000"/>
    <path d="M-118.42,134.21C-118.42,142.93 -125.49,150 -134.21,150C-142.93,150 -150,142.93 -150,134.21C-150,125.49 -142.93,118.42 -134.21,118.42C-125.49,118.42 -118.42,125.49 -118.42,134.21Z" stroke-width="0.25" fill="none" stroke="#000000"/>
    <path d="M-102.63,134.21C-102.63,142.93 -109.70,150 -118.42,150C-127.14,150 -134.21,142.93 -134.21,134.21C-134.21,125.49 -127.14,118.42 -118.42,118.42C-109.70,118.42 -102.63,125.49 -102.63,134.21Z" stroke-width="0.25" fill="none" stroke="#000000"/>
    <path d="M-86.84,134.21C-86.84,142.93 -93.91,150 -102.63,150C-111.35,150 -118.42,142.93 -118.42,134.21C-118.42,125.49 -111.35,118.42 -102.63,118.42C-93.91,118.42 -86.84,125.49 -86.84,134.21Z" stroke-width="0.25" fill="none" stroke="#000000"/>
    <path d="M-71.05,134.21C-71.05,142.93 -78.12,150 -86.84,150C-95.56,150 -102.63,142.93 -102.63,134.21C-102.63,125.49 -95.56,118.42 -86.84,118.42C-78.12,118.42 -71.05,125.49 -71.05,134.21Z" stroke-width="0.25" fill="none" stroke="#000000"/>
    <path d="M-55.26,134.21C-55.26,142.93 -62.33,150 -71.05,150C-79.77,150 -86.84,142.93 -86.84,134.21C-86.84,125.49 -79.77,118.42 -71.05,118.42C-62.33,118.42 -55.26,125.49 -55.26,134.21Z" stroke-width="0.25" fill="none" stroke="#000000"/>
    <path d="M-39.47,134.21C-39.47,142.93 -46.54,150 -55.26,150C-63.98,150 -71.05,142.93 -71.05,134.21C-71.05,125.49 -63.98,118.42 -55.26,118.42C-46.54,118.42 -39.47,125.49 -39.47,134.21Z" stroke-width="0.25" fill="none" stroke="#000000"/>
    <path d="M-23.68,134.21C-23.68,142.93 -30.75,150 -39.47,150C-48.19,150 -55.26,142.93 -55.26,134.21C-55.26,125.49 -48.19,118.42 -39.47,118.42C-30.75,118.42 -23.68,125.49 -23.68,134.21Z" stroke-width="0.25" fill="none" stroke="#000000"/>
    <path d="M-7.89,134.21C-7.89,142.93 -14.96,150 -23.68,150C-32.40,150 -39.47,142.93 -39.47,134.21C-39.47,125.49 -32.40,118.42 -23.68,118.42C-14.96,118.42 -7.89,125.49 -7.89,134.21Z" stroke-width="0.25" fill="none" stroke="#000000"/>
    <path d="M7.89,134.21C7.89,142.93 0.83,150 -7.89,150C-16.62,150 -23.68,142.93 -23.68,134.21C-23.68,125.49 -16.62,118.42 -7.89,118.42C0.83,118.42 7.89,125.49 7.89,134.21Z" stroke-width="0.25" fill="none" stroke="#000000"/>
    <path d="M23.68,134.21C23.68,142.93 16.62,150 7.89,150C-0.83,150 -7.89,142.93 -7.89,134.21C-7.89,125.49 -0.83,118.42 7.89,118.42C16.62,118.42 23.68,125.49 23.68,134.21Z" stroke-width="0.25" fill="none" stroke="#000000"/>
    <path d="M39.47,134.21C39.47,142.93 32.40,150 23.68,150C14.96,150 7.89,142.93 7.89,134.21C7.89,125.49 14.96,118.42 23.68,118.42C32.40,118.42 39.47,125.49 39.47,134.21Z" stroke-width="0.25" fill="none" stroke="#000000"/>
    <path d="M55.26,134.21C55.26,142.93 48.19,150 39.47,150C30.75,150 23.68,142.93 23.68,134.21C23.68,125.49 30.75,118.42 39.47,118.42C48.19,118.42 55.26,125.49 55.26,134.21Z" stroke-width="0.25" fill="none" stroke="#000000"/>
    <path d="M71.05,134.21C71.05,142.93 63.98,150 55.26,150C46.54,150 39.47,142.93 39.47,134.21C39.47,125.49 46.54,118.42 55.26,118.42C63.98,118.42 71.05,125.49 71.05,134.21Z" stroke-width="0.25" fill="none" stroke="#000000"/>
    <path d="M86.84,134.21C86.84,142.93 79.77,150 71.05,150C62.33,150 55.26,142.93 55.26,134.21C55.26,125.49 62.33,118.42 71.05,118.42C79.77,118.42 86.84,125.49 86.84,134.21Z" stroke-width="0.25" fill="none" stroke="#000000"/>
    <path d="M102.63,134.21C102.63,142.93 95.56,150 86.84,150C78.12,150 71.05,142.93 71.05,134.21C71.05,125.49 78.12,118.42 86.84,118.42C95.56,118.42 102.63,125.49 102.63,134.21Z" stroke-width="0.25" fill="none" stroke="#000000"/>
    <path d="M118.42,134.21C118.42,142.93 111.35,150 102.63,150C93.91,150 86.84,142.93 86.84,134.21C86.84,125.49 93.91,118.42 102.63,118.42C111.35,118.42 118.42,125.49 118.42,134.21Z" stroke-width="0.25" fill="none" stroke="#000000"/>
    <path d="M134.21,134.21C134.21,142.93 127.14,150 118.42,150C109.70,150 102.63,142.93 102.63,134.21C102.63,125.49 109.70,118.42 118.42,118.42C127.14,118.42 134.21,125.49 134.21,134.21Z" stroke-width="0.25" fill="none" stroke="#000000"/>
    <path d="M150,134.21C150,142.93 142.93,150 134.21,150C125.49,150 118.42,142.93 118.42,134.21C118.42,125.49 125.49,118.42 134.21,118.42C142.93,118.42 150,125.49 150,134.21Z" stroke-width="0.25" fill="none" stroke="#000000"/>
    <path d="M165.79,134.21C165.79,142.93 158.72,150 150,150C141.28,150 134.21,142.93 134.21,134.21C134.21,125.49 141.28,118.42 150,118.42C158.72,118.42 165.79,125.49 165.79,134.21Z" stroke-width="0.25" fill="none" stroke="#000000"/>
    <path d="M-134.21,150C-134.21,158.72 -141.28,165.79 -150,165.79C-158.72,165.79 -165.79,158.72 -165.79,150C-165.79,141.28 -158.72,134.21 -150,134.21C-141.28,134.21 -134.21,141.28 -134.21,150Z" stroke-width="0.25" fill="none" stroke="#000000"/>
    <path d="M-118.42,150C-118.42,158.72 -125.49,165.79 -134.21,165.79C-142.93,165.79 -150,158.72 -150,150C-150,141.28 -142.93,134.21 -134.21,134.21C-125.49,134.21 -118.42,141.28 -118.42,150Z" stroke-width="0.25" fill="none" stroke="#000000"/>
    <path d="M-102.63,150C-102.63,158.72 -109.70,165.79 -118.42,165.79C-127.14,165.79 -134.21,158.72 -134.21,150C-134.21,141.28 -127.14,134.21 -118.42,134.21C-109.70,134.21 -102.63,141.28 -102.63,150Z" stroke-width="0.25" fill="none" stroke="#000000"/>
    <path d="M-86.84,150C-86.84,158.72 -93.91,165.79 -102.63,165.79C-111.35,165.79 -118.42,158.72 -118.42,150C-118.42,141.28 -111.35,134.21 -102.63,134.21C-93.91,134.21 -86.84,141.28 -86.84,150Z" stroke-width="0.25" fill="none" stroke="#000000"/>
    <path d="M-71.05,150C-71.05,158.72 -78.12,165.79 -86.84,165.79C-95.56,165.79 -102.63,158.72 -102.63,150C-102.63,141.28 -95.56,134.21 -86.84,134.21C-78.12,134.21 -71.05,141.28 -71.05,150Z" stroke-width="0.25" fill="none" stroke="#000000"/>
    <path d="M-55.26,150C-55.26,158.72 -62.33,165.79 -71.05,165.79C-79.77,165.79 -86.84,158.72 -86.84,150C-86.84,141.28 -79.77,134.21 -71.05,134.21C-62.33,134.21 -55.26,141.28 -55.26,150Z" stroke-width="0.25" fill="none" stroke="#000000"/>
    <path d="M-39.47,150C-39.47,158.72 -46.54,165.79 -55.26,165.79C-63.98,165.79 -71.05,158.72 -71.05,150C-71.05,141.28 -63.98,134.21 -55.26,134.21C-46.54,134.21 -39.47,141.28 -39.47,150Z" stroke-width="0.25" fill="none" stroke="#000000"/>
    <path d="M-23.68,150C-23.68,158.72 -30.75,165.79 -39.47,165.79C-48.19,165.79 -55.26,158.72 -55.26,150C-55.26,141.28 -48.19,134.21 -39.47,134.21C-30.75,134.21 -23.68,141.28 -23.68,150Z" stroke-width="0.25" fill="none" stroke="#000000"/>
    <path d="M-7.89,150C-7.89,158.72 -14.96,165.79 -23.68,165.79C-32.40,165.79 -39.47,158.72 -39.47,150C-39.47,141.28 -32.40,134.21 -23.68,134.21C-14.96,134.21 -7.89,141.28 -7.89,150Z" stroke-width="0.25" fill="none" stroke="#000000"/>
    <path d="M7.89,150C7.89,158.72 0.83,165.79 -7.89,165.79C-16.62,165.79 -23.68,158.72 -23.68,150C-23.68,141.28 -16.62,134.21 -7.89,134.21C0.83,134.21 7.89,141.28 7.89,150Z" stroke-width="0.25" fill="none" stroke="#000000"/>
    <path d="M23.68,150C23.68,158.72 16.62,165.79 7.89,165.79C-0.83,165.79 -7.89,158.72 -7.89,150C-7.89,141.28 -0.83,134.21 7.89,134.21C16.62,134.21 23.68,141.28 23.68,150Z" stroke-width="0.25" fill="none" stroke="#000000"/>
    <path d="M39.47,150C39.47,158.72 32.40,165.79 23.68,165.79C14.96,165.79 7.89,158.72 7.89,150C7.89,141.28 14.96,134.21 23.68,134.21C32.40,134.21 39.47,141.28 39.47,150Z" stroke-width="0.25" fill="none" stroke="#000000"/>
    <path d="M55.26,150C55.26,158.72 48.19,165.79 39.47,165.79C30.75,165.79 23.68,158.72 23.68,150C23.68,141.28 30.75,134.21 39.47,134.21C48.19,134.21 55.26,141.28 55.26,150Z" stroke-width="0.25" fill="none" stroke="#000000"/>
    <path d="M71.05,150C71.05,158.72 63.98,165.79 55.26,165.79C46.54,165.79 39.47,158.72 39.47,150C39.47,141.28 46.54,134.21 55.26,134.21C63.98,134.21 71.05,141.28 71.05,150Z" stroke-width="0.25" fill="none" stroke="#000000"/>
    <path d="M86.84,150C86.84,158.72 79.77,165.79 71.05,165.79C62.33,165.79 55.26,158.72 55.26,150C55.26,141.28 62.33,134.21 71.05,134.21C79.77,134.21 86.84,141.28 86.84,150Z" stroke-width="0.25" fill="none" stroke="#000000"/>
    <path d="M102.63,150C102.63,158.72 95.56,165.79 86.84,165.79C78.12,165.79 71.05,158.72 71.05,150C71.05,141.28 78.12,134.21 86.84,134.21C95.56,134.21 102.63,141.28 102.63,150Z" stroke-width="0.25" fill="none" stroke="#000000"/>
    <path d="M118.42,150C118.42,158.72 111.35,165.79 102.63,165.79C93.91,165.79 86.84,158.72 86.84,150C86.84,141.28 93.91,134.21 102.63,134.21C111.35,134.21 118.42,141.28 118.42,150Z" stroke-width="0.25" fill="none" stroke="#000000"/>
    <path d="M134.21,150C134.21,158.72 127.14,165.79 118.42,165.79C109.70,165.79 102.63,158.72 102.63,150C102.63,141.28 109.70,134.21 118.42,134.21C127.14,134.21 134.21,141.28 134.21,150Z" stroke-width="0.25" fill="none" stroke="#000000"/>
    <path d="M150,150C150,158.72 142.93,165.79 134.21,165.79C125.49,165.79 118.42,158.72 118.42,150C118.42,141.28 125.49,134.21 134.21,134.21C142.93,134.21 150,141.28 150,150Z" stroke-width="0.25" fill="none" stroke="#000000"/>
    <path d="M165.79,150C165.79,158.72 158.72,165.79 150,165.79C141.28,165.79 134.21,158.72 134.21,150C134.21,141.28 141.28,134.21 150,134.21C158.72,134.21 165.79,141.28 165.79,150Z" stroke-width="0.25" fill="none" stroke="#000000"/>
</svg>