년,월,일,시,SO2,NO2,CO,O3,PM10
2011,1,1,1,0.006,0.033,0.8,0.005,52
2011,1,1,2,0.006,0.037,1,0.004,47
2011,1,1,3,0.005,0.039,1,0.003,59
2011,1,1,4,0.005,0.036,1,0.003,49
2011,1,1,5,0.005,0.037,1,0.003,52
2011,1,1,6,0.005,0.036,1,0.003,62
2011,1,1,7,0.006,0.033,0.9,0.003,56
2011,1,1,8,0.006,0.03,0.8,0.006,53
2011,1,1,9,0.006,0.031,0.9,0.007,53
2011,1,1,10,0.008,0.032,0.9,0.009,57
2011,1,1,11,0.009,0.03,0.8,0.014,64
2011,1,1,12,0.01,0.026,0.8,0.02,54
2011,1,1,13,0.01,0.03,0.9,0.02,58
2011,1,1,14,0.01,0.038,1,0.015,62
2011,1,1,15,0.008,0.033,0.9,0.02,67
2011,1,1,16,0.008,0.032,0.9,0.02,61
2011,1,1,17,0.007,0.038,0.9,0.014,65
2011,1,1,18,0.005,0.046,0.9,0.006,64
2011,1,1,19,0.006,0.049,1.1,0.003,59
2011,1,1,20,0.006,0.052,1.2,0.003,72
2011,1,1,21,0.006,0.056,1.3,0.003,70
2011,1,1,22,0.006,0.055,1.4,0.003,83
2011,1,1,23,0.006,0.057,1.5,0.003,79
2011,1,1,24,0.005,0.056,1.5,0.003,83
2011,1,2,1,0.005,0.05,1.3,0.003,78
2011,1,2,2,0.003,0.045,1.2,0.003,77
2011,1,2,3,0.003,0.042,1.2,0.003,72
2011,1,2,4,0.003,0.042,1.2,0.003,69
2011,1,2,5,0.003,0.039,1.1,0.003,72
2011,1,2,6,0.002,0.037,1.1,0.003,68
2011,1,2,7,0.002,0.039,1.2,0.003,65
2011,1,2,8,0.003,0.04,1.2,0.003,61
2011,1,2,9,0.003,0.041,1.3,0.004,83
2011,1,2,10,0.004,0.042,1.3,0.006,71
2011,1,2,11,0.004,0.04,1.2,0.009,78
2011,1,2,12,0.005,0.042,1.2,0.012,73
2011,1,2,13,0.008,0.053,1.5,0.011,80
2011,1,2,14,0.007,0.048,1.2,0.015,81
2011,1,2,15,0.006,0.04,1,0.02,66
2011,1,2,16,0.005,0.037,0.8,0.021,59
2011,1,2,17,0.004,0.036,0.7,0.021,47
2011,1,2,18,0.004,0.04,0.7,0.014,40
2011,1,2,19,0.004,0.042,0.8,0.01,40
2011,1,2,20,0.003,0.039,0.8,0.013,45
2011,1,2,21,0.003,0.039,0.9,0.012,42
2011,1,2,22,0.003,0.048,0.9,0.006,59
2011,1,2,23,0.003,0.05,1,0.003,56
2011,1,2,24,0.003,0.051,1,0.003,49
2011,1,3,1,0.004,0.052,1.3,0.003,59
2011,1,3,2,0.003,0.049,1.1,0.003,67
2011,1,3,3,0.002,0.046,1.1,0.003,66
2011,1,3,4,0.002,0.043,1,0.003,63
2011,1,3,5,0.002,0.041,1,0.004,68
2011,1,3,6,0.002,0.043,1.1,0.003,65
2011,1,3,7,0.003,0.047,1.1,0.003,66
2011,1,3,8,0.004,0.05,1.3,0.003,72
2011,1,3,9,0.004,0.055,1.4,0.004,71
2011,1,3,10,0.004,0.055,1.4,0.005,77
2011,1,3,11,0.005,0.058,1.5,0.006,70
2011,1,3,12,0.006,0.053,1.4,0.009,98
2011,1,3,13,0.006,0.056,1.4,0.01,90
2011,1,3,14,0.006,0.046,1,0.015,64
2011,1,3,15,0.007,0.062,1.5,0.009,62
2011,1,3,16,0.006,0.059,1.2,0.007,83
2011,1,3,17,0.004,0.053,1,0.006,56
2011,1,3,18,0.003,0.054,1,0.003,55
2011,1,3,19,0.003,0.049,1,0.004,39
2011,1,3,20,0.003,0.049,1,0.003,33
2011,1,3,21,0.003,0.049,1.1,0.003,33
2011,1,3,22,0.004,0.053,1.3,0.003,49
2011,1,3,23,0.003,0.052,1.2,0.003,66
2011,1,3,24,0.003,0.054,1.3,0.003,77
2011,1,4,1,0.003,0.051,1.1,0.003,79
2011,1,4,2,0.003,0.047,1,0.004,71
2011,1,4,3,0.003,0.047,1,0.003,81
2011,1,4,4,0.003,0.036,0.8,0.012,69
2011,1,4,5,0.003,0.041,1.1,0.006,57
2011,1,4,6,0.003,0.046,1.3,0.003,57
2011,1,4,7,0.005,0.051,1.4,0.003,66
2011,1,4,8,0.005,0.055,1.5,0.003,62
2011,1,4,9,0.006,0.059,1.7,0.004,69
2011,1,4,10,0.006,0.061,1.6,0.004,74
2011,1,4,11,0.006,0.061,1.5,0.005,90
2011,1,4,12,0.006,0.056,1.3,0.007,70
2011,1,4,13,0.006,0.054,1.2,0.009,80
2011,1,4,14,0.006,0.04,0.8,0.014,54
2011,1,4,15,0.006,0.039,0.8,0.013,51
2011,1,4,16,0.006,0.037,0.8,0.014,48
2011,1,4,17,0.005,0.041,0.8,0.009,56
2011,1,4,18,0.005,0.044,0.9,0.004,60
2011,1,4,19,0.005,0.041,0.8,0.006,47
2011,1,4,20,0.005,0.041,0.8,0.006,38
2011,1,4,21,0.005,0.039,0.8,0.009,45
2011,1,4,22,0.005,0.036,0.7,0.012,45
2011,1,4,23,0.005,0.043,0.8,0.005,44
2011,1,4,24,0.005,0.045,0.9,0.003,47
2011,1,5,1,0.005,0.032,0.6,0.015,44
2011,1,5,2,0.005,0.024,0.6,0.021,33
2011,1,5,3,0.005,0.024,0.6,0.021,30
2011,1,5,4,0.005,0.027,0.6,0.017,32
2011,1,5,5,0.006,0.023,0.6,0.022,29
2011,1,5,6,0.005,0.019,0.5,0.026,30
2011,1,5,7,0.005,0.027,0.6,0.017,24
2011,1,5,8,0.005,0.039,0.7,0.005,35
2011,1,5,9,0.006,0.041,0.8,0.005,40
2011,1,5,10,0.007,0.04,0.7,0.006,43
2011,1,5,11,0.008,0.029,0.6,0.017,49
2011,1,5,12,0.008,0.029,0.7,0.019,50
2011,1,5,13,0.01,0.028,0.7,0.022,54
2011,1,5,14,0.01,0.028,0.7,0.024,50
2011,1,5,15,0.01,0.025,0.6,0.028,54
2011,1,5,16,0.008,0.029,0.6,0.025,47
2011,1,5,17,0.007,0.032,0.6,0.023,48
2011,1,5,18,0.006,0.03,0.6,0.022,44
2011,1,5,19,0.005,0.032,0.6,0.018,33
2011,1,5,20,0.005,0.026,0.5,0.02,30
2011,1,5,21,0.005,0.02,0.5,0.026,41
2011,1,5,22,0.004,0.021,0.6,0.024,39
2011,1,5,23,0.004,0.021,0.6,0.023,40
2011,1,5,24,0.004,0.021,0.5,0.022,35
2011,1,6,1,0.005,0.017,0.5,0.025,33
2011,1,6,2,0.005,0.016,0.6,0.025,32
2011,1,6,3,0.005,0.016,0.6,0.023,36
2011,1,6,4,0.005,0.022,0.6,0.018,35
2011,1,6,5,0.005,0.02,0.6,0.019,34
2011,1,6,6,0.005,0.017,0.6,0.023,33
2011,1,6,7,0.005,0.022,0.5,0.019,29
2011,1,6,8,0.005,0.028,0.5,0.014,31
2011,1,6,9,0.005,0.033,0.5,0.009,38
2011,1,6,10,0.006,0.029,0.6,0.015,30
2011,1,6,11,0.006,0.024,0.6,0.022,33
2011,1,6,12,0.006,0.025,0.6,0.024,28
2011,1,6,13,0.006,0.024,0.6,0.025,31
2011,1,6,14,0.006,0.025,0.6,0.025,35
2011,1,6,15,0.005,0.029,0.5,0.023,46
2011,1,6,16,0.005,0.031,0.5,0.022,36
2011,1,6,17,0.004,0.032,0.5,0.021,38
2011,1,6,18,0.004,0.032,0.5,0.02,41
2011,1,6,19,0.003,0.023,0.5,0.025,33
2011,1,6,20,0.004,0.027,0.5,0.019,32
2011,1,6,21,0.004,0.03,0.6,0.015,44
2011,1,6,22,0.004,0.025,0.5,0.02,56
2011,1,6,23,0.004,0.032,0.6,0.012,54
2011,1,6,24,0.004,0.031,0.6,0.012,51
2011,1,7,1,0.003,0.031,0.6,0.011,41
2011,1,7,2,0.003,0.025,0.6,0.016,44
2011,1,7,3,0.003,0.036,0.9,0.005,45
2011,1,7,4,0.003,0.04,0.9,0.003,52
2011,1,7,5,0.003,0.038,1,0.003,53
2011,1,7,6,0.003,0.04,1,0.003,58
2011,1,7,7,0.004,0.042,1,0.003,59
2011,1,7,8,0.005,0.043,1.1,0.003,57
2011,1,7,9,0.006,0.051,1.2,0.004,56
2011,1,7,10,0.006,0.045,1.1,0.006,52
2011,1,7,11,0.007,0.052,1.4,0.007,66
2011,1,7,12,0.007,0.05,1.1,0.008,70
2011,1,7,13,0.006,0.039,0.7,0.015,58
2011,1,7,14,(A),(A),(A),(A),70
2011,1,7,15,(A),(A),(A),(A),70
2011,1,7,16,0.004,0.032,0.5,0.02,33
2011,1,7,17,0.005,0.042,0.6,0.014,40
2011,1,7,18,0.005,0.045,0.6,0.008,53
2011,1,7,19,0.004,0.043,0.6,0.006,44
2011,1,7,20,0.004,0.045,0.8,0.004,45
2011,1,7,21,0.005,0.05,0.9,0.003,47
2011,1,7,22,0.006,0.058,1.1,0.003,57
2011,1,7,23,0.006,0.059,1.1,0.003,64
2011,1,7,24,0.005,0.055,1.1,0.003,59
2011,1,8,1,0.004,0.05,1,0.003,58
2011,1,8,2,0.004,0.048,1,0.003,67
2011,1,8,3,0.004,0.047,1.1,0.003,59
2011,1,8,4,0.004,0.045,1.1,0.003,58
2011,1,8,5,0.004,0.047,1,0.003,54
2011,1,8,6,0.004,0.045,0.9,0.003,46
2011,1,8,7,0.004,0.046,0.8,0.003,47
2011,1,8,8,0.004,0.044,0.7,0.003,43
2011,1,8,9,0.004,0.042,0.8,0.004,50
2011,1,8,10,0.004,0.043,0.8,0.005,54
2011,1,8,11,0.004,0.041,0.8,0.007,56
2011,1,8,12,0.005,0.043,0.8,0.007,55
2011,1,8,13,0.006,0.043,0.9,0.007,58
2011,1,8,14,0.006,0.046,1,0.007,57
2011,1,8,15,0.006,0.046,0.9,0.008,58
2011,1,8,16,0.006,0.05,1,0.004,60
2011,1,8,17,0.006,0.054,1.1,0.003,65
2011,1,8,18,0.006,0.057,1.1,0.003,73
2011,1,8,19,0.007,0.06,1.6,0.003,91
2011,1,8,20,0.007,0.064,1.7,0.003,91
2011,1,8,21,0.006,0.046,0.9,0.005,71
2011,1,8,22,0.007,0.043,0.9,0.004,70
2011,1,8,23,0.01,0.044,0.9,0.003,65
2011,1,8,24,0.013,0.04,0.9,0.004,71
2011,1,9,1,0.017,0.036,1,0.005,85
2011,1,9,2,0.018,0.03,1,0.008,105
2011,1,9,3,0.015,0.025,0.9,0.014,93
2011,1,9,4,0.012,0.018,0.7,0.022,57
2011,1,9,5,0.01,0.014,0.8,0.023,54
2011,1,9,6,0.01,0.014,0.8,0.022,61
2011,1,9,7,0.009,0.016,0.6,0.022,44
2011,1,9,8,0.008,0.016,0.6,0.023,41
2011,1,9,9,0.007,0.017,0.6,0.021,37
2011,1,9,10,0.008,0.018,0.6,0.022,34
2011,1,9,11,0.009,0.019,0.6,0.023,39
2011,1,9,12,0.009,0.018,0.5,0.028,38
2011,1,9,13,0.007,0.016,0.5,0.032,35
2011,1,9,14,0.005,0.014,0.4,0.035,39
2011,1,9,15,0.005,0.014,0.4,0.036,28
2011,1,9,16,0.004,0.014,0.4,0.035,31
2011,1,9,17,0.003,0.015,0.4,0.034,25
2011,1,9,18,0.003,0.015,0.4,0.031,26
2011,1,9,19,0.003,0.017,0.4,0.028,26
2011,1,9,20,0.003,0.017,0.4,0.026,21
2011,1,9,21,0.003,0.021,0.4,0.022,23
2011,1,9,22,0.003,0.019,0.4,0.024,29
2011,1,9,23,0.003,0.02,0.4,0.022,35
2011,1,9,24,0.003,0.018,0.4,0.023,33
2011,1,10,1,0.003,0.016,0.4,0.025,41
2011,1,10,2,0.004,0.013,0.5,0.026,35
2011,1,10,3,0.003,0.019,0.5,0.019,41
2011,1,10,4,0.004,0.029,0.7,0.008,38
2011,1,10,5,0.003,0.028,0.7,0.009,40
2011,1,10,6,0.004,0.033,0.8,0.007,37
2011,1,10,7,0.004,0.038,0.8,0.003,42
2011,1,10,8,0.004,0.041,0.9,0.003,40
2011,1,10,9,0.005,0.044,1,0.004,48
2011,1,10,10,0.006,0.045,1,0.007,57
2011,1,10,11,0.006,0.039,0.8,0.012,45
2011,1,10,12,0.007,0.041,0.9,0.012,45
2011,1,10,13,0.006,0.036,0.8,0.015,40
2011,1,10,14,0.005,0.023,0.5,0.026,25
2011,1,10,15,0.004,0.018,0.5,0.029,27
2011,1,10,16,0.005,0.024,0.5,0.023,32
2011,1,10,17,0.005,0.032,0.5,0.018,47
2011,1,10,18,0.005,0.036,0.6,0.013,48
2011,1,10,19,0.005,0.033,0.6,0.013,44
2011,1,10,20,0.005,0.031,0.6,0.013,37
2011,1,10,21,0.005,0.036,0.7,0.009,50
2011,1,10,22,0.005,0.035,0.7,0.009,50
2011,1,10,23,0.005,0.04,0.8,0.005,50
2011,1,10,24,0.005,0.048,1,0.003,57
2011,1,11,1,0.006,0.051,1.1,0.003,62
2011,1,11,2,0.004,0.044,0.9,0.003,58
2011,1,11,3,0.004,0.042,0.9,0.003,53
2011,1,11,4,0.003,0.041,0.8,0.003,50
2011,1,11,5,0.004,0.041,0.9,0.003,48
2011,1,11,6,0.004,0.042,1,0.003,48
2011,1,11,7,0.004,0.043,1,0.003,51
2011,1,11,8,0.004,0.041,0.9,0.003,46
2011,1,11,9,0.005,0.046,1,0.003,49
2011,1,11,10,0.006,0.05,1.1,0.005,72
2011,1,11,11,0.006,0.048,1,0.006,66
2011,1,11,12,0.005,0.042,0.9,0.009,63
2011,1,11,13,0.006,0.042,0.9,0.01,61
2011,1,11,14,0.006,0.044,0.9,0.009,68
2011,1,11,15,0.005,0.043,0.9,0.007,64
2011,1,11,16,0.005,0.045,0.9,0.004,50
2011,1,11,17,0.005,0.05,1,0.003,51
2011,1,11,18,0.005,0.053,1.2,0.003,64
2011,1,11,19,0.005,0.056,1.5,0.003,72
2011,1,11,20,0.006,0.058,1.5,0.003,73
2011,1,11,21,0.005,0.054,1.4,0.003,63
2011,1,11,22,0.006,0.038,1,0.005,71
2011,1,11,23,0.005,0.025,0.8,0.017,61
2011,1,11,24,0.005,0.017,0.7,0.025,62
2011,1,12,1,0.006,0.014,0.6,0.027,55
2011,1,12,2,0.006,0.014,0.7,0.026,55
2011,1,12,3,0.007,0.014,0.6,0.027,57
2011,1,12,4,0.007,0.013,0.6,0.027,50
2011,1,12,5,0.007,0.013,0.6,0.026,51
2011,1,12,6,0.008,0.014,0.6,0.025,48
2011,1,12,7,0.008,0.021,0.6,0.018,46
2011,1,12,8,0.009,0.034,0.6,0.008,54
2011,1,12,9,0.009,0.035,0.6,0.007,73
2011,1,12,10,0.01,0.032,0.6,0.013,59
2011,1,12,11,0.008,0.031,0.5,0.017,51
2011,1,12,12,0.007,0.03,0.5,0.02,52
2011,1,12,13,0.005,0.019,0.4,0.029,41
2011,1,12,14,0.005,0.022,0.4,0.028,27
2011,1,12,15,0.005,0.024,0.4,0.026,38
2011,1,12,16,0.004,0.024,0.4,0.026,41
2011,1,12,17,0.005,0.029,0.4,0.021,39
2011,1,12,18,0.005,0.031,0.4,0.016,47
2011,1,12,19,0.004,0.022,0.4,0.023,25
2011,1,12,20,0.004,0.023,0.4,0.02,22
2011,1,12,21,0.004,0.029,0.5,0.015,30
2011,1,12,22,0.004,0.037,0.5,0.008,31
2011,1,12,23,0.004,0.027,0.4,0.017,29
2011,1,12,24,0.004,0.023,0.4,0.02,22
2011,1,13,1,0.004,0.02,0.4,0.022,17
2011,1,13,2,0.004,0.016,0.4,0.026,19
2011,1,13,3,0.003,0.025,0.5,0.014,25
2011,1,13,4,0.003,0.03,0.6,0.007,23
2011,1,13,5,0.003,0.035,0.8,0.004,25
2011,1,13,6,0.003,0.033,0.7,0.005,28
2011,1,13,7,0.004,0.039,0.8,0.004,32
2011,1,13,8,0.005,0.046,1,0.003,41
2011,1,13,9,0.004,0.039,0.9,0.005,42
2011,1,13,10,0.005,0.037,0.8,0.009,41
2011,1,13,11,0.007,0.04,0.8,0.012,57
2011,1,13,12,0.008,0.035,0.8,0.017,41
2011,1,13,13,0.008,0.039,0.9,0.016,45
2011,1,13,14,0.008,0.037,0.7,0.018,43
2011,1,13,15,0.007,0.036,0.7,0.018,38
2011,1,13,16,0.007,0.037,0.7,0.016,43
2011,1,13,17,0.007,0.034,0.6,0.017,48
2011,1,13,18,0.007,0.042,0.8,0.007,49
2011,1,13,19,0.007,0.049,1,0.003,55
2011,1,13,20,0.008,0.054,1.1,0.003,50
2011,1,13,21,0.009,0.059,1.1,0.003,85
2011,1,13,22,0.009,0.059,1.2,0.003,80
2011,1,13,23,0.008,0.063,1.4,0.003,72
2011,1,13,24,0.008,0.064,1.5,0.003,61
2011,1,14,1,0.007,0.059,1.3,0.003,59
2011,1,14,2,0.006,0.049,1,0.003,54
2011,1,14,3,0.006,0.047,1,0.003,45
2011,1,14,4,0.006,0.043,0.8,0.003,45
2011,1,14,5,0.006,0.035,0.7,0.005,39
2011,1,14,6,0.004,0.035,0.7,0.005,45
2011,1,14,7,0.004,0.038,0.7,0.003,38
2011,1,14,8,0.004,0.04,0.8,0.003,36
2011,1,14,9,0.005,0.043,0.9,0.003,38
2011,1,14,10,0.005,0.044,0.9,0.004,44
2011,1,14,11,0.006,0.045,0.9,0.006,41
2011,1,14,12,0.007,0.046,1,0.006,49
2011,1,14,13,0.008,0.048,1.1,0.007,47
2011,1,14,14,0.012,0.051,1.1,0.008,67
2011,1,14,15,0.009,0.034,0.6,0.023,80
2011,1,14,16,0.008,0.035,0.6,0.022,61
2011,1,14,17,0.008,0.035,0.6,0.023,69
2011,1,14,18,0.006,0.031,0.6,0.022,66
2011,1,14,19,0.006,0.021,0.6,0.029,68
2011,1,14,20,0.006,0.02,0.5,0.028,60
2011,1,14,21,0.005,0.019,0.5,0.028,55
2011,1,14,22,0.005,0.021,0.5,0.024,44
2011,1,14,23,0.005,0.016,0.5,0.029,44
2011,1,14,24,0.005,0.015,0.5,0.03,44
2011,1,15,1,0.005,0.016,0.6,0.028,49
2011,1,15,2,0.006,0.015,0.8,0.029,68
2011,1,15,3,0.007,0.015,0.8,0.028,77
2011,1,15,4,0.008,0.014,0.8,0.029,79
2011,1,15,5,0.007,0.013,0.7,0.028,70
2011,1,15,6,0.007,0.013,0.6,0.028,59
2011,1,15,7,0.005,0.02,0.5,0.024,46
2011,1,15,8,0.005,0.028,0.5,0.018,35
2011,1,15,9,0.005,0.029,0.5,0.016,39
2011,1,15,10,0.004,0.026,0.5,0.019,35
2011,1,15,11,0.004,0.027,0.4,0.02,39
2011,1,15,12,0.003,0.022,0.4,0.025,44
2011,1,15,13,0.003,0.014,0.4,0.031,49
2011,1,15,14,0.003,0.015,0.3,0.03,49
2011,1,15,15,0.003,0.017,0.3,0.029,50
2011,1,15,16,0.003,0.016,0.4,0.029,67
2011,1,15,17,0.003,0.017,0.4,0.027,59
2011,1,15,18,0.003,0.016,0.4,0.026,63
2011,1,15,19,0.003,0.012,0.4,0.026,45
2011,1,15,20,0.003,0.014,0.4,0.025,50
2011,1,15,21,0.003,0.015,0.4,0.024,54
2011,1,15,22,0.003,0.014,0.4,0.025,53
2011,1,15,23,0.003,0.014,0.4,0.024,47
2011,1,15,24,0.003,0.015,0.4,0.023,37
2011,1,16,1,0.003,0.011,0.4,0.027,37
2011,1,16,2,0.003,0.01,0.4,0.028,33
2011,1,16,3,0.004,0.009,0.4,0.029,34
2011,1,16,4,0.003,0.008,0.4,0.029,33
2011,1,16,5,0.004,0.01,0.5,0.027,30
2011,1,16,6,0.003,0.01,0.4,0.027,31
2011,1,16,7,0.003,0.012,0.5,0.024,28
2011,1,16,8,0.003,0.019,0.5,0.018,30
2011,1,16,9,0.003,0.02,0.5,0.018,28
2011,1,16,10,0.004,0.017,0.5,0.023,26
2011,1,16,11,0.004,0.019,0.5,0.023,40
2011,1,16,12,0.004,0.018,0.6,0.026,37
2011,1,16,13,0.004,0.016,0.6,0.028,34
2011,1,16,14,0.004,0.017,0.6,0.029,31
2011,1,16,15,0.004,0.016,0.5,0.03,37
2011,1,16,16,0.004,0.016,0.5,0.03,25
2011,1,16,17,0.004,0.02,0.6,0.027,33
2011,1,16,18,0.003,0.023,0.6,0.022,47
2011,1,16,19,0.003,0.02,0.6,0.023,45
2011,1,16,20,0.003,0.017,0.5,0.026,29
2011,1,16,21,0.003,0.017,0.6,0.024,38
2011,1,16,22,0.003,0.02,0.6,0.02,39
2011,1,16,23,0.003,0.032,0.7,0.008,37
2011,1,16,24,0.003,0.035,0.7,0.005,37
2011,1,17,1,0.003,0.03,0.7,0.009,38
2011,1,17,2,0.003,0.025,0.6,0.015,31
2011,1,17,3,0.003,0.032,0.8,0.01,31
2011,1,17,4,0.003,0.039,0.9,0.003,48
2011,1,17,5,0.003,0.037,0.8,0.003,47
2011,1,17,6,0.003,0.036,0.9,0.003,41
2011,1,17,7,0.004,0.04,1,0.003,43
2011,1,17,8,0.004,0.041,1,0.003,49
2011,1,17,9,0.005,0.044,1.2,0.004,53
2011,1,17,10,0.005,0.043,1.2,0.006,53
2011,1,17,11,0.006,0.053,1.5,0.007,58
2011,1,17,12,0.006,0.047,1.1,0.01,58
2011,1,17,13,0.005,0.03,0.6,0.022,41
2011,1,17,14,0.005,0.032,0.6,0.02,38
2011,1,17,15,0.005,0.031,0.6,0.02,31
2011,1,17,16,0.004,0.031,0.5,0.022,33
2011,1,17,17,0.005,0.037,0.6,0.017,46
2011,1,17,18,0.004,0.038,0.6,0.013,44
2011,1,17,19,0.004,0.036,0.6,0.011,25
2011,1,17,20,0.004,0.039,0.6,0.008,29
2011,1,17,21,0.004,0.043,0.7,0.004,30
2011,1,17,22,0.005,0.046,0.8,0.003,35
2011,1,17,23,0.005,0.044,0.7,0.003,32
2011,1,17,24,0.006,0.043,0.8,0.003,29
2011,1,18,1,0.005,0.048,1.1,0.003,36
2011,1,18,2,0.004,0.049,1.2,0.003,51
2011,1,18,3,0.004,0.044,1,0.003,38
2011,1,18,4,0.003,0.042,0.9,0.003,41
2011,1,18,5,0.003,0.041,1,0.003,35
2011,1,18,6,0.003,0.04,1,0.003,40
2011,1,18,7,0.004,0.045,1.2,0.003,41
2011,1,18,8,0.005,0.048,1.2,0.003,44
2011,1,18,9,0.005,0.049,1.2,0.004,50
2011,1,18,10,0.005,0.049,1.3,0.005,54
2011,1,18,11,0.007,0.05,1.2,0.007,52
2011,1,18,12,0.009,0.052,1.2,0.008,64
2011,1,18,13,0.007,0.044,0.9,0.014,63
2011,1,18,14,0.006,0.033,0.6,0.022,34
2011,1,18,15,0.004,0.028,0.5,0.026,28
2011,1,18,16,0.004,0.032,0.5,0.025,33
2011,1,18,17,0.005,0.035,0.5,0.02,48
2011,1,18,18,0.004,0.034,0.6,0.018,38
2011,1,18,19,0.005,0.037,0.7,0.012,27
2011,1,18,20,0.005,0.043,0.7,0.005,35
2011,1,18,21,0.006,0.047,0.9,0.003,46
2011,1,18,22,0.006,0.047,0.9,0.003,45
2011,1,18,23,0.007,0.046,0.8,0.006,37
2011,1,18,24,0.006,0.027,0.6,0.023,37
2011,1,19,1,0.005,0.026,0.6,0.021,36
2011,1,19,2,0.005,0.028,0.6,0.018,38
2011,1,19,3,0.005,0.023,0.6,0.022,39
2011,1,19,4,0.005,0.022,0.7,0.022,45
2011,1,19,5,0.004,0.031,0.7,0.012,47
2011,1,19,6,0.005,0.028,0.7,0.015,47
2011,1,19,7,0.005,0.036,0.8,0.008,44
2011,1,19,8,0.007,0.041,0.9,0.004,42
2011,1,19,9,0.007,0.053,1.4,0.004,59
2011,1,19,10,0.009,0.054,1.5,0.006,64
2011,1,19,11,0.009,0.055,1.4,0.007,80
2011,1,19,12,0.01,0.045,1,0.012,70
2011,1,19,13,0.007,0.035,0.8,0.019,47
2011,1,19,14,0.006,0.031,0.6,0.022,46
2011,1,19,15,0.004,0.027,0.5,0.026,34
2011,1,19,16,0.005,0.025,0.5,0.027,34
2011,1,19,17,0.006,0.031,0.6,0.021,42
2011,1,19,18,0.005,0.032,0.6,0.019,38
2011,1,19,19,0.005,0.036,0.6,0.014,32
2011,1,19,20,0.005,0.039,0.7,0.01,30
2011,1,19,21,0.005,0.042,0.7,0.007,38
2011,1,19,22,0.005,0.043,0.7,0.005,37
2011,1,19,23,0.006,0.042,0.7,0.006,38
2011,1,19,24,0.005,0.033,0.6,0.014,40
2011,1,20,1,0.004,0.022,0.6,0.024,39
2011,1,20,2,0.006,0.018,0.5,0.025,29
2011,1,20,3,0.005,0.02,0.6,0.021,35
2011,1,20,4,0.006,0.019,0.6,0.022,38
2011,1,20,5,0.007,0.014,0.5,0.027,30
2011,1,20,6,0.007,0.015,0.5,0.025,34
2011,1,20,7,0.007,0.026,0.6,0.014,41
2011,1,20,8,0.008,0.026,0.6,0.013,43
2011,1,20,9,0.008,0.029,0.7,0.012,58
2011,1,20,10,0.01,0.027,0.7,0.015,43
2011,1,20,11,0.008,0.026,0.6,0.02,46
2011,1,20,12,0.009,0.026,0.7,0.021,39
2011,1,20,13,0.008,0.028,0.7,0.02,52
2011,1,20,14,0.007,0.028,0.6,0.022,40
2011,1,20,15,0.006,0.028,0.6,0.023,46
2011,1,20,16,0.006,0.029,0.6,0.022,45
2011,1,20,17,0.006,0.033,0.6,0.019,49
2011,1,20,18,0.005,0.038,0.6,0.012,47
2011,1,20,19,0.005,0.038,0.7,0.011,47
2011,1,20,20,0.005,0.043,0.7,0.005,45
2011,1,20,21,0.005,0.038,0.7,0.009,44
2011,1,20,22,0.005,0.035,0.7,0.013,45
2011,1,20,23,0.005,0.04,0.7,0.007,45
2011,1,20,24,0.005,0.047,1,0.003,51
2011,1,21,1,0.005,0.047,1,0.003,63
2011,1,21,2,0.004,0.047,1.1,0.003,57
2011,1,21,3,0.004,0.043,1,0.004,55
2011,1,21,4,0.004,0.043,1.1,0.003,61
2011,1,21,5,0.004,0.041,1.1,0.003,62
2011,1,21,6,0.004,0.041,1,0.003,48
2011,1,21,7,0.004,0.041,0.9,0.003,60
2011,1,21,8,0.004,0.038,0.9,0.003,55
2011,1,21,9,0.006,0.051,1.3,0.004,59
2011,1,21,10,0.006,0.051,1.2,0.005,92
2011,1,21,11,0.007,0.046,1.1,0.009,79
2011,1,21,12,0.009,0.046,1.1,0.01,71
2011,1,21,13,0.008,0.036,0.9,0.016,50
2011,1,21,14,0.008,0.035,0.8,0.018,50
2011,1,21,15,0.007,0.033,0.7,0.02,44
2011,1,21,16,0.006,0.033,0.7,0.019,39
2011,1,21,17,0.006,0.031,0.6,0.021,41
2011,1,21,18,0.005,0.031,0.6,0.019,53
2011,1,21,19,0.004,0.031,0.6,0.016,37
2011,1,21,20,0.005,0.04,0.8,0.007,35
2011,1,21,21,0.005,0.04,0.7,0.005,39
2011,1,21,22,0.005,0.043,0.8,0.003,42
2011,1,21,23,0.005,0.041,0.7,0.005,37
2011,1,21,24,0.005,0.042,0.8,0.004,37
2011,1,22,1,0.005,0.043,0.9,0.005,34
2011,1,22,2,0.005,0.048,1.2,0.003,52
2011,1,22,3,0.005,0.049,1.3,0.003,54
2011,1,22,4,0.005,0.048,1.2,0.003,52
2011,1,22,5,0.006,0.047,1.2,0.003,50
2011,1,22,6,0.005,0.046,1.2,0.003,44
2011,1,22,7,0.004,0.044,0.9,0.003,44
2011,1,22,8,0.004,0.04,0.8,0.003,35
2011,1,22,9,0.004,0.041,0.9,0.004,35
2011,1,22,10,0.004,0.037,0.8,0.008,37
2011,1,22,11,0.006,0.04,0.9,0.009,37
2011,1,22,12,0.007,0.046,1.1,0.008,54
2011,1,22,13,0.007,0.046,1.1,0.01,60
2011,1,22,14,0.009,0.044,1,0.012,67
2011,1,22,15,0.009,0.032,0.7,0.024,54
2011,1,22,16,0.007,0.026,0.6,0.028,35
2011,1,22,17,0.006,0.028,0.6,0.026,32
2011,1,22,18,0.005,0.032,0.6,0.021,39
2011,1,22,19,0.004,0.031,0.6,0.02,26
2011,1,22,20,0.004,0.036,0.7,0.014,33
2011,1,22,21,0.004,0.039,0.7,0.011,29
2011,1,22,22,0.004,0.041,0.7,0.007,32
2011,1,22,23,0.005,0.042,0.7,0.005,32
2011,1,22,24,0.005,0.042,0.8,0.007,34
2011,1,23,1,0.005,0.049,1,0.003,37
2011,1,23,2,0.004,0.046,1,0.003,39
2011,1,23,3,0.003,0.045,1,0.003,42
2011,1,23,4,0.003,0.041,1,0.003,38
2011,1,23,5,0.003,0.039,0.9,0.003,38
2011,1,23,6,0.003,0.039,0.9,0.003,38
2011,1,23,7,0.004,0.042,1,0.003,35
2011,1,23,8,0.004,0.041,0.9,0.003,34
2011,1,23,9,0.005,0.04,0.9,0.004,38
2011,1,23,10,0.005,0.037,0.8,0.007,42
2011,1,23,11,0.006,0.035,0.8,0.011,39
2011,1,23,12,0.007,0.035,0.8,0.012,43
2011,1,23,13,0.006,0.033,0.7,0.014,42
2011,1,23,14,0.004,0.038,0.8,0.01,52
2011,1,23,15,0.004,0.042,0.9,0.006,39
2011,1,23,16,0.003,0.042,0.9,0.003,42
2011,1,23,17,0.003,0.041,0.9,0.005,43
2011,1,23,18,0.004,0.044,1,0.003,44
2011,1,23,19,0.004,0.046,1.2,0.003,46
2011,1,23,20,0.005,0.045,1.3,0.003,52
2011,1,23,21,0.008,0.037,1.2,0.009,84
2011,1,23,22,0.007,0.031,1.2,0.015,70
2011,1,23,23,0.006,0.024,1,0.02,89
2011,1,23,24,0.006,0.019,0.8,0.026,65
2011,1,24,1,0.007,0.018,0.8,0.025,62
2011,1,24,2,0.009,0.017,0.8,0.026,69
2011,1,24,3,0.009,0.015,0.7,0.027,65
2011,1,24,4,0.009,0.013,0.7,0.027,58
2011,1,24,5,0.009,0.014,0.7,0.024,53
2011,1,24,6,0.008,0.016,0.6,0.022,39
2011,1,24,7,0.008,0.024,0.6,0.015,43
2011,1,24,8,0.008,0.028,0.6,0.01,41
2011,1,24,9,0.009,0.029,0.7,0.01,46
2011,1,24,10,0.012,0.028,0.7,0.013,42
2011,1,24,11,0.013,0.023,0.6,0.02,46
2011,1,24,12,0.013,0.02,0.4,0.024,42
2011,1,24,13,0.012,0.023,0.5,0.026,48
2011,1,24,14,0.011,0.026,0.5,0.026,52
2011,1,24,15,0.01,0.026,0.4,0.028,45
2011,1,24,16,0.009,0.033,0.6,0.026,53
2011,1,24,17,0.008,0.039,0.6,0.02,70
2011,1,24,18,0.006,0.036,0.5,0.02,69
2011,1,24,19,0.005,0.034,0.6,0.02,47
2011,1,24,20,0.005,0.029,0.6,0.025,44
2011,1,24,21,0.006,0.025,0.5,0.029,52
2011,1,24,22,0.005,0.022,0.5,0.03,55
2011,1,24,23,0.005,0.044,0.7,0.009,51
2011,1,24,24,0.005,0.05,0.8,0.003,62
2011,1,25,1,0.005,0.049,0.8,0.003,58
2011,1,25,2,0.005,0.049,1,0.003,59
2011,1,25,3,0.004,0.047,1,0.003,64
2011,1,25,4,0.004,0.044,1,0.003,73
2011,1,25,5,0.004,0.043,1,0.003,68
2011,1,25,6,0.004,0.043,1,0.003,65
2011,1,25,7,0.004,0.046,1,0.003,67
2011,1,25,8,0.005,0.048,1.1,0.003,71
2011,1,25,9,0.005,0.053,1.2,0.004,70
2011,1,25,10,0.006,0.052,1.3,0.006,81
2011,1,25,11,0.007,0.047,1.1,0.01,74
2011,1,25,12,(A),(A),(A),(A),70
2011,1,25,13,(A),(A),(A),(A),70
2011,1,25,14,0.008,0.032,0.7,0.016,49
2011,1,25,15,0.007,0.029,0.6,0.022,42
2011,1,25,16,0.007,0.031,0.6,0.023,39
2011,1,25,17,0.006,0.036,0.6,0.02,45
2011,1,25,18,0.005,0.035,0.6,0.018,49
2011,1,25,19,0.004,0.03,0.6,0.02,31
2011,1,25,20,0.004,0.035,0.7,0.015,29
2011,1,25,21,0.004,0.042,0.7,0.009,41
2011,1,25,22,0.004,0.039,0.7,0.011,43
2011,1,25,23,0.004,0.036,0.7,0.013,41
2011,1,25,24,0.004,0.038,0.8,0.012,41
2011,1,26,1,0.004,0.05,1,0.003,50
2011,1,26,2,0.005,0.05,1.1,0.003,51
2011,1,26,3,0.004,0.046,1,0.003,43
2011,1,26,4,0.004,0.044,1,0.005,42
2011,1,26,5,0.004,0.046,1.1,0.003,50
2011,1,26,6,0.004,0.044,1,0.003,48
2011,1,26,7,0.004,0.047,1.1,0.003,44
2011,1,26,8,0.006,0.055,1.3,0.003,48
2011,1,26,9,0.007,0.062,1.6,0.004,60
2011,1,26,10,0.007,0.052,1.2,0.007,61
2011,1,26,11,0.009,0.029,0.6,0.02,45
2011,1,26,12,0.009,0.027,0.5,0.022,50
2011,1,26,13,0.008,0.025,0.6,0.026,46
2011,1,26,14,0.008,0.028,0.4,0.025,41
2011,1,26,15,0.008,0.028,0.5,0.026,40
2011,1,26,16,0.008,0.031,0.7,0.024,33
2011,1,26,17,0.007,0.032,0.7,0.024,45
2011,1,26,18,0.006,0.035,0.7,0.019,47
2011,1,26,19,0.005,0.035,0.7,0.017,43
2011,1,26,20,0.005,0.034,0.7,0.018,37
2011,1,26,21,0.005,0.026,0.6,0.022,40
2011,1,26,22,0.005,0.024,0.6,0.021,35
2011,1,26,23,0.005,0.03,0.7,0.014,34
2011,1,26,24,0.005,0.033,0.7,0.009,32
2011,1,27,1,0.005,0.031,0.7,0.009,38
2011,1,27,2,0.006,0.031,0.6,0.009,35
2011,1,27,3,0.006,0.03,0.6,0.011,37
2011,1,27,4,0.006,0.023,0.6,0.018,40
2011,1,27,5,0.007,0.021,0.6,0.02,34
2011,1,27,6,0.007,0.022,0.6,0.019,37
2011,1,27,7,0.007,0.031,0.6,0.011,35
2011,1,27,8,0.007,0.036,0.7,0.008,34
2011,1,27,9,0.008,0.051,1.2,0.005,49
2011,1,27,10,0.008,0.044,1,0.007,59
2011,1,27,11,0.01,0.041,1,0.01,57
2011,1,27,12,0.01,0.035,0.7,0.017,46
2011,1,27,13,0.009,0.028,0.6,0.025,42
2011,1,27,14,0.008,0.028,0.6,0.026,34
2011,1,27,15,0.007,0.027,0.5,0.028,45
2011,1,27,16,0.007,0.03,0.5,0.026,35
2011,1,27,17,0.006,0.033,0.5,0.023,49
2011,1,27,18,0.005,0.029,0.5,0.024,34
2011,1,27,19,0.005,0.028,0.5,0.022,33
2011,1,27,20,0.005,0.03,0.5,0.019,36
2011,1,27,21,0.004,0.032,0.5,0.015,34
2011,1,27,22,0.004,0.029,0.5,0.018,38
2011,1,27,23,0.005,0.04,0.6,0.006,42
2011,1,27,24,0.005,0.032,0.5,0.011,45
2011,1,28,1,0.005,0.035,0.6,0.008,43
2011,1,28,2,0.005,0.026,0.5,0.017,48
2011,1,28,3,0.006,0.016,0.5,0.026,41
2011,1,28,4,0.006,0.018,0.5,0.023,47
2011,1,28,5,0.007,0.014,0.5,0.027,45
2011,1,28,6,0.007,0.024,0.6,0.015,41
2011,1,28,7,0.007,0.029,0.6,0.013,43
2011,1,28,8,0.007,0.033,0.6,0.009,41
2011,1,28,9,0.007,0.029,0.6,0.015,37
2011,1,28,10,0.009,0.034,0.7,0.012,47
2011,1,28,11,0.008,0.029,0.6,0.019,42
2011,1,28,12,0.008,0.029,0.6,0.021,38
2011,1,28,13,0.009,0.036,0.8,0.018,43
2011,1,28,14,0.008,0.037,0.8,0.017,33
2011,1,28,15,0.008,0.039,0.9,0.016,50
2011,1,28,16,0.007,0.041,0.8,0.016,55
2011,1,28,17,0.006,0.042,0.8,0.015,48
2011,1,28,18,0.005,0.041,0.8,0.014,38
2011,1,28,19,0.005,0.029,0.7,0.023,51
2011,1,28,20,0.005,0.024,0.6,0.025,34
2011,1,28,21,0.004,0.026,0.7,0.021,40
2011,1,28,22,0.004,0.03,0.7,0.016,45
2011,1,28,23,0.003,0.029,0.6,0.016,34
2011,1,28,24,0.003,0.021,0.6,0.023,34
2011,1,29,1,0.004,0.019,0.6,0.026,23
2011,1,29,2,0.005,0.021,0.5,0.023,25
2011,1,29,3,0.004,0.02,0.5,0.024,31
2011,1,29,4,0.004,0.027,0.6,0.015,26
2011,1,29,5,0.004,0.035,0.7,0.005,31
2011,1,29,6,0.004,0.039,0.8,0.003,38
2011,1,29,7,0.004,0.042,0.9,0.003,38
2011,1,29,8,0.005,0.046,1,0.003,40
2011,1,29,9,0.007,0.035,0.7,0.012,40
2011,1,29,10,0.008,0.028,0.6,0.021,43
2011,1,29,11,0.007,0.022,0.5,0.028,39
2011,1,29,12,0.006,0.023,0.5,0.028,28
2011,1,29,13,0.006,0.018,0.5,0.033,29
2011,1,29,14,0.006,0.018,0.4,0.034,33
2011,1,29,15,0.006,0.022,0.4,0.032,45
2011,1,29,16,0.006,0.021,0.4,0.033,48
2011,1,29,17,0.007,0.023,0.4,0.031,42
2011,1,29,18,0.005,0.025,0.5,0.028,45
2011,1,29,19,0.005,0.024,0.5,0.026,40
2011,1,29,20,0.005,0.02,0.4,0.029,40
2011,1,29,21,0.004,0.021,0.5,0.026,23
2011,1,29,22,0.004,0.017,0.5,0.029,35
2011,1,29,23,0.004,0.018,0.6,0.026,32
2011,1,29,24,0.005,0.021,0.6,0.023,38
2011,1,30,1,0.005,0.017,0.5,0.026,37
2011,1,30,2,0.005,0.017,0.6,0.026,38
2011,1,30,3,0.004,0.016,0.6,0.026,36
2011,1,30,4,0.004,0.014,0.5,0.028,38
2011,1,30,5,0.005,0.014,0.5,0.027,35
2011,1,30,6,0.005,0.013,0.5,0.028,34
2011,1,30,7,0.005,0.015,0.5,0.026,33
2011,1,30,8,0.004,0.018,0.4,0.023,30
2011,1,30,9,0.005,0.02,0.5,0.022,37
2011,1,30,10,0.006,0.02,0.5,0.025,39
2011,1,30,11,0.005,0.019,0.4,0.028,43
2011,1,30,12,0.005,0.017,0.4,0.031,44
2011,1,30,13,0.005,0.012,0.4,0.036,44
2011,1,30,14,0.004,0.014,0.4,0.036,48
2011,1,30,15,0.004,0.014,0.4,0.037,40
2011,1,30,16,0.004,0.017,0.4,0.036,36
2011,1,30,17,0.004,0.017,0.4,0.036,42
2011,1,30,18,0.004,0.024,0.5,0.029,45
2011,1,30,19,0.004,0.024,0.5,0.027,46
2011,1,30,20,0.004,0.02,0.5,0.028,33
2011,1,30,21,0.003,0.022,0.5,0.024,26
2011,1,30,22,0.003,0.017,0.4,0.029,30
2011,1,30,23,0.003,0.015,0.4,0.03,25
2011,1,30,24,0.003,0.017,0.4,0.028,25
2011,1,31,1,0.004,0.024,0.5,0.02,26
2011,1,31,2,0.004,0.021,0.5,0.023,33
2011,1,31,3,0.005,0.019,0.5,0.026,32
2011,1,31,4,0.005,0.024,0.6,0.019,33
2011,1,31,5,0.004,0.03,0.6,0.013,33
2011,1,31,6,0.004,0.037,0.8,0.004,31
2011,1,31,7,0.005,0.043,1,0.003,37
2011,1,31,8,0.005,0.046,1,0.003,39
2011,1,31,9,0.005,0.049,1.1,0.004,42
2011,1,31,10,0.007,0.047,1,0.008,55
2011,1,31,11,0.008,0.045,1.1,0.01,45
2011,1,31,12,0.01,0.052,1.4,0.009,57
2011,1,31,13,0.01,0.05,1,0.012,57
2011,1,31,14,0.01,0.046,0.9,0.016,44
2011,1,31,15,0.01,0.055,1,0.01,63
2011,1,31,16,0.006,0.047,0.8,0.01,48
2011,1,31,17,0.005,0.044,0.8,0.009,36
2011,1,31,18,0.004,0.046,1,0.005,28
2011,1,31,19,0.005,0.049,1,0.003,38
2011,1,31,20,0.005,0.055,1.2,0.003,38
2011,1,31,21,0.006,0.06,1.5,0.003,46
2011,1,31,22,0.006,0.059,1.4,0.003,65
2011,1,31,23,0.007,0.062,1.6,0.003,56
2011,1,31,24,0.007,0.06,1.5,0.003,54
