<?xml version="1.0"?>
<svg xmlns="http://www.w3.org/2000/svg" width="1000" height="1000" viewBox="-500 -500 1000 1000">
    <path d="M183.89,-0.50L216.11,-0.50L216.11,0.50L183.89,0.50Z"/>
    <path d="M184.99,0.64L215.01,0.82L215.00,1.82L184.99,1.64Z"/>
    <path d="M186.86,1.80L213.12,2.12L213.11,3.12L186.85,2.80Z"/>
    <path d="M190.14,3.00L209.81,3.37L209.79,4.37L190.12,4.00Z"/>
    <path d="M193.49,4.25L206.42,4.57L206.39,5.57L193.46,5.25Z"/>
    <path d="M198.00,5.58L201.85,5.70L201.81,6.70L197.97,6.58Z"/>
    <path d="M202.16,6.95L197.60,6.78L197.56,7.78L202.13,7.95Z"/>
    <path d="M206.48,8.38L193.19,7.81L193.15,8.81L206.44,9.38Z"/>
    <path d="M210.53,9.85L189.04,8.80L188.99,9.79L210.48,10.85Z"/>
    <path d="M213.94,11.34L185.50,9.76L185.45,10.76L213.89,12.34Z"/>
    <path d="M216.85,12.83L182.45,10.72L182.39,11.72L216.79,13.83Z"/>
    <path d="M219.13,14.33L180.02,11.68L179.95,12.68L219.07,15.32Z"/>
    <path d="M220.21,15.76L178.78,12.70L178.70,13.70L220.14,16.76Z"/>
    <path d="M220.63,17.15L178.17,13.76L178.09,14.75L220.55,18.15Z"/>
    <path d="M220.03,18.46L178.58,14.89L178.49,15.89L219.94,19.46Z"/>
    <path d="M218.25,19.66L180.15,16.14L180.06,17.14L218.15,20.66Z"/>
    <path d="M216.06,20.80L182.11,17.45L182.01,18.45L215.96,21.79Z"/>
    <path d="M212.63,21.78L185.30,18.92L185.19,19.91L212.52,22.77Z"/>
    <path d="M208.87,22.68L188.79,20.45L188.68,21.45L208.76,23.68Z"/>
    <path d="M204.57,23.48L192.82,22.10L192.71,23.09L204.46,24.47Z"/>
    <path d="M200.11,24.20L196.99,23.82L196.87,24.81L199.99,25.19Z"/>
    <path d="M195.65,24.87L201.16,25.59L201.03,26.58L195.52,25.86Z"/>
    <path d="M191.42,25.52L205.06,27.37L204.93,28.36L191.29,26.51Z"/>
    <path d="M187.77,26.20L208.39,29.13L208.24,30.12L187.63,27.19Z"/>
    <path d="M184.56,26.90L211.25,30.86L211.10,31.85L184.41,27.89Z"/>
    <path d="M182.61,27.76L212.84,32.43L212.68,33.42L182.46,28.74Z"/>
    <path d="M181.15,28.67L213.92,33.95L213.77,34.94L180.99,29.66Z"/>
    <path d="M180.90,29.77L213.78,35.27L213.61,36.26L180.74,30.76Z"/>
    <path d="M181.30,30.98L212.97,36.48L212.80,37.47L181.13,31.97Z"/>
    <path d="M182.80,32.40L211.05,37.49L210.87,38.47L182.62,33.38Z"/>
    <path d="M185.60,34.08L207.81,38.22L207.63,39.20L185.42,35.07Z"/>
    <path d="M188.67,35.85L204.30,38.87L204.11,39.85L188.48,36.84Z"/>
    <path d="M192.34,37.79L200.16,39.34L199.96,40.32L192.14,38.77Z"/>
    <path d="M196.14,39.80L195.87,39.74L195.67,40.72L195.94,40.78Z"/>
    <path d="M200.28,41.93L191.24,40.02L191.03,40.99L200.07,42.91Z"/>
    <path d="M204.17,44.07L186.84,40.28L186.63,41.26L203.95,45.04Z"/>
    <path d="M207.76,46.19L182.72,40.56L182.50,41.54L207.54,47.17Z"/>
    <path d="M211.13,48.31L178.81,40.84L178.59,41.81L210.90,49.28Z"/>
    <path d="M213.40,50.22L175.99,41.32L175.76,42.30L213.17,51.19Z"/>
    <path d="M214.72,51.93L174.09,42.00L173.86,42.97L214.49,52.90Z"/>
    <path d="M215.05,53.41L173.18,42.91L172.94,43.88L214.81,54.38Z"/>
    <path d="M214.55,54.68L173.08,44.01L172.84,44.98L214.30,55.65Z"/>
    <path d="M212.96,55.67L174.06,45.41L173.81,46.37L212.70,56.64Z"/>
    <path d="M210.56,56.42L175.83,47.03L175.57,48.00L210.30,57.39Z"/>
    <path d="M206.87,56.79L178.88,49.04L178.61,50.00L206.60,57.75Z"/>
    <path d="M203.27,57.14L181.82,51.05L181.55,52.02L203.00,58.10Z"/>
    <path d="M198.76,57.18L185.66,53.38L185.38,54.34L198.48,58.14Z"/>
    <path d="M194.57,57.26L189.16,55.65L188.87,56.61L194.29,58.22Z"/>
    <path d="M189.93,57.15L193.10,58.11L192.81,59.07L189.64,58.11Z"/>
    <path d="M185.51,57.05L196.81,60.56L196.52,61.52L185.21,58.01Z"/>
    <path d="M181.93,57.17L199.66,62.79L199.36,63.75L181.63,58.12Z"/>
    <path d="M178.50,57.29L202.34,65.01L202.04,65.97L178.19,58.24Z"/>
    <path d="M176.15,57.73L203.93,66.91L203.62,67.86L175.84,58.68Z"/>
    <path d="M174.31,58.31L205.00,68.67L204.68,69.61L173.99,59.25Z"/>
    <path d="M173.43,59.20L205.10,70.10L204.77,71.05L173.10,60.14Z"/>
    <path d="M173.30,60.35L204.42,71.28L204.09,72.22L172.97,61.29Z"/>
    <path d="M174.57,62.00L202.34,71.94L202.00,72.88L174.24,62.94Z"/>
    <path d="M176.21,63.81L199.87,72.45L199.53,73.39L175.86,64.75Z"/>
    <path d="M179.02,66.08L196.22,72.48L195.87,73.42L178.67,67.02Z"/>
    <path d="M182.13,68.51L192.25,72.35L191.89,73.28L181.77,69.45Z"/>
    <path d="M185.61,71.14L187.89,72.02L187.53,72.95L185.25,72.07Z"/>
    <path d="M189.32,73.91L183.30,71.54L182.93,72.47L188.96,74.84Z"/>
    <path d="M192.99,76.72L178.73,71.01L178.36,71.94L192.62,77.65Z"/>
    <path d="M196.03,79.34L174.77,70.68L174.40,71.60L195.65,80.26Z"/>
    <path d="M198.82,81.90L171.05,70.39L170.67,71.31L198.44,82.83Z"/>
    <path d="M200.93,84.23L168.00,70.33L167.61,71.25L200.55,85.15Z"/>
    <path d="M202.12,86.19L165.86,70.63L165.47,71.55L201.72,87.11Z"/>
    <path d="M202.73,87.93L164.28,71.15L163.88,72.07L202.33,88.85Z"/>
    <path d="M202.17,89.17L163.86,72.17L163.45,73.08L201.76,90.08Z"/>
    <path d="M201.08,90.16L163.95,73.41L163.54,74.32L200.67,91.08Z"/>
    <path d="M198.63,90.53L165.38,75.28L164.96,76.19L198.22,91.44Z"/>
    <path d="M195.86,90.72L167.13,77.33L166.71,78.24L195.44,91.62Z"/>
    <path d="M192.39,90.54L169.56,79.73L169.13,80.64L191.96,91.45Z"/>
    <path d="M188.40,90.07L172.49,82.42L172.06,83.32L187.97,90.98Z"/>
    <path d="M184.18,89.44L175.65,85.27L175.21,86.17L183.74,90.34Z"/>
    <path d="M180.07,88.80L178.68,88.11L178.23,89.01L179.63,89.70Z"/>
    <path d="M175.88,88.07L181.78,91.05L181.33,91.94L175.43,88.96Z"/>
    <path d="M171.82,87.35L184.73,93.96L184.27,94.85L171.37,88.24Z"/>
    <path d="M168.40,86.91L187.04,96.59L186.57,97.48L167.93,87.79Z"/>
    <path d="M165.57,86.73L188.73,98.94L188.26,99.83L165.10,87.61Z"/>
    <path d="M163.41,86.88L189.74,100.97L189.27,101.85L162.94,87.76Z"/>
    <path d="M162.04,87.43L189.95,102.58L189.47,103.46L161.56,88.31Z"/>
    <path d="M161.36,88.34L189.45,103.83L188.97,104.70L160.88,89.22Z"/>
    <path d="M161.85,89.91L187.78,104.41L187.29,105.28L161.36,90.79Z"/>
    <path d="M163.04,91.90L185.39,104.57L184.89,105.44L162.55,92.77Z"/>
    <path d="M165.23,94.48L181.99,104.12L181.49,104.99L164.73,95.35Z"/>
    <path d="M167.52,97.17L178.47,103.56L177.96,104.42L167.02,98.04Z"/>
    <path d="M170.47,100.30L174.28,102.55L173.77,103.42L169.96,101.16Z"/>
    <path d="M173.49,103.53L170.01,101.44L169.50,102.30L172.97,104.38Z"/>
    <path d="M176.68,106.92L165.55,100.15L165.03,101.00L176.16,107.77Z"/>
    <path d="M179.64,110.24L161.31,98.93L160.79,99.78L179.12,111.09Z"/>
    <path d="M181.89,113.17L157.77,98.08L157.24,98.93L181.36,114.02Z"/>
    <path d="M184.12,116.14L154.24,97.20L153.71,98.04L183.58,116.99Z"/>
    <path d="M184.77,118.15L152.27,97.26L151.73,98.11L184.23,118.99Z"/>
    <path d="M185.50,120.23L150.21,97.25L149.67,98.09L184.95,121.07Z"/>
    <path d="M184.68,121.32L149.69,98.22L149.14,99.06L184.13,122.15Z"/>
    <path d="M183.52,122.18L149.49,99.41L148.94,100.24L182.97,123.01Z"/>
    <path d="M181.73,122.60L149.92,101.03L149.36,101.86L181.17,123.42Z"/>
    <path d="M178.64,122.11L151.63,103.55L151.06,104.38L178.07,122.93Z"/>
    <path d="M175.38,121.46L153.50,106.23L152.93,107.05L174.81,122.28Z"/>
    <path d="M171.28,120.17L156.20,109.53L155.62,110.35L170.70,120.99Z"/>
    <path d="M167.27,118.89L158.78,112.82L158.20,113.63L166.69,119.70Z"/>
    <path d="M163.43,117.66L161.19,116.04L160.61,116.85L162.84,118.47Z"/>
    <path d="M159.29,116.16L163.90,119.54L163.31,120.35L158.69,116.96Z"/>
    <path d="M155.72,115.02L166.01,122.66L165.41,123.46L155.13,115.82Z"/>
    <path d="M151.90,113.63L168.36,126.01L167.76,126.81L151.30,114.43Z"/>
    <path d="M149.24,113.07L169.55,128.54L168.94,129.34L148.63,113.86Z"/>
    <path d="M147.01,112.80L170.28,130.76L169.67,131.55L146.40,113.60Z"/>
    <path d="M145.47,113.04L170.33,132.47L169.71,133.26L144.85,113.83Z"/>
    <path d="M144.74,113.91L169.54,133.53L168.92,134.32L144.12,114.69Z"/>
    <path d="M144.68,115.31L168.08,134.06L167.45,134.84L144.05,116.09Z"/>
    <path d="M145.33,117.30L165.88,133.98L165.25,134.76L144.70,118.08Z"/>
    <path d="M146.71,119.92L162.96,133.27L162.33,134.05L146.07,120.69Z"/>
    <path d="M148.45,122.88L159.66,132.21L159.02,132.98L147.81,123.65Z"/>
    <path d="M150.73,126.35L155.81,130.63L155.17,131.40L150.08,127.11Z"/>
    <path d="M153.30,130.13L151.65,128.72L151.00,129.48L152.65,130.89Z"/>
    <path d="M155.58,133.73L147.78,126.99L147.12,127.75L154.92,134.49Z"/>
    <path d="M158.20,137.70L143.55,124.88L142.89,125.64L157.54,138.45Z"/>
    <path d="M160.19,141.18L139.94,123.25L139.28,124.00L159.53,141.93Z"/>
    <path d="M161.55,144.17L136.95,122.10L136.28,122.85L160.89,144.91Z"/>
    <path d="M162.37,146.70L134.49,121.40L133.82,122.14L161.70,147.44Z"/>
    <path d="M162.65,148.78L132.56,121.13L131.88,121.87L161.97,149.52Z"/>
    <path d="M162.02,150.05L131.52,121.67L130.84,122.41L161.34,150.78Z"/>
    <path d="M160.95,150.90L130.92,122.62L130.24,123.35L160.26,151.63Z"/>
    <path d="M159.29,151.20L130.89,124.11L130.20,124.84L158.60,151.92Z"/>
    <path d="M157.14,150.99L131.35,126.10L130.66,126.82L156.44,151.71Z"/>
    <path d="M153.93,149.73L132.85,129.12L132.15,129.84L153.23,150.44Z"/>
    <path d="M150.37,148.06L134.69,132.54L133.98,133.26L149.67,148.77Z"/>
    <path d="M146.66,146.18L136.67,136.18L135.97,136.88L145.95,146.88Z"/>
    <path d="M142.87,144.14L138.73,139.94L138.01,140.65L142.16,144.85Z"/>
    <path d="M138.98,141.94L140.86,143.87L140.15,144.57L138.26,142.64Z"/>
    <path d="M135.39,139.96L142.70,147.56L141.98,148.26L134.67,140.66Z"/>
    <path d="M131.89,138.02L144.42,151.21L143.70,151.90L131.16,138.71Z"/>
    <path d="M129.16,136.82L145.37,154.10L144.64,154.78L128.43,137.51Z"/>
    <path d="M126.90,136.09L145.83,156.51L145.10,157.19L126.17,136.77Z"/>
    <path d="M125.21,135.94L145.72,158.33L144.99,159.01L124.47,136.62Z"/>
    <path d="M124.15,136.45L144.98,159.47L144.23,160.15L123.41,137.13Z"/>
    <path d="M123.46,137.38L143.84,160.19L143.10,160.86L122.71,138.05Z"/>
    <path d="M123.67,139.33L141.80,159.88L141.05,160.54L122.92,140.00Z"/>
    <path d="M124.32,141.82L139.31,159.01L138.55,159.67L123.57,142.48Z"/>
    <path d="M125.69,145.19L136.08,157.26L135.32,157.91L124.93,145.85Z"/>
    <path d="M127.06,148.62L132.85,155.43L132.09,156.08L126.30,149.27Z"/>
    <path d="M128.87,152.65L129.16,152.99L128.40,153.64L128.11,153.29Z"/>
    <path d="M130.77,156.86L125.39,150.37L124.62,151.00L130.00,157.49Z"/>
    <path d="M132.39,160.81L121.88,147.98L121.10,148.61L131.61,161.44Z"/>
    <path d="M133.90,164.72L118.46,145.63L117.68,146.26L133.13,165.35Z"/>
    <path d="M135.06,168.25L115.40,143.64L114.61,144.26L134.27,168.87Z"/>
    <path d="M135.82,171.36L112.71,142.07L111.93,142.68L135.03,171.98Z"/>
    <path d="M136.02,173.80L110.58,141.14L109.79,141.75L135.23,174.42Z"/>
    <path d="M135.35,175.15L109.32,141.30L108.52,141.91L134.55,175.76Z"/>
    <path d="M134.33,176.06L108.38,141.89L107.59,142.49L133.54,176.66Z"/>
    <path d="M132.72,176.17L108.04,143.26L107.24,143.86L131.92,176.77Z"/>
    <path d="M130.32,175.21L108.47,145.69L107.67,146.29L129.52,175.81Z"/>
    <path d="M127.56,173.70L109.26,148.66L108.45,149.25L126.75,174.29Z"/>
    <path d="M124.26,171.40L110.57,152.42L109.76,153.00L123.45,171.98Z"/>
    <path d="M120.88,168.88L111.96,156.37L111.15,156.95L120.06,169.46Z"/>
    <path d="M117.37,166.12L113.46,160.56L112.65,161.13L116.55,166.69Z"/>
    <path d="M114.01,163.47L114.81,164.62L113.99,165.19L113.19,164.04Z"/>
    <path d="M110.67,160.76L116.13,168.73L115.31,169.29L109.85,161.32Z"/>
    <path d="M107.60,158.34L117.18,172.53L116.35,173.09L106.77,158.90Z"/>
    <path d="M104.80,156.27L117.94,175.98L117.11,176.53L103.97,156.82Z"/>
    <path d="M102.51,154.89L118.19,178.72L117.35,179.27L101.67,155.44Z"/>
    <path d="M100.85,154.43L117.79,180.53L116.95,181.07L100.01,154.97Z"/>
    <path d="M99.38,154.23L117.20,182.06L116.36,182.60L98.53,154.77Z"/>
    <path d="M98.59,155.10L115.92,182.52L115.07,183.05L97.75,155.63Z"/>
    <path d="M98.32,156.79L114.12,182.14L113.27,182.67L97.47,157.32Z"/>
    <path d="M98.63,159.46L111.72,180.76L110.87,181.29L97.78,159.99Z"/>
    <path d="M99.10,162.47L109.15,179.04L108.30,179.56L98.25,162.99Z"/>
    <path d="M99.99,166.23L106.16,176.55L105.30,177.07L99.13,166.75Z"/>
    <path d="M100.95,170.20L103.10,173.84L102.23,174.35L100.09,170.71Z"/>
    <path d="M102.32,174.98L99.61,170.31L98.74,170.82L101.46,175.48Z"/>
    <path d="M103.57,179.67L96.23,166.86L95.36,167.36L102.70,180.16Z"/>
    <path d="M104.41,183.74L93.26,164.00L92.39,164.49L103.54,184.24Z"/>
    <path d="M105.18,187.78L90.36,161.17L89.48,161.66L104.30,188.27Z"/>
    <path d="M105.23,190.62L88.16,159.53L87.28,160.01L104.35,191.10Z"/>
    <path d="M105.23,193.44L86.00,157.89L85.12,158.37L104.35,193.91Z"/>
    <path d="M104.63,195.18L84.44,157.31L83.56,157.78L103.75,195.65Z"/>
    <path d="M103.65,196.24L83.25,157.41L82.37,157.87L102.76,196.71Z"/>
    <path d="M102.11,196.23L82.62,158.56L81.73,159.02L101.22,196.69Z"/>
    <path d="M100.04,195.16L82.50,160.76L81.61,161.21L99.15,195.62Z"/>
    <path d="M97.73,193.56L82.62,163.47L81.73,163.92L96.84,194.01Z"/>
    <path d="M95.11,191.27L83.05,166.87L82.15,167.31L94.21,191.71Z"/>
    <path d="M92.19,188.28L83.76,170.95L82.86,171.38L91.30,188.72Z"/>
    <path d="M89.17,184.94L84.58,175.36L83.68,175.79L88.26,185.37Z"/>
    <path d="M86.12,181.44L85.40,179.92L84.50,180.34L85.22,181.87Z"/>
    <path d="M83.30,178.29L86.00,184.11L85.10,184.54L82.39,178.71Z"/>
    <path d="M80.61,175.30L86.47,188.14L85.56,188.55L79.70,175.71Z"/>
    <path d="M78.16,172.75L86.68,191.71L85.77,192.12L77.25,173.16Z"/>
    <path d="M75.85,170.41L86.75,195.06L85.83,195.46L74.94,170.81Z"/>
    <path d="M74.20,169.48L86.15,196.97L85.23,197.37L73.28,169.88Z"/>
    <path d="M72.65,168.74L85.45,198.70L84.53,199.09L71.73,169.13Z"/>
    <path d="M71.61,169.19L84.22,199.20L83.30,199.59L70.69,169.58Z"/>
    <path d="M70.91,170.44L82.66,198.91L81.74,199.29L69.98,170.82Z"/>
    <path d="M70.58,172.65L80.72,197.63L79.79,198.01L69.66,173.03Z"/>
    <path d="M70.75,176.16L78.27,195.04L77.34,195.41L69.82,176.53Z"/>
    <path d="M70.70,179.24L76.04,192.87L75.11,193.24L69.77,179.60Z"/>
    <path d="M71.14,183.68L73.31,189.33L72.38,189.69L70.21,184.03Z"/>
    <path d="M71.52,188.12L70.64,185.77L69.70,186.12L70.59,188.47Z"/>
    <path d="M71.99,192.93L67.87,181.82L66.93,182.17L71.05,193.28Z"/>
    <path d="M72.23,197.30L65.33,178.30L64.39,178.64L71.29,197.64Z"/>
    <path d="M72.17,200.99L63.07,175.45L62.13,175.79L71.23,201.33Z"/>
    <path d="M72.07,204.67L60.86,172.60L59.92,172.93L71.13,205.00Z"/>
    <path d="M71.60,207.42L59.01,170.66L58.06,170.98L70.66,207.74Z"/>
    <path d="M70.86,209.43L57.43,169.44L56.48,169.76L69.91,209.75Z"/>
    <path d="M69.80,210.55L56.16,169.11L55.21,169.42L68.85,210.86Z"/>
    <path d="M68.40,210.66L55.22,169.75L54.27,170.06L67.45,210.97Z"/>
    <path d="M66.64,209.59L54.65,171.58L53.69,171.88L65.68,209.89Z"/>
    <path d="M64.70,207.89L54.24,174.02L53.29,174.32L63.74,208.18Z"/>
    <path d="M62.49,205.21L54.10,177.42L53.14,177.71L61.54,205.50Z"/>
    <path d="M60.13,201.87L54.11,181.47L53.15,181.75L59.17,202.16Z"/>
    <path d="M57.80,198.44L54.09,185.59L53.13,185.87L56.84,198.72Z"/>
    <path d="M55.45,194.79L54.08,189.93L53.11,190.20L54.48,195.06Z"/>
    <path d="M53.09,190.93L54.06,194.45L53.10,194.72L52.13,191.20Z"/>
    <path d="M50.92,187.51L53.87,198.52L52.91,198.78L49.95,187.77Z"/>
    <path d="M48.86,184.38L53.56,202.28L52.59,202.54L47.89,184.64Z"/>
    <path d="M46.95,181.62L53.10,205.67L52.13,205.92L45.98,181.86Z"/>
    <path d="M45.32,179.87L52.34,208.02L51.37,208.27L44.35,180.11Z"/>
    <path d="M43.87,178.73L51.40,209.76L50.43,210.00L42.90,178.97Z"/>
    <path d="M42.77,178.97L50.12,210.10L49.15,210.33L41.80,179.20Z"/>
    <path d="M41.75,179.58L48.75,210.05L47.77,210.27L40.78,179.80Z"/>
    <path d="M41.03,181.56L47.07,208.61L46.09,208.83L40.06,181.78Z"/>
    <path d="M40.38,183.96L45.32,206.75L44.34,206.97L39.40,184.17Z"/>
    <path d="M39.97,187.61L43.33,203.62L42.36,203.82L38.99,187.82Z"/>
    <path d="M39.57,191.57L41.32,200.16L40.35,200.36L38.59,191.77Z"/>
    <path d="M39.23,196.06L39.26,196.17L38.27,196.36L38.25,196.25Z"/>
    <path d="M38.81,200.39L37.27,192.31L36.28,192.49L37.83,200.58Z"/>
    <path d="M38.37,204.88L35.30,188.28L34.32,188.46L37.38,205.07Z"/>
    <path d="M37.80,209.00L33.45,184.60L32.46,184.78L36.82,209.18Z"/>
    <path d="M37.08,212.50L31.75,181.54L30.77,181.71L36.09,212.67Z"/>
    <path d="M36.23,215.46L30.18,178.99L29.20,179.16L35.24,215.62Z"/>
    <path d="M35.17,217.32L28.82,177.53L27.83,177.68L34.18,217.48Z"/>
    <path d="M33.97,218.44L27.59,176.80L26.60,176.95L32.98,218.59Z"/>
    <path d="M32.58,218.31L26.55,177.29L25.56,177.44L31.59,218.46Z"/>
    <path d="M31.15,217.88L25.55,178.09L24.56,178.23L30.16,218.01Z"/>
    <path d="M29.49,215.72L24.77,180.59L23.78,180.72L28.50,215.85Z"/>
    <path d="M27.84,213.33L23.99,183.30L23.00,183.42L26.85,213.46Z"/>
    <path d="M26.07,209.77L23.32,187.17L22.33,187.29L25.08,209.89Z"/>
    <path d="M24.33,206.02L22.62,191.21L21.63,191.33L23.34,206.14Z"/>
    <path d="M22.58,201.74L21.93,195.78L20.94,195.88L21.59,201.85Z"/>
    <path d="M20.90,197.55L21.18,200.23L20.18,200.34L19.90,197.65Z"/>
    <path d="M19.27,193.44L20.36,204.59L19.36,204.69L18.28,193.54Z"/>
    <path d="M17.78,190.20L19.40,208.07L18.41,208.16L16.78,190.29Z"/>
    <path d="M16.34,187.11L18.40,211.38L17.40,211.46L15.34,187.20Z"/>
    <path d="M15.01,184.92L17.28,213.78L16.28,213.85L14.02,185.00Z"/>
    <path d="M13.76,183.36L16.08,215.53L15.08,215.60L12.76,183.43Z"/>
    <path d="M12.59,182.88L14.80,216.18L13.80,216.25L11.60,182.95Z"/>
    <path d="M11.50,183.44L13.44,215.78L12.44,215.84L10.50,183.50Z"/>
    <path d="M10.45,184.93L12.04,214.44L11.04,214.49L9.45,184.99Z"/>
    <path d="M9.43,187.41L10.60,212.09L9.60,212.13L8.43,187.46Z"/>
    <path d="M8.41,190.72L9.17,208.90L8.17,208.94L7.41,190.76Z"/>
    <path d="M7.37,194.58L7.75,205.14L6.75,205.17L6.38,194.61Z"/>
    <path d="M6.31,199.08L6.36,200.72L5.36,200.75L5.31,199.11Z"/>
    <path d="M5.18,203.27L5.03,196.60L4.03,196.63L4.18,203.29Z"/>
    <path d="M4.00,207.45L3.75,192.48L2.75,192.49L3.00,207.47Z"/>
    <path d="M2.77,211.43L2.53,188.54L1.53,188.55L1.77,211.44Z"/>
    <path d="M1.49,214.82L1.35,185.17L0.35,185.18L0.49,214.82Z"/>
    <path d="M0.17,217.88L0.22,182.12L-0.78,182.12L-0.83,217.88Z"/>
    <path d="M-1.19,219.80L-0.88,180.20L-1.88,180.19L-2.19,219.79Z"/>
    <path d="M-2.56,221.09L-1.97,178.89L-2.97,178.87L-3.56,221.08Z"/>
    <path d="M-3.91,221.00L-3.07,178.94L-4.07,178.92L-4.91,220.98Z"/>
    <path d="M-5.25,220.38L-4.19,179.51L-5.19,179.48L-6.25,220.35Z"/>
    <path d="M-6.54,218.21L-5.36,181.62L-6.36,181.59L-7.54,218.17Z"/>
    <path d="M-7.78,215.59L-6.57,184.15L-7.57,184.11L-8.78,215.55Z"/>
    <path d="M-8.95,212.07L-7.86,187.58L-8.86,187.53L-9.95,212.03Z"/>
    <path d="M-10.05,207.95L-9.22,191.59L-10.21,191.53L-11.04,207.90Z"/>
    <path d="M-11.09,203.79L-10.62,195.62L-11.62,195.56L-12.09,203.74Z"/>
    <path d="M-12.08,199.53L-12.09,199.74L-13.09,199.68L-13.07,199.47Z"/>
    <path d="M-13.02,195.42L-13.60,203.70L-14.59,203.63L-14.02,195.35Z"/>
    <path d="M-13.94,191.54L-15.13,207.40L-16.13,207.32L-14.93,191.47Z"/>
    <path d="M-14.85,188.16L-16.67,210.59L-17.67,210.51L-15.84,188.08Z"/>
    <path d="M-15.80,185.80L-18.17,212.76L-19.16,212.67L-16.80,185.71Z"/>
    <path d="M-16.80,184.21L-19.61,214.13L-20.61,214.04L-17.80,184.12Z"/>
    <path d="M-17.86,183.41L-21.00,214.70L-21.99,214.60L-18.86,183.31Z"/>
    <path d="M-19.01,183.52L-22.29,214.35L-23.29,214.24L-20.01,183.41Z"/>
    <path d="M-20.28,184.63L-23.47,212.97L-24.46,212.86L-21.27,184.52Z"/>
    <path d="M-21.67,186.63L-24.52,210.70L-25.52,210.58L-22.66,186.51Z"/>
    <path d="M-23.16,189.26L-25.47,207.77L-26.46,207.65L-24.15,189.14Z"/>
    <path d="M-24.82,192.96L-26.24,203.76L-27.23,203.63L-25.82,192.83Z"/>
    <path d="M-26.54,196.64L-26.97,199.77L-27.96,199.63L-27.53,196.50Z"/>
    <path d="M-28.37,200.83L-27.57,195.24L-28.56,195.10L-29.36,200.68Z"/>
    <path d="M-30.26,205.06L-28.10,190.66L-29.09,190.51L-31.25,204.91Z"/>
    <path d="M-32.11,208.63L-28.69,186.72L-29.67,186.57L-33.10,208.48Z"/>
    <path d="M-33.96,211.95L-29.26,183.02L-30.25,182.86L-34.95,211.79Z"/>
    <path d="M-35.77,214.70L-29.88,179.88L-30.87,179.72L-36.75,214.53Z"/>
    <path d="M-37.44,216.53L-30.63,177.64L-31.61,177.47L-38.43,216.36Z"/>
    <path d="M-38.98,217.46L-31.51,176.28L-32.49,176.10L-39.97,217.28Z"/>
    <path d="M-40.36,217.44L-32.55,175.86L-33.53,175.68L-41.34,217.26Z"/>
    <path d="M-41.51,216.23L-33.81,176.61L-34.79,176.42L-42.49,216.04Z"/>
    <path d="M-42.58,214.67L-35.16,177.71L-36.14,177.51L-43.56,214.47Z"/>
    <path d="M-43.34,211.71L-36.80,180.18L-37.78,179.97L-44.32,211.51Z"/>
    <path d="M-44.03,208.61L-38.52,182.78L-39.49,182.57L-45.01,208.40Z"/>
    <path d="M-44.48,204.57L-40.47,186.30L-41.44,186.09L-45.46,204.36Z"/>
    <path d="M-44.82,200.21L-42.53,190.13L-43.51,189.91L-45.79,199.99Z"/>
    <path d="M-45.10,195.88L-44.64,193.92L-45.62,193.70L-46.07,195.65Z"/>
    <path d="M-45.27,191.30L-46.86,197.94L-47.84,197.71L-46.25,191.07Z"/>
    <path d="M-45.60,187.59L-48.92,201.08L-49.89,200.84L-46.58,187.35Z"/>
    <path d="M-45.85,183.73L-51.06,204.35L-52.03,204.11L-46.82,183.49Z"/>
    <path d="M-46.42,181.28L-52.87,206.20L-53.84,205.95L-47.39,181.03Z"/>
    <path d="M-46.97,178.89L-54.70,207.98L-55.66,207.72L-47.94,178.63Z"/>
    <path d="M-47.90,177.97L-56.14,208.27L-57.11,208.00L-48.87,177.71Z"/>
    <path d="M-48.91,177.39L-57.50,208.20L-58.46,207.93L-49.88,177.12Z"/>
    <path d="M-50.35,178.30L-58.43,206.63L-59.39,206.35L-51.31,178.02Z"/>
    <path d="M-51.95,179.71L-59.20,204.54L-60.16,204.26L-52.91,179.43Z"/>
    <path d="M-53.92,182.31L-59.58,201.25L-60.54,200.97L-54.88,182.02Z"/>
    <path d="M-56.14,185.59L-59.71,197.27L-60.67,196.98L-57.10,185.30Z"/>
    <path d="M-58.39,188.80L-59.81,193.34L-60.76,193.04L-59.35,188.50Z"/>
    <path d="M-60.92,192.71L-59.63,188.69L-60.59,188.39L-61.87,192.41Z"/>
    <path d="M-63.40,196.35L-59.49,184.31L-60.44,184.00L-64.35,196.04Z"/>
    <path d="M-65.96,200.01L-59.27,179.88L-60.22,179.57L-66.91,199.70Z"/>
    <path d="M-68.33,202.97L-59.23,176.15L-60.17,175.82L-69.28,202.65Z"/>
    <path d="M-70.66,205.68L-59.22,172.64L-60.17,172.32L-71.60,205.36Z"/>
    <path d="M-72.66,207.34L-59.54,170.19L-60.49,169.85L-73.60,207.00Z"/>
    <path d="M-74.47,208.38L-60.05,168.33L-60.99,167.99L-75.41,208.04Z"/>
    <path d="M-75.83,208.13L-61.01,167.74L-61.94,167.39L-76.76,207.79Z"/>
    <path d="M-77.02,207.45L-62.12,167.58L-63.05,167.23L-77.96,207.10Z"/>
    <path d="M-77.65,205.29L-63.78,168.87L-64.72,168.51L-78.59,204.94Z"/>
    <path d="M-78.06,202.60L-65.68,170.68L-66.61,170.32L-78.99,202.24Z"/>
    <path d="M-78.08,199.02L-67.95,173.37L-68.88,173.00L-79.01,198.66Z"/>
    <path d="M-77.91,195.09L-70.39,176.40L-71.32,176.02L-78.84,194.72Z"/>
    <path d="M-77.64,191.03L-72.94,179.55L-73.87,179.17L-78.57,190.65Z"/>
    <path d="M-77.03,186.27L-75.83,183.37L-76.75,182.99L-77.96,185.88Z"/>
    <path d="M-76.44,181.70L-78.68,186.99L-79.60,186.60L-77.36,181.31Z"/>
    <path d="M-75.99,177.60L-81.39,190.13L-82.31,189.74L-76.91,177.21Z"/>
    <path d="M-75.72,174.02L-83.93,192.75L-84.84,192.34L-76.63,173.62Z"/>
    <path d="M-75.65,171.00L-86.24,194.77L-87.16,194.37L-76.56,170.60Z"/>
    <path d="M-75.88,168.71L-88.26,196.06L-89.17,195.65L-76.79,168.30Z"/>
    <path d="M-76.37,167.08L-90.00,196.68L-90.91,196.26L-77.28,166.66Z"/>
    <path d="M-77.33,166.47L-91.27,196.26L-92.18,195.84L-78.24,166.04Z"/>
    <path d="M-78.82,166.97L-92.01,194.72L-92.92,194.29L-79.72,166.54Z"/>
    <path d="M-80.57,168.00L-92.47,192.64L-93.37,192.20L-81.47,167.56Z"/>
    <path d="M-82.92,170.17L-92.34,189.39L-93.24,188.95L-83.81,169.73Z"/>
    <path d="M-85.27,172.29L-92.19,186.19L-93.09,185.74L-86.17,171.85Z"/>
    <path d="M-88.27,175.60L-91.40,181.78L-92.29,181.33L-89.16,175.15Z"/>
    <path d="M-91.31,178.88L-90.55,177.39L-91.43,176.94L-92.20,178.42Z"/>
    <path d="M-94.41,182.16L-89.63,172.98L-90.51,172.52L-95.30,181.70Z"/>
    <path d="M-97.62,185.54L-88.59,168.47L-89.48,168.00L-98.51,185.07Z"/>
    <path d="M-100.50,188.17L-87.89,164.69L-88.77,164.22L-101.38,187.70Z"/>
    <path d="M-103.22,190.43L-87.33,161.27L-88.21,160.79L-104.10,189.95Z"/>
    <path d="M-105.71,192.18L-86.99,158.34L-87.87,157.85L-106.59,191.70Z"/>
    <path d="M-107.61,192.82L-87.24,156.51L-88.12,156.03L-108.49,192.33Z"/>
    <path d="M-109.00,192.51L-88.00,155.62L-88.87,155.12L-109.87,192.02Z"/>
    <path d="M-109.98,191.50L-89.15,155.41L-90.02,154.91L-110.85,191.00Z"/>
    <path d="M-110.67,189.99L-90.59,155.69L-91.45,155.19L-111.53,189.48Z"/>
    <path d="M-110.66,187.33L-92.72,157.11L-93.58,156.60L-111.52,186.81Z"/>
    <path d="M-110.20,183.97L-95.29,159.21L-96.15,158.69L-111.06,183.46Z"/>
    <path d="M-109.49,180.27L-98.11,161.64L-98.96,161.12L-110.34,179.75Z"/>
    <path d="M-108.33,175.94L-101.36,164.69L-102.21,164.16L-109.18,175.41Z"/>
    <path d="M-107.25,171.84L-104.53,167.50L-105.37,166.97L-108.10,171.31Z"/>
    <path d="M-105.95,167.48L-107.91,170.55L-108.75,170.02L-106.80,166.94Z"/>
    <path d="M-104.81,163.46L-111.12,173.25L-111.96,172.71L-105.65,162.92Z"/>
    <path d="M-103.91,159.90L-114.09,175.48L-114.93,174.93L-104.74,159.35Z"/>
    <path d="M-103.22,156.74L-116.83,177.29L-117.66,176.74L-104.06,156.19Z"/>
    <path d="M-102.96,154.29L-119.14,178.38L-119.97,177.83L-103.79,153.73Z"/>
    <path d="M-103.26,152.70L-120.88,178.60L-121.70,178.04L-104.09,152.14Z"/>
    <path d="M-103.91,151.65L-122.26,178.28L-123.08,177.71L-104.73,151.08Z"/>
    <path d="M-105.35,151.73L-122.84,176.79L-123.66,176.22L-106.17,151.16Z"/>
    <path d="M-107.14,152.31L-123.06,174.81L-123.88,174.23L-107.96,151.73Z"/>
    <path d="M-109.56,153.72L-122.65,171.98L-123.46,171.40L-110.37,153.14Z"/>
    <path d="M-112.48,155.77L-121.73,168.50L-122.54,167.91L-113.29,155.18Z"/>
    <path d="M-115.81,158.30L-120.39,164.52L-121.19,163.93L-116.61,157.71Z"/>
    <path d="M-119.36,161.05L-118.81,160.32L-119.62,159.72L-120.16,160.45Z"/>
    <path d="M-123.06,163.91L-117.08,155.99L-117.88,155.39L-123.86,163.31Z"/>
    <path d="M-126.57,166.42L-115.53,151.99L-116.33,151.38L-127.36,165.82Z"/>
    <path d="M-130.04,168.82L-114.01,148.11L-114.80,147.49L-130.83,168.20Z"/>
    <path d="M-133.04,170.52L-112.95,144.89L-113.74,144.28L-133.83,169.91Z"/>
    <path d="M-135.87,171.95L-112.05,141.95L-112.84,141.33L-136.66,171.33Z"/>
    <path d="M-138.14,172.62L-111.71,139.75L-112.49,139.13L-138.92,171.99Z"/>
    <path d="M-139.51,172.16L-112.25,138.67L-113.02,138.04L-140.29,171.53Z"/>
    <path d="M-140.40,171.10L-113.26,138.18L-114.04,137.54L-141.17,170.46Z"/>
    <path d="M-140.65,169.27L-114.91,138.44L-115.68,137.80L-141.42,168.63Z"/>
    <path d="M-140.46,166.95L-116.99,139.19L-117.76,138.54L-141.22,166.30Z"/>
    <path d="M-139.40,163.66L-119.92,140.89L-120.68,140.24L-140.16,163.01Z"/>
    <path d="M-138.15,160.20L-123.03,142.75L-123.79,142.10L-138.91,159.55Z"/>
    <path d="M-136.34,156.17L-126.70,145.18L-127.45,144.52L-137.09,155.51Z"/>
    <path d="M-134.45,152.12L-130.44,147.60L-131.18,146.94L-135.20,151.46Z"/>
    <path d="M-132.60,148.20L-134.13,149.89L-134.87,149.23L-133.34,147.53Z"/>
    <path d="M-130.79,144.40L-137.76,152.05L-138.50,151.37L-131.53,143.73Z"/>
    <path d="M-129.42,141.14L-140.95,153.65L-141.68,152.97L-130.16,140.47Z"/>
    <path d="M-128.11,138.01L-144.06,155.11L-144.80,154.43L-128.84,137.33Z"/>
    <path d="M-127.29,135.46L-146.68,155.99L-147.41,155.30L-128.02,134.78Z"/>
    <path d="M-127.12,133.64L-148.63,156.12L-149.35,155.43L-127.85,132.95Z"/>
    <path d="M-127.65,132.55L-149.88,155.51L-150.60,154.81L-128.37,131.86Z"/>
    <path d="M-128.84,132.16L-150.45,154.20L-151.16,153.50L-129.56,131.46Z"/>
    <path d="M-130.79,132.51L-150.25,152.12L-150.96,151.41L-131.50,131.81Z"/>
    <path d="M-133.28,133.37L-149.51,149.53L-150.21,148.82L-133.99,132.66Z"/>
    <path d="M-136.19,134.61L-148.33,146.55L-149.03,145.84L-136.89,133.89Z"/>
    <path d="M-139.91,136.58L-146.33,142.82L-147.03,142.11L-140.60,135.86Z"/>
    <path d="M-143.75,138.61L-144.20,139.03L-144.89,138.31L-144.44,137.88Z"/>
    <path d="M-147.55,140.52L-142.10,135.35L-142.79,134.62L-148.24,139.79Z"/>
    <path d="M-151.74,142.72L-139.60,131.36L-140.28,130.63L-152.42,141.99Z"/>
    <path d="M-155.31,144.28L-137.71,128.01L-138.39,127.27L-155.99,143.55Z"/>
    <path d="M-158.91,145.81L-135.77,124.68L-136.45,123.94L-159.59,145.07Z"/>
    <path d="M-162.10,146.90L-134.24,121.76L-134.91,121.02L-162.77,146.16Z"/>
    <path d="M-164.26,147.03L-133.72,119.82L-134.39,119.07L-164.93,146.28Z"/>
    <path d="M-165.79,146.57L-133.83,118.44L-134.49,117.69L-166.45,145.82Z"/>
    <path d="M-166.45,145.34L-134.79,117.82L-135.45,117.07L-167.10,144.58Z"/>
    <path d="M-166.53,143.62L-136.32,117.68L-136.97,116.93L-167.18,142.86Z"/>
    <path d="M-166.08,141.47L-138.37,117.97L-139.01,117.21L-166.73,140.71Z"/>
    <path d="M-164.88,138.72L-141.16,118.85L-141.80,118.08L-165.53,137.95Z"/>
    <path d="M-163.02,135.46L-144.59,120.22L-145.23,119.45L-163.66,134.69Z"/>
    <path d="M-160.87,132.03L-148.31,121.76L-148.94,120.99L-161.51,131.25Z"/>
    <path d="M-158.16,128.20L-152.57,123.69L-153.20,122.91L-158.79,127.42Z"/>
    <path d="M-155.61,124.56L-156.67,125.41L-157.29,124.63L-156.23,123.78Z"/>
    <path d="M-153.29,121.18L-160.52,126.87L-161.13,126.08L-153.91,120.40Z"/>
    <path d="M-151.30,118.12L-164.02,128.00L-164.63,127.21L-151.91,117.33Z"/>
    <path d="M-149.39,115.17L-167.44,129.01L-168.05,128.22L-150.00,114.37Z"/>
    <path d="M-148.38,112.95L-169.94,129.28L-170.55,128.48L-148.98,112.15Z"/>
    <path d="M-147.59,110.93L-172.21,129.33L-172.81,128.53L-148.19,110.13Z"/>
    <path d="M-147.82,109.69L-173.45,128.60L-174.04,127.80L-148.41,108.89Z"/>
    <path d="M-148.75,108.97L-173.98,127.35L-174.56,126.54L-149.34,108.17Z"/>
    <path d="M-150.82,109.06L-173.36,125.27L-173.94,124.46L-151.40,108.25Z"/>
    <path d="M-153.33,109.45L-172.27,122.89L-172.85,122.07L-153.91,108.63Z"/>
    <path d="M-156.38,110.17L-170.65,120.16L-171.22,119.35L-156.95,109.35Z"/>
    <path d="M-160.17,111.36L-168.27,116.96L-168.83,116.14L-160.74,110.54Z"/>
    <path d="M-164.17,112.64L-165.67,113.66L-166.23,112.84L-164.73,111.81Z"/>
    <path d="M-168.74,114.24L-162.48,110.03L-163.04,109.20L-169.30,113.41Z"/>
    <path d="M-172.93,115.53L-159.66,106.70L-160.21,105.87L-173.48,114.69Z"/>
    <path d="M-176.73,116.49L-157.22,103.70L-157.77,102.86L-177.27,115.65Z"/>
    <path d="M-180.33,117.27L-154.97,100.86L-155.51,100.02L-180.87,116.43Z"/>
    <path d="M-183.49,117.72L-153.14,98.35L-153.68,97.50L-184.02,116.88Z"/>
    <path d="M-186.05,117.75L-151.90,96.24L-152.43,95.40L-186.58,116.90Z"/>
    <path d="M-187.84,117.27L-151.42,94.64L-151.94,93.80L-188.37,116.42Z"/>
    <path d="M-188.32,115.97L-152.23,93.86L-152.75,93.00L-188.84,115.12Z"/>
    <path d="M-188.25,114.34L-153.58,93.39L-154.10,92.53L-188.77,113.48Z"/>
    <path d="M-187.01,112.02L-156.10,93.60L-156.61,92.74L-187.52,111.16Z"/>
    <path d="M-185.50,109.59L-158.85,93.93L-159.36,93.06L-186.01,108.73Z"/>
    <path d="M-183.23,106.74L-162.37,94.66L-162.87,93.79L-183.73,105.88Z"/>
    <path d="M-180.55,103.71L-166.29,95.56L-166.78,94.69L-181.04,102.84Z"/>
    <path d="M-177.72,100.65L-170.33,96.49L-170.82,95.62L-178.21,99.78Z"/>
    <path d="M-174.77,97.58L-174.49,97.42L-174.97,96.55L-175.25,96.70Z"/>
    <path d="M-171.78,94.54L-178.67,98.31L-179.15,97.43L-172.26,93.66Z"/>
    <path d="M-169.08,91.72L-182.54,98.97L-183.01,98.09L-169.56,90.84Z"/>
    <path d="M-166.79,89.16L-185.99,99.36L-186.46,98.48L-167.26,88.28Z"/>
    <path d="M-165.07,86.95L-188.87,99.40L-189.33,98.52L-165.54,86.07Z"/>
    <path d="M-164.29,85.26L-190.78,98.92L-191.24,98.03L-164.75,84.37Z"/>
    <path d="M-164.19,83.94L-192.01,98.06L-192.46,97.17L-164.65,83.04Z"/>
    <path d="M-164.89,83.02L-192.43,96.79L-192.87,95.89L-165.33,82.12Z"/>
    <path d="M-166.34,82.47L-192.07,95.14L-192.51,94.24L-166.78,81.57Z"/>
    <path d="M-168.84,82.41L-190.66,92.99L-191.09,92.09L-169.27,81.51Z"/>
    <path d="M-172.05,82.67L-188.52,90.52L-188.95,89.62L-172.48,81.76Z"/>
    <path d="M-175.84,83.15L-185.78,87.82L-186.21,86.92L-176.26,82.25Z"/>
    <path d="M-180.08,83.79L-182.58,84.95L-183.00,84.05L-180.50,82.89Z"/>
    <path d="M-184.19,84.32L-179.51,82.19L-179.92,81.28L-184.60,83.41Z"/>
    <path d="M-188.80,85.02L-175.91,79.26L-176.32,78.34L-189.21,84.11Z"/>
    <path d="M-192.81,85.40L-172.91,76.64L-173.31,75.72L-193.21,84.48Z"/>
    <path d="M-196.62,85.64L-170.08,74.15L-170.48,73.23L-197.02,84.72Z"/>
    <path d="M-199.78,85.55L-167.90,71.98L-168.29,71.06L-200.17,84.63Z"/>
    <path d="M-201.90,84.99L-166.73,70.28L-167.12,69.36L-202.29,84.07Z"/>
    <path d="M-203.74,84.29L-165.84,68.71L-166.22,67.79L-204.12,83.37Z"/>
    <path d="M-204.78,83.25L-165.74,67.48L-166.11,66.56L-205.15,82.32Z"/>
    <path d="M-204.86,81.82L-166.57,66.63L-166.94,65.70L-205.23,80.89Z"/>
    <path d="M-203.61,79.88L-168.73,66.29L-169.09,65.36L-203.98,78.95Z"/>
    <path d="M-201.35,77.58L-171.87,66.30L-172.23,65.37L-201.71,76.65Z"/>
    <path d="M-198.70,75.17L-175.41,66.42L-175.76,65.48L-199.05,74.23Z"/>
    <path d="M-195.49,72.59L-179.48,66.69L-179.82,65.75L-195.84,71.66Z"/>
    <path d="M-192.42,70.12L-183.39,66.86L-183.73,65.92L-192.76,69.18Z"/>
    <path d="M-188.80,67.50L-187.85,67.16L-188.18,66.22L-189.14,66.56Z"/>
    <path d="M-185.46,65.04L-192.01,67.32L-192.34,66.37L-185.78,64.09Z"/>
    <path d="M-182.28,62.68L-195.99,67.35L-196.32,66.41L-182.60,61.73Z"/>
    <path d="M-179.53,60.51L-199.53,67.19L-199.85,66.25L-179.85,59.56Z"/>
    <path d="M-177.91,58.76L-201.93,66.62L-202.24,65.67L-178.22,57.81Z"/>
    <path d="M-176.34,57.04L-204.27,66.00L-204.57,65.04L-176.65,56.09Z"/>
    <path d="M-175.94,55.73L-205.41,64.97L-205.71,64.02L-176.24,54.77Z"/>
    <path d="M-176.06,54.58L-206.03,63.78L-206.33,62.82L-176.35,53.62Z"/>
    <path d="M-177.36,53.79L-205.45,62.22L-205.74,61.26L-177.65,52.83Z"/>
    <path d="M-179.88,53.34L-203.64,60.32L-203.92,59.36L-180.16,52.38Z"/>
    <path d="M-182.73,52.96L-201.48,58.34L-201.76,57.38L-183.00,52.00Z"/>
    <path d="M-186.74,52.87L-198.15,56.07L-198.42,55.10L-187.01,51.90Z"/>
    <path d="M-190.61,52.69L-194.93,53.88L-195.20,52.91L-190.87,51.73Z"/>
    <path d="M-195.05,52.62L-191.14,51.58L-191.40,50.61L-195.31,51.65Z"/>
    <path d="M-199.82,52.58L-187.01,49.24L-187.26,48.28L-200.07,51.61Z"/>
    <path d="M-203.86,52.30L-183.58,47.15L-183.83,46.18L-204.11,51.33Z"/>
    <path d="M-207.84,51.95L-180.21,45.11L-180.45,44.14L-208.08,50.98Z"/>
    <path d="M-210.97,51.35L-177.67,43.33L-177.90,42.36L-211.20,50.38Z"/>
    <path d="M-213.58,50.59L-175.63,41.70L-175.86,40.72L-213.80,49.62Z"/>
    <path d="M-214.93,49.52L-174.84,40.38L-175.06,39.40L-215.15,48.54Z"/>
    <path d="M-215.53,48.27L-174.78,39.24L-175.00,38.26L-215.75,47.29Z"/>
    <path d="M-215.29,46.83L-175.56,38.28L-175.77,37.30L-215.50,45.85Z"/>
    <path d="M-214.24,45.23L-177.11,37.48L-177.32,36.50L-214.45,44.25Z"/>
    <path d="M-212.50,43.50L-179.36,36.80L-179.55,35.82L-212.70,42.52Z"/>
    <path d="M-209.43,41.54L-182.92,36.35L-183.11,35.37L-209.62,40.56Z"/>
    <path d="M-205.75,39.51L-187.06,35.97L-187.25,34.98L-205.94,38.53Z"/>
    <path d="M-202.20,37.55L-191.07,35.51L-191.25,34.53L-202.38,36.57Z"/>
    <path d="M-198.37,35.59L-195.35,35.06L-195.52,34.07L-198.54,34.61Z"/>
    <path d="M-194.82,33.73L-199.32,34.50L-199.49,33.51L-194.99,32.74Z"/>
    <path d="M-191.06,31.88L-203.49,33.92L-203.66,32.94L-191.22,30.89Z"/>
    <path d="M-187.94,30.18L-207.01,33.20L-207.17,32.21L-188.09,29.20Z"/>
    <path d="M-185.55,28.64L-209.78,32.31L-209.93,31.33L-185.70,27.65Z"/>
    <path d="M-183.75,27.21L-211.95,31.31L-212.09,30.32L-183.89,26.22Z"/>
    <path d="M-183.36,26.01L-212.69,30.09L-212.83,29.09L-183.50,25.02Z"/>
    <path d="M-183.34,24.86L-213.04,28.80L-213.17,27.81L-183.48,23.87Z"/>
    <path d="M-184.35,23.84L-212.36,27.38L-212.48,26.39L-184.48,22.85Z"/>
    <path d="M-186.24,22.92L-210.77,25.87L-210.89,24.88L-186.36,21.92Z"/>
    <path d="M-189.04,22.08L-208.26,24.27L-208.38,23.28L-189.16,21.08Z"/>
    <path d="M-192.48,21.27L-205.11,22.63L-205.22,21.64L-192.58,20.28Z"/>
    <path d="M-196.49,20.48L-201.35,20.98L-201.46,19.98L-196.59,19.49Z"/>
    <path d="M-200.81,19.68L-197.28,19.34L-197.37,18.34L-200.91,18.68Z"/>
    <path d="M-204.97,18.80L-193.36,17.77L-193.44,16.77L-205.06,17.81Z"/>
    <path d="M-208.87,17.86L-189.67,16.26L-189.76,15.27L-208.95,16.86Z"/>
    <path d="M-212.75,16.87L-185.99,14.81L-186.07,13.81L-212.83,15.87Z"/>
    <path d="M-215.91,15.78L-183.02,13.45L-183.09,12.45L-215.98,14.78Z"/>
    <path d="M-218.31,14.60L-180.80,12.18L-180.86,11.18L-218.37,13.60Z"/>
    <path d="M-219.80,13.34L-179.46,10.98L-179.52,9.99L-219.86,12.34Z"/>
    <path d="M-220.35,12.01L-179.05,9.86L-179.10,8.86L-220.41,11.02Z"/>
    <path d="M-219.72,10.63L-179.81,8.79L-179.86,7.79L-219.76,9.63Z"/>
    <path d="M-218.67,9.23L-180.97,7.73L-181.01,6.73L-218.71,8.24Z"/>
    <path d="M-216.55,7.82L-183.18,6.69L-183.22,5.69L-216.59,6.82Z"/>
    <path d="M-213.82,6.41L-185.99,5.64L-186.02,4.64L-213.85,5.41Z"/>
    <path d="M-209.83,5.01L-190.05,4.59L-190.08,3.59L-209.85,4.01Z"/>
    <path d="M-205.79,3.66L-194.15,3.48L-194.17,2.48L-205.80,2.66Z"/>
    <path d="M-201.75,2.36L-198.22,2.33L-198.23,1.33L-201.76,1.36Z"/>
    <path d="M-197.80,1.11L-202.20,1.12L-202.20,0.12L-197.80,0.11Z"/>
    <path d="M-194.29,-0.10L-205.71,-0.13L-205.70,-1.13L-194.29,-1.10Z"/>
    <path d="M-190.49,-1.25L-209.50,-1.43L-209.49,-2.43L-190.48,-2.25Z"/>
    <path d="M-188.13,-2.39L-211.84,-2.75L-211.82,-3.75L-188.12,-3.39Z"/>
    <path d="M-186.08,-3.50L-213.85,-4.10L-213.83,-5.10L-186.05,-4.50Z"/>
    <path d="M-185.05,-4.62L-214.83,-5.44L-214.80,-6.44L-185.02,-5.62Z"/>
    <path d="M-185.23,-5.76L-214.58,-6.75L-214.54,-7.75L-185.20,-6.76Z"/>
    <path d="M-185.85,-6.92L-213.87,-8.04L-213.83,-9.04L-185.81,-7.92Z"/>
    <path d="M-187.51,-8.14L-212.11,-9.28L-212.06,-10.28L-187.46,-9.14Z"/>
    <path d="M-189.92,-9.42L-209.59,-10.45L-209.53,-11.45L-189.87,-10.42Z"/>
    <path d="M-193.26,-10.79L-206.12,-11.54L-206.06,-12.54L-193.20,-11.79Z"/>
    <path d="M-196.94,-12.22L-202.30,-12.56L-202.23,-13.56L-196.87,-13.21Z"/>
    <path d="M-201.16,-13.73L-197.91,-13.50L-197.84,-14.50L-201.09,-14.73Z"/>
    <path d="M-205.01,-15.27L-193.89,-14.41L-193.81,-15.41L-204.93,-16.27Z"/>
    <path d="M-208.79,-16.85L-189.92,-15.28L-189.84,-16.28L-208.71,-17.85Z"/>
    <path d="M-212.09,-18.44L-186.41,-16.14L-186.32,-17.14L-212.00,-19.43Z"/>
    <path d="M-215.18,-20.04L-183.11,-16.98L-183.01,-17.98L-215.08,-21.04Z"/>
    <path d="M-217.70,-21.64L-180.35,-17.84L-180.25,-18.83L-217.60,-22.63Z"/>
    <path d="M-219.00,-23.13L-178.80,-18.79L-178.70,-19.78L-218.89,-24.12Z"/>
    <path d="M-219.62,-24.56L-177.91,-19.80L-177.80,-20.79L-219.51,-25.55Z"/>
    <path d="M-218.74,-25.82L-178.51,-20.98L-178.39,-21.97L-218.62,-26.81Z"/>
    <path d="M-217.42,-27.02L-179.54,-22.22L-179.41,-23.21L-217.30,-28.01Z"/>
    <path d="M-214.89,-28.04L-181.76,-23.64L-181.63,-24.63L-214.76,-29.03Z"/>
    <path d="M-211.98,-28.98L-184.34,-25.13L-184.20,-26.12L-211.85,-29.97Z"/>
    <path d="M-208.39,-29.78L-187.59,-26.76L-187.45,-27.75L-208.25,-30.77Z"/>
    <path d="M-204.04,-30.43L-191.59,-28.54L-191.44,-29.53L-203.89,-31.42Z"/>
    <path d="M-199.60,-31.01L-195.66,-30.39L-195.50,-31.38L-199.45,-32.00Z"/>
    <path d="M-195.33,-31.57L-199.54,-32.26L-199.38,-33.25L-195.17,-32.56Z"/>
    <path d="M-191.57,-32.16L-202.91,-34.09L-202.74,-35.08L-191.40,-33.15Z"/>
    <path d="M-188.17,-32.77L-205.89,-35.91L-205.72,-36.89L-187.99,-33.76Z"/>
    <path d="M-185.51,-33.48L-208.12,-37.62L-207.94,-38.60L-185.33,-34.46Z"/>
    <path d="M-182.96,-34.17L-210.23,-39.34L-210.04,-40.32L-182.77,-35.15Z"/>
    <path d="M-181.61,-35.07L-211.12,-40.85L-210.92,-41.83L-181.42,-36.05Z"/>
    <path d="M-181.04,-36.12L-211.21,-42.22L-211.01,-43.20L-180.85,-37.10Z"/>
    <path d="M-181.61,-37.39L-210.16,-43.35L-209.96,-44.33L-181.40,-38.37Z"/>
    <path d="M-182.91,-38.84L-208.36,-44.31L-208.15,-45.29L-182.69,-39.81Z"/>
    <path d="M-185.02,-40.48L-205.73,-45.07L-205.51,-46.05L-184.80,-41.46Z"/>
    <path d="M-187.78,-42.30L-202.43,-45.64L-202.21,-46.62L-187.56,-43.28Z"/>
    <path d="M-191.17,-44.31L-198.49,-46.03L-198.26,-47.00L-190.95,-45.29Z"/>
    <path d="M-195.11,-46.50L-193.99,-46.23L-193.76,-47.20L-194.88,-47.47Z"/>
    <path d="M-198.99,-48.73L-189.54,-46.39L-189.30,-47.36L-198.75,-49.70Z"/>
    <path d="M-202.52,-50.93L-185.42,-46.58L-185.17,-47.55L-202.27,-51.89Z"/>
    <path d="M-205.86,-53.12L-181.47,-46.77L-181.22,-47.73L-205.60,-54.09Z"/>
    <path d="M-208.45,-55.16L-178.26,-47.10L-178.00,-48.07L-208.19,-56.13Z"/>
    <path d="M-210.24,-57.03L-175.84,-47.61L-175.57,-48.58L-209.97,-57.99Z"/>
    <path d="M-211.70,-58.83L-173.72,-48.18L-173.45,-49.14L-211.43,-59.79Z"/>
    <path d="M-211.96,-60.30L-172.80,-49.07L-172.53,-50.03L-211.68,-61.27Z"/>
    <path d="M-211.63,-61.62L-172.45,-50.11L-172.17,-51.07L-211.35,-62.58Z"/>
    <path d="M-209.75,-62.47L-173.63,-51.62L-173.34,-52.58L-209.47,-63.43Z"/>
    <path d="M-207.39,-63.15L-175.29,-53.29L-174.99,-54.25L-207.10,-64.11Z"/>
    <path d="M-204.24,-63.56L-177.71,-55.23L-177.42,-56.19L-203.94,-64.51Z"/>
    <path d="M-200.66,-63.79L-180.56,-57.35L-180.25,-58.30L-200.36,-64.74Z"/>
    <path d="M-196.73,-63.86L-183.74,-59.61L-183.43,-60.56L-196.42,-64.81Z"/>
    <path d="M-192.66,-63.84L-187.04,-61.97L-186.72,-62.91L-192.34,-64.79Z"/>
    <path d="M-188.42,-63.71L-190.50,-64.42L-190.18,-65.37L-188.10,-64.66Z"/>
    <path d="M-184.56,-63.66L-193.57,-66.80L-193.24,-67.74L-184.23,-64.61Z"/>
    <path d="M-180.85,-63.62L-196.46,-69.16L-196.13,-70.10L-180.52,-64.57Z"/>
    <path d="M-177.68,-63.73L-198.82,-71.37L-198.48,-72.31L-177.34,-64.67Z"/>
    <path d="M-175.58,-64.19L-200.08,-73.22L-199.73,-74.16L-175.24,-65.13Z"/>
    <path d="M-173.73,-64.72L-201.07,-74.99L-200.72,-75.93L-173.38,-65.66Z"/>
    <path d="M-172.83,-65.59L-201.12,-76.42L-200.76,-77.35L-172.47,-66.53Z"/>
    <path d="M-172.90,-66.84L-200.16,-77.46L-199.80,-78.40L-172.54,-67.77Z"/>
    <path d="M-174.17,-68.57L-198.00,-78.02L-197.63,-78.95L-173.80,-69.50Z"/>
    <path d="M-175.74,-70.44L-195.52,-78.43L-195.15,-79.36L-175.37,-71.37Z"/>
    <path d="M-178.10,-72.67L-192.24,-78.48L-191.86,-79.41L-177.72,-73.60Z"/>
    <path d="M-181.01,-75.17L-188.40,-78.26L-188.01,-79.18L-180.62,-76.09Z"/>
    <path d="M-183.80,-77.66L-184.66,-78.03L-184.27,-78.95L-183.41,-78.58Z"/>
    <path d="M-187.25,-80.49L-180.24,-77.46L-179.84,-78.38L-186.86,-81.41Z"/>
    <path d="M-190.19,-83.15L-176.33,-77.05L-175.92,-77.97L-189.79,-84.07Z"/>
    <path d="M-193.31,-85.94L-172.22,-76.51L-171.81,-77.42L-192.90,-86.86Z"/>
    <path d="M-195.60,-88.41L-168.92,-76.28L-168.51,-77.19L-195.18,-89.32Z"/>
    <path d="M-197.20,-90.61L-166.30,-76.33L-165.88,-77.23L-196.78,-91.51Z"/>
    <path d="M-198.24,-92.57L-164.23,-76.59L-163.81,-77.50L-197.82,-93.47Z"/>
    <path d="M-198.29,-94.08L-163.13,-77.30L-162.70,-78.20L-197.86,-94.99Z"/>
    <path d="M-197.97,-95.42L-162.40,-78.18L-161.96,-79.08L-197.53,-96.32Z"/>
    <path d="M-196.58,-96.24L-162.72,-79.57L-162.27,-80.47L-196.13,-97.14Z"/>
    <path d="M-194.27,-96.59L-163.94,-81.42L-163.49,-82.32L-193.82,-97.49Z"/>
    <path d="M-191.27,-96.56L-165.84,-83.65L-165.39,-84.54L-190.81,-97.45Z"/>
    <path d="M-187.66,-96.18L-168.33,-86.22L-167.87,-87.11L-187.20,-97.07Z"/>
    <path d="M-183.81,-95.63L-171.06,-88.96L-170.59,-89.84L-183.34,-96.52Z"/>
    <path d="M-179.94,-95.01L-173.79,-91.75L-173.32,-92.63L-179.47,-95.90Z"/>
    <path d="M-176.04,-94.33L-176.53,-94.60L-176.05,-95.48L-175.57,-95.21Z"/>
    <path d="M-171.98,-93.51L-179.42,-97.58L-178.94,-98.46L-171.50,-94.39Z"/>
    <path d="M-168.24,-92.81L-181.98,-100.44L-181.50,-101.31L-167.76,-93.69Z"/>
    <path d="M-165.37,-92.55L-183.66,-102.84L-183.17,-103.72L-164.88,-93.42Z"/>
    <path d="M-162.87,-92.46L-184.95,-105.07L-184.46,-105.94L-162.38,-93.33Z"/>
    <path d="M-160.99,-92.70L-185.62,-106.97L-185.12,-107.83L-160.49,-93.56Z"/>
    <path d="M-159.77,-93.30L-185.61,-108.49L-185.10,-109.35L-159.26,-94.17Z"/>
    <path d="M-159.57,-94.51L-184.55,-109.40L-184.04,-110.26L-159.06,-95.37Z"/>
    <path d="M-160.06,-96.14L-182.81,-109.88L-182.29,-110.74L-159.54,-96.99Z"/>
    <path d="M-161.39,-98.30L-180.20,-109.82L-179.68,-110.68L-160.87,-99.15Z"/>
    <path d="M-163.37,-100.89L-176.94,-109.32L-176.41,-110.17L-162.84,-101.74Z"/>
    <path d="M-165.53,-103.65L-173.48,-108.65L-172.95,-109.50L-165.00,-104.49Z"/>
    <path d="M-168.24,-106.80L-169.47,-107.58L-168.93,-108.43L-167.70,-107.64Z"/>
    <path d="M-171.09,-110.10L-165.29,-106.35L-164.74,-107.19L-170.55,-110.94Z"/>
    <path d="M-173.56,-113.21L-161.49,-105.30L-160.94,-106.13L-173.01,-114.05Z"/>
    <path d="M-176.30,-116.56L-157.40,-104.00L-156.85,-104.84L-175.74,-117.39Z"/>
    <path d="M-178.26,-119.45L-154.08,-103.16L-153.52,-103.99L-177.70,-120.28Z"/>
    <path d="M-179.57,-121.94L-151.39,-102.71L-150.83,-103.53L-179.01,-122.76Z"/>
    <path d="M-180.31,-124.07L-149.26,-102.60L-148.69,-103.42L-179.75,-124.90Z"/>
    <path d="M-179.83,-125.38L-148.34,-103.32L-147.77,-104.14L-179.26,-126.20Z"/>
    <path d="M-179.09,-126.50L-147.68,-104.21L-147.10,-105.02L-178.51,-127.32Z"/>
    <path d="M-177.61,-127.10L-147.73,-105.61L-147.15,-106.43L-177.03,-127.91Z"/>
    <path d="M-175.76,-127.41L-148.15,-107.29L-147.56,-108.10L-175.17,-128.22Z"/>
    <path d="M-172.93,-126.98L-149.53,-109.71L-148.94,-110.52L-172.34,-127.78Z"/>
    <path d="M-169.58,-126.12L-151.42,-112.55L-150.82,-113.35L-168.98,-126.92Z"/>
    <path d="M-165.53,-124.68L-154.00,-115.95L-153.40,-116.75L-164.92,-125.48Z"/>
    <path d="M-161.84,-123.46L-156.20,-119.13L-155.59,-119.92L-161.24,-124.25Z"/>
    <path d="M-157.86,-121.94L-158.69,-122.59L-158.08,-123.38L-157.24,-122.73Z"/>
    <path d="M-154.23,-120.65L-160.81,-125.83L-160.20,-126.62L-153.61,-121.43Z"/>
    <path d="M-150.67,-119.36L-162.85,-129.05L-162.22,-129.83L-150.05,-120.14Z"/>
    <path d="M-147.50,-118.31L-164.49,-132.02L-163.86,-132.80L-146.87,-119.09Z"/>
    <path d="M-145.15,-117.90L-165.29,-134.34L-164.66,-135.12L-144.52,-118.67Z"/>
    <path d="M-143.42,-117.95L-165.47,-136.19L-164.84,-136.96L-142.78,-118.72Z"/>
    <path d="M-142.23,-118.44L-165.10,-137.59L-164.45,-138.36L-141.58,-119.21Z"/>
    <path d="M-141.78,-119.55L-163.97,-138.37L-163.32,-139.13L-141.13,-120.31Z"/>
    <path d="M-142.01,-121.25L-162.15,-138.54L-161.50,-139.30L-141.36,-122.01Z"/>
    <path d="M-142.95,-123.59L-159.60,-138.06L-158.95,-138.82L-142.29,-124.34Z"/>
    <path d="M-144.26,-126.29L-156.68,-137.22L-156.02,-137.97L-143.60,-127.04Z"/>
    <path d="M-146.11,-129.51L-153.21,-135.84L-152.54,-136.58L-145.44,-130.26Z"/>
    <path d="M-148.22,-133.03L-149.47,-134.16L-148.80,-134.90L-147.55,-133.77Z"/>
    <path d="M-150.18,-136.48L-145.85,-132.53L-145.18,-133.26L-149.51,-137.22Z"/>
    <path d="M-152.23,-140.07L-142.15,-130.75L-141.47,-131.48L-151.55,-140.80Z"/>
    <path d="M-154.06,-143.53L-138.65,-129.10L-137.96,-129.83L-153.38,-144.26Z"/>
    <path d="M-155.38,-146.56L-135.65,-127.86L-134.96,-128.59L-154.69,-147.28Z"/>
    <path d="M-156.86,-149.79L-132.48,-126.41L-131.79,-127.13L-156.16,-150.51Z"/>
    <path d="M-157.15,-151.94L-130.48,-126.03L-129.79,-126.75L-156.46,-152.65Z"/>
    <path d="M-157.14,-153.80L-128.78,-125.93L-128.08,-126.64L-156.44,-154.52Z"/>
    <path d="M-155.98,-154.56L-128.21,-126.92L-127.51,-127.63L-155.28,-155.27Z"/>
    <path d="M-154.34,-154.82L-128.13,-128.40L-127.42,-129.11L-153.63,-155.52Z"/>
    <path d="M-152.30,-154.66L-128.42,-130.29L-127.70,-130.99L-151.59,-155.36Z"/>
    <path d="M-149.63,-153.82L-129.33,-132.85L-128.61,-133.55L-148.91,-154.51Z"/>
    <path d="M-146.68,-152.64L-130.52,-135.74L-129.80,-136.43L-145.96,-153.33Z"/>
    <path d="M-143.07,-150.71L-132.36,-139.37L-131.63,-140.06L-142.34,-151.39Z"/>
    <path d="M-139.53,-148.79L-134.11,-142.98L-133.38,-143.66L-138.80,-149.47Z"/>
    <path d="M-135.88,-146.68L-135.96,-146.76L-135.22,-147.44L-135.15,-147.35Z"/>
    <path d="M-132.63,-144.93L-137.40,-150.17L-136.66,-150.85L-131.89,-145.60Z"/>
    <path d="M-129.60,-143.36L-138.62,-153.39L-137.87,-154.06L-128.85,-144.03Z"/>
    <path d="M-126.62,-141.80L-139.76,-156.60L-139.02,-157.26L-125.87,-142.46Z"/>
    <path d="M-124.03,-140.62L-140.52,-159.41L-139.77,-160.07L-123.28,-141.28Z"/>
    <path d="M-122.07,-140.11L-140.63,-161.53L-139.87,-162.19L-121.31,-140.77Z"/>
    <path d="M-120.76,-140.34L-140.08,-162.91L-139.32,-163.56L-120.00,-140.99Z"/>
    <path d="M-120.16,-141.39L-138.81,-163.45L-138.05,-164.10L-119.40,-142.04Z"/>
    <path d="M-120.13,-143.13L-136.97,-163.31L-136.20,-163.95L-119.36,-143.77Z"/>
    <path d="M-120.32,-145.16L-134.89,-162.84L-134.12,-163.48L-119.55,-145.80Z"/>
    <path d="M-121.02,-147.86L-132.29,-161.71L-131.52,-162.34L-120.25,-148.49Z"/>
    <path d="M-122.15,-151.14L-129.26,-159.98L-128.48,-160.60L-121.37,-151.77Z"/>
    <path d="M-123.57,-154.84L-125.93,-157.82L-125.14,-158.44L-122.78,-155.46Z"/>
    <path d="M-125.16,-158.85L-122.41,-155.33L-121.62,-155.95L-124.38,-159.47Z"/>
    <path d="M-126.68,-162.83L-118.96,-152.86L-118.17,-153.48L-125.88,-163.45Z"/>
    <path d="M-127.99,-166.64L-115.70,-150.56L-114.91,-151.17L-127.19,-167.25Z"/>
    <path d="M-128.98,-170.09L-112.76,-148.60L-111.96,-149.20L-128.18,-170.70Z"/>
    <path d="M-129.59,-173.10L-110.19,-147.07L-109.39,-147.66L-128.78,-173.70Z"/>
    <path d="M-129.77,-175.60L-108.03,-146.04L-107.22,-146.63L-128.97,-176.19Z"/>
    <path d="M-129.43,-177.42L-106.39,-145.68L-105.58,-146.26L-128.63,-178.00Z"/>
    <path d="M-128.29,-178.14L-105.54,-146.39L-104.73,-146.98L-127.48,-178.72Z"/>
    <path d="M-126.89,-178.49L-104.95,-147.47L-104.13,-148.05L-126.07,-179.07Z"/>
    <path d="M-124.95,-178.06L-104.88,-149.33L-104.06,-149.90L-124.13,-178.63Z"/>
    <path d="M-122.64,-177.06L-105.18,-151.73L-104.35,-152.29L-121.81,-177.63Z"/>
    <path d="M-119.89,-175.38L-105.90,-154.80L-105.07,-155.37L-119.07,-175.94Z"/>
    <path d="M-116.86,-173.19L-106.90,-158.37L-106.07,-158.93L-116.03,-173.75Z"/>
    <path d="M-113.72,-170.78L-108.00,-162.15L-107.17,-162.70L-112.89,-171.33Z"/>
    <path d="M-110.49,-168.15L-109.18,-166.13L-108.34,-166.68L-109.66,-168.70Z"/>
    <path d="M-107.51,-165.80L-110.11,-169.83L-109.27,-170.37L-106.66,-166.34Z"/>
    <path d="M-104.65,-163.57L-110.90,-173.39L-110.05,-173.92L-103.81,-164.11Z"/>
    <path d="M-102.01,-161.61L-111.46,-176.67L-110.62,-177.20L-101.16,-162.14Z"/>
    <path d="M-99.69,-160.08L-111.70,-179.50L-110.85,-180.02L-98.84,-160.61Z"/>
    <path d="M-97.58,-158.86L-111.72,-182.01L-110.87,-182.53L-96.73,-159.38Z"/>
    <path d="M-96.23,-158.84L-110.97,-183.31L-110.12,-183.83L-95.38,-159.35Z"/>
    <path d="M-95.14,-159.24L-109.96,-184.18L-109.10,-184.69L-94.28,-159.75Z"/>
    <path d="M-94.71,-160.75L-108.28,-183.92L-107.42,-184.43L-93.84,-161.25Z"/>
    <path d="M-94.52,-162.71L-106.35,-183.20L-105.48,-183.70L-93.65,-163.21Z"/>
    <path d="M-94.77,-165.49L-103.97,-181.65L-103.10,-182.14L-93.90,-165.98Z"/>
    <path d="M-95.35,-168.92L-101.25,-179.43L-100.38,-179.92L-94.48,-169.41Z"/>
    <path d="M-96.11,-172.75L-98.35,-176.80L-97.48,-177.29L-95.23,-173.23Z"/>
    <path d="M-96.85,-176.65L-95.46,-174.09L-94.58,-174.57L-95.97,-177.13Z"/>
    <path d="M-97.75,-180.93L-92.40,-170.98L-91.52,-171.46L-96.87,-181.40Z"/>
    <path d="M-98.31,-184.69L-89.68,-168.39L-88.80,-168.86L-97.42,-185.16Z"/>
    <path d="M-98.74,-188.31L-87.07,-165.92L-86.18,-166.38L-97.86,-188.77Z"/>
    <path d="M-98.92,-191.51L-84.71,-163.85L-83.82,-164.30L-98.03,-191.97Z"/>
    <path d="M-98.58,-193.78L-82.86,-162.70L-81.97,-163.15L-97.69,-194.23Z"/>
    <path d="M-98.06,-195.72L-81.20,-161.87L-80.30,-162.31L-97.16,-196.17Z"/>
    <path d="M-97.01,-196.64L-80.04,-162.04L-79.14,-162.48L-96.12,-197.08Z"/>
    <path d="M-95.57,-196.76L-79.27,-163.00L-78.37,-163.44L-94.67,-197.19Z"/>
    <path d="M-93.75,-196.05L-78.89,-164.78L-77.98,-165.21L-92.85,-196.48Z"/>
    <path d="M-91.72,-194.87L-78.69,-167.01L-77.79,-167.44L-90.82,-195.29Z"/>
    <path d="M-89.46,-193.11L-78.73,-169.81L-77.82,-170.23L-88.55,-193.53Z"/>
    <path d="M-86.90,-190.64L-79.06,-173.31L-78.14,-173.72L-85.99,-191.05Z"/>
    <path d="M-84.22,-187.78L-79.50,-177.18L-78.58,-177.58L-83.31,-188.19Z"/>
    <path d="M-81.47,-184.66L-80.00,-181.30L-79.09,-181.70L-80.56,-185.06Z"/>
    <path d="M-78.88,-181.76L-80.35,-185.18L-79.43,-185.58L-77.96,-182.16Z"/>
    <path d="M-76.43,-179.10L-80.54,-188.82L-79.62,-189.21L-75.50,-179.49Z"/>
    <path d="M-74.12,-176.68L-80.58,-192.19L-79.66,-192.57L-73.20,-177.07Z"/>
    <path d="M-72.09,-174.83L-80.34,-194.99L-79.42,-195.37L-71.17,-175.20Z"/>
    <path d="M-70.41,-173.76L-79.75,-196.99L-78.83,-197.36L-69.48,-174.13Z"/>
    <path d="M-69.00,-173.31L-78.89,-198.35L-77.96,-198.71L-68.07,-173.68Z"/>
    <path d="M-67.80,-173.40L-77.80,-199.17L-76.86,-199.53L-66.87,-173.76Z"/>
    <path d="M-67.05,-174.65L-76.25,-198.80L-75.32,-199.16L-66.12,-175.00Z"/>
    <path d="M-66.57,-176.63L-74.44,-197.70L-73.51,-198.05L-65.63,-176.98Z"/>
    <path d="M-66.35,-179.41L-72.36,-195.77L-71.42,-196.12L-65.41,-179.75Z"/>
    <path d="M-66.24,-182.57L-70.16,-193.46L-69.22,-193.80L-65.30,-182.91Z"/>
    <path d="M-66.22,-186.08L-67.87,-190.77L-66.93,-191.11L-65.27,-186.42Z"/>
    <path d="M-66.29,-189.99L-65.49,-187.68L-64.54,-188.01L-65.34,-190.32Z"/>
    <path d="M-66.27,-193.79L-63.18,-184.69L-62.24,-185.01L-65.32,-194.11Z"/>
    <path d="M-66.29,-197.83L-60.84,-181.44L-59.89,-181.75L-65.34,-198.14Z"/>
    <path d="M-66.07,-201.29L-58.73,-178.75L-57.77,-179.06L-65.12,-201.60Z"/>
    <path d="M-65.76,-204.63L-56.69,-176.17L-55.74,-176.47L-64.81,-204.93Z"/>
    <path d="M-65.09,-206.91L-55.02,-174.63L-54.06,-174.93L-64.14,-207.21Z"/>
    <path d="M-64.26,-208.74L-53.51,-173.53L-52.55,-173.82L-63.30,-209.03Z"/>
    <path d="M-63.12,-209.60L-52.30,-173.39L-51.34,-173.68L-62.16,-209.88Z"/>
    <path d="M-61.70,-209.56L-51.36,-174.13L-50.40,-174.41L-60.74,-209.84Z"/>
    <path d="M-60.02,-208.54L-50.69,-175.84L-49.73,-176.11L-59.06,-208.81Z"/>
    <path d="M-58.23,-207.10L-50.11,-177.95L-49.15,-178.22L-57.27,-207.37Z"/>
    <path d="M-56.27,-204.93L-49.70,-180.78L-48.74,-181.04L-55.31,-205.19Z"/>
    <path d="M-54.21,-202.25L-49.39,-184.11L-48.43,-184.36L-53.24,-202.50Z"/>
    <path d="M-52.08,-199.16L-49.15,-187.82L-48.18,-188.07L-51.11,-199.41Z"/>
    <path d="M-49.90,-195.67L-48.95,-191.93L-47.98,-192.17L-48.93,-195.91Z"/>
    <path d="M-47.92,-192.82L-48.55,-195.38L-47.58,-195.62L-46.95,-193.06Z"/>
    <path d="M-45.90,-189.63L-48.18,-199.15L-47.21,-199.38L-44.93,-189.87Z"/>
    <path d="M-44.11,-187.22L-47.58,-202.13L-46.61,-202.36L-43.14,-187.45Z"/>
    <path d="M-42.38,-184.92L-46.92,-204.99L-45.95,-205.21L-41.40,-185.14Z"/>
    <path d="M-40.90,-183.63L-46.00,-206.82L-45.02,-207.03L-39.92,-183.85Z"/>
    <path d="M-39.53,-182.74L-44.97,-208.23L-43.99,-208.44L-38.55,-182.95Z"/>
    <path d="M-38.38,-182.84L-43.72,-208.64L-42.74,-208.85L-37.40,-183.04Z"/>
    <path d="M-37.40,-183.82L-42.29,-208.16L-41.31,-208.36L-36.42,-184.02Z"/>
    <path d="M-36.57,-185.56L-40.72,-206.90L-39.73,-207.10L-35.59,-185.75Z"/>
    <path d="M-35.82,-187.87L-39.05,-205.06L-38.07,-205.25L-34.84,-188.05Z"/>
    <path d="M-35.21,-191.05L-37.25,-202.33L-36.27,-202.51L-34.22,-191.23Z"/>
    <path d="M-34.55,-194.24L-35.49,-199.58L-34.50,-199.75L-33.57,-194.42Z"/>
    <path d="M-33.98,-198.10L-33.65,-196.14L-32.66,-196.31L-32.99,-198.27Z"/>
    <path d="M-33.35,-201.94L-31.85,-192.72L-30.86,-192.88L-32.36,-202.10Z"/>
    <path d="M-32.68,-205.81L-30.09,-189.24L-29.10,-189.39L-31.69,-205.96Z"/>
    <path d="M-31.91,-209.28L-28.44,-186.14L-27.45,-186.29L-30.92,-209.43Z"/>
    <path d="M-30.98,-211.98L-26.93,-183.81L-25.94,-183.95L-29.99,-212.12Z"/>
    <path d="M-30.00,-214.45L-25.49,-181.68L-24.50,-181.82L-29.00,-214.59Z"/>
    <path d="M-28.88,-216.17L-24.17,-180.30L-23.18,-180.43L-27.89,-216.30Z"/>
    <path d="M-27.61,-216.83L-23.00,-179.96L-22.01,-180.08L-26.62,-216.95Z"/>
    <path d="M-26.17,-216.10L-22.00,-180.99L-21.01,-181.11L-25.18,-216.22Z"/>
    <path d="M-24.68,-214.82L-21.05,-182.56L-20.06,-182.67L-23.69,-214.93Z"/>
    <path d="M-23.19,-213.29L-20.11,-184.36L-19.11,-184.46L-22.19,-213.40Z"/>
    <path d="M-21.66,-211.23L-19.20,-186.68L-18.20,-186.77L-20.66,-211.33Z"/>
    <path d="M-20.07,-208.27L-18.34,-189.89L-17.34,-189.98L-19.07,-208.36Z"/>
    <path d="M-18.48,-204.93L-17.48,-193.45L-16.48,-193.54L-17.49,-205.02Z"/>
    <path d="M-16.89,-200.99L-16.62,-197.60L-15.62,-197.69L-15.90,-201.07Z"/>
    <path d="M-15.41,-197.78L-15.65,-201.01L-14.66,-201.09L-14.41,-197.86Z"/>
    <path d="M-13.97,-194.56L-14.65,-204.41L-13.65,-204.48L-12.97,-194.63Z"/>
    <path d="M-12.60,-191.93L-13.56,-207.21L-12.57,-207.27L-11.60,-192.00Z"/>
    <path d="M-11.28,-189.47L-12.43,-209.83L-11.44,-209.88L-10.28,-189.53Z"/>
    <path d="M-10.02,-187.66L-11.24,-211.77L-10.24,-211.82L-9.02,-187.71Z"/>
    <path d="M-8.82,-186.68L-9.99,-212.88L-8.99,-212.92L-7.82,-186.72Z"/>
    <path d="M-7.67,-186.58L-8.68,-213.08L-7.68,-213.12L-6.67,-186.62Z"/>
    <path d="M-6.54,-187.23L-7.36,-212.53L-6.36,-212.56L-5.54,-187.26Z"/>
    <path d="M-5.43,-188.69L-6.01,-211.14L-5.01,-211.17L-4.43,-188.72Z"/>
    <path d="M-4.31,-190.83L-4.67,-209.07L-3.67,-209.09L-3.31,-190.85Z"/>
    <path d="M-3.17,-193.42L-3.35,-206.53L-2.35,-206.54L-2.17,-193.44Z"/>
    <path d="M-2.01,-197.31L-2.06,-202.67L-1.06,-202.68L-1.01,-197.32Z"/>
    <path d="M-0.81,-200.73L-0.81,-199.26L0.19,-199.27L0.19,-200.74Z"/>
    <path d="M0.44,-204.56L0.40,-195.44L1.40,-195.43L1.44,-204.56Z"/>
    <path d="M1.73,-207.70L1.57,-192.29L2.57,-192.28L2.73,-207.69Z"/>
    <path d="M3.07,-211.19L2.69,-188.77L3.69,-188.76L4.07,-211.17Z"/>
    <path d="M4.43,-213.86L3.79,-186.06L4.79,-186.04L5.43,-213.83Z"/>
    <path d="M5.80,-215.78L4.87,-184.08L5.87,-184.05L6.80,-215.75Z"/>
    <path d="M7.18,-217.36L5.94,-182.42L6.94,-182.39L8.18,-217.33Z"/>
    <path d="M8.53,-217.77L7.05,-181.93L8.05,-181.89L9.53,-217.73Z"/>
    <path d="M9.86,-217.55L8.17,-182.05L9.17,-182.00L10.86,-217.50Z"/>
    <path d="M11.14,-216.31L9.35,-183.17L10.35,-183.11L12.13,-216.25Z"/>
    <path d="M12.35,-214.32L10.59,-185.03L11.59,-184.97L13.35,-214.26Z"/>
    <path d="M13.50,-211.69L11.90,-187.51L12.90,-187.44L14.49,-211.62Z"/>
    <path d="M14.59,-208.73L13.26,-190.31L14.25,-190.23L15.59,-208.65Z"/>
    <path d="M15.59,-205.08L14.70,-193.77L15.70,-193.69L16.59,-205.01Z"/>
    <path d="M16.54,-201.34L16.20,-197.32L17.20,-197.24L17.54,-201.25Z"/>
    <path d="M17.46,-197.72L17.73,-200.73L18.73,-200.64L18.45,-197.63Z"/>
    <path d="M18.38,-194.56L19.26,-203.67L20.26,-203.57L19.37,-194.46Z"/>
    <path d="M19.25,-191.34L20.83,-206.65L21.83,-206.55L20.25,-191.24Z"/>
    <path d="M20.15,-188.72L22.37,-209.02L23.37,-208.91L21.15,-188.61Z"/>
    <path d="M21.09,-186.68L23.88,-210.79L24.87,-210.67L22.08,-186.56Z"/>
    <path d="M22.11,-185.49L25.30,-211.69L26.29,-211.57L23.10,-185.37Z"/>
    <path d="M23.28,-185.63L26.57,-211.26L27.56,-211.13L24.27,-185.50Z"/>
    <path d="M24.51,-186.10L27.78,-210.47L28.77,-210.33L25.50,-185.97Z"/>
    <path d="M25.84,-187.34L28.88,-208.90L29.87,-208.76L26.83,-187.20Z"/>
    <path d="M27.28,-189.16L29.87,-206.74L30.86,-206.59L28.27,-189.01Z"/>
    <path d="M28.87,-191.76L30.71,-203.78L31.70,-203.63L29.86,-191.61Z"/>
    <path d="M30.58,-194.92L31.43,-200.24L32.42,-200.09L31.57,-194.77Z"/>
    <path d="M32.37,-198.28L32.07,-196.50L33.06,-196.33L33.35,-198.12Z"/>
    <path d="M34.23,-201.81L32.63,-192.56L33.62,-192.39L35.21,-201.64Z"/>
    <path d="M36.10,-205.18L33.18,-188.78L34.16,-188.60L37.09,-205.00Z"/>
    <path d="M37.96,-208.19L33.74,-185.34L34.72,-185.15L38.94,-208.01Z"/>
    <path d="M39.80,-210.88L34.32,-182.20L35.30,-182.01L40.78,-210.69Z"/>
    <path d="M41.42,-212.29L35.11,-180.32L36.09,-180.13L42.40,-212.10Z"/>
    <path d="M43.04,-213.60L35.89,-178.54L36.87,-178.34L44.02,-213.40Z"/>
    <path d="M44.52,-214.11L36.83,-177.53L37.80,-177.32L45.50,-213.91Z"/>
    <path d="M45.78,-213.59L37.97,-177.55L38.95,-177.34L46.76,-213.38Z"/>
    <path d="M46.86,-212.27L39.29,-178.34L40.27,-178.13L47.84,-212.05Z"/>
    <path d="M47.69,-209.92L40.86,-180.16L41.83,-179.94L48.66,-209.69Z"/>
    <path d="M48.27,-206.64L42.67,-182.89L43.64,-182.66L49.25,-206.41Z"/>
    <path d="M48.81,-203.31L44.52,-185.65L45.49,-185.41L49.78,-203.08Z"/>
    <path d="M49.23,-199.71L46.48,-188.67L47.45,-188.43L50.21,-199.47Z"/>
    <path d="M49.59,-196.00L48.51,-191.78L49.48,-191.53L50.56,-195.76Z"/>
    <path d="M49.92,-192.37L50.56,-194.80L51.53,-194.55L50.89,-192.12Z"/>
    <path d="M50.24,-188.85L52.62,-197.70L53.58,-197.44L51.21,-188.59Z"/>
    <path d="M50.59,-185.59L54.64,-200.32L55.61,-200.06L51.55,-185.32Z"/>
    <path d="M51.11,-183.08L56.49,-202.18L57.45,-201.90L52.07,-182.81Z"/>
    <path d="M51.76,-181.12L58.21,-203.47L59.17,-203.19L52.72,-180.84Z"/>
    <path d="M52.64,-180.04L59.68,-203.87L60.64,-203.58L53.60,-179.76Z"/>
    <path d="M53.70,-179.55L60.98,-203.66L61.94,-203.37L54.66,-179.27Z"/>
    <path d="M54.90,-179.55L62.13,-202.95L63.08,-202.66L55.86,-179.25Z"/>
    <path d="M56.54,-180.90L62.84,-200.88L63.79,-200.57L57.49,-180.60Z"/>
    <path d="M58.21,-182.29L63.51,-198.74L64.46,-198.44L59.16,-181.98Z"/>
    <path d="M60.33,-184.99L63.72,-195.29L64.67,-194.98L61.28,-184.67Z"/>
    <path d="M62.48,-187.62L63.91,-191.89L64.86,-191.57L63.43,-187.30Z"/>
    <path d="M64.77,-190.55L63.95,-188.17L64.90,-187.85L65.71,-190.23Z"/>
    <path d="M67.13,-193.55L63.92,-184.37L64.86,-184.04L68.07,-193.22Z"/>
    <path d="M69.58,-196.70L63.78,-180.42L64.72,-180.08L70.52,-196.36Z"/>
    <path d="M71.80,-199.04L63.88,-177.24L64.82,-176.90L72.74,-198.70Z"/>
    <path d="M74.03,-201.33L63.95,-174.12L64.89,-173.77L74.97,-200.98Z"/>
    <path d="M75.90,-202.56L64.38,-172.03L65.32,-171.68L76.84,-202.21Z"/>
    <path d="M77.65,-203.39L64.94,-170.34L65.87,-169.98L78.58,-203.03Z"/>
    <path d="M79.04,-203.28L65.84,-169.56L66.77,-169.20L79.97,-202.92Z"/>
    <path d="M80.12,-202.37L67.05,-169.58L67.98,-169.21L81.05,-202.00Z"/>
    <path d="M80.90,-200.74L68.55,-170.30L69.48,-169.92L81.83,-200.36Z"/>
    <path d="M81.35,-198.34L70.38,-171.77L71.30,-171.39L82.27,-197.96Z"/>
    <path d="M81.76,-195.92L72.24,-173.25L73.16,-172.87L82.68,-195.53Z"/>
    <path d="M81.75,-192.58L74.51,-175.63L75.43,-175.24L82.67,-192.19Z"/>
    <path d="M81.58,-188.98L76.93,-178.28L77.85,-177.88L82.50,-188.58Z"/>
    <path d="M81.23,-185.05L79.54,-181.22L80.45,-180.82L82.15,-184.65Z"/>
    <path d="M80.92,-181.32L82.10,-183.96L83.01,-183.55L81.83,-180.91Z"/>
    <path d="M80.56,-177.60L84.70,-186.67L85.61,-186.25L81.47,-177.18Z"/>
    <path d="M80.57,-174.78L86.92,-188.46L87.83,-188.04L81.48,-174.36Z"/>
    <path d="M80.78,-172.45L88.94,-189.76L89.84,-189.33L81.68,-172.03Z"/>
    <path d="M80.92,-170.05L91.02,-191.11L91.92,-190.68L81.82,-169.62Z"/>
    <path d="M81.50,-168.60L92.65,-191.50L93.55,-191.07L82.40,-168.16Z"/>
    <path d="M82.43,-167.88L93.93,-191.15L94.83,-190.70L83.33,-167.43Z"/>
    <path d="M83.82,-168.08L94.75,-189.85L95.64,-189.40L84.71,-167.63Z"/>
    <path d="M85.58,-169.00L95.18,-187.82L96.07,-187.37L86.47,-168.55Z"/>
    <path d="M87.62,-170.41L95.33,-185.31L96.22,-184.85L88.51,-169.95Z"/>
    <path d="M89.91,-172.23L95.22,-182.35L96.11,-181.89L90.79,-171.76Z"/>
    <path d="M92.52,-174.60L94.78,-178.84L95.67,-178.37L93.40,-174.13Z"/>
    <path d="M95.40,-177.37L94.07,-174.91L94.95,-174.43L96.28,-176.90Z"/>
    <path d="M98.26,-180.00L93.37,-171.11L94.25,-170.63L99.13,-179.52Z"/>
    <path d="M101.07,-182.47L92.71,-167.46L93.58,-166.97L101.95,-181.98Z"/>
    <path d="M103.86,-184.80L92.07,-163.93L92.94,-163.44L104.73,-184.31Z"/>
    <path d="M106.29,-186.41L91.78,-161.11L92.65,-160.61L107.15,-185.91Z"/>
    <path d="M108.61,-187.79L91.59,-158.51L92.45,-158.01L109.48,-187.28Z"/>
    <path d="M110.46,-188.31L91.86,-156.75L92.72,-156.25L111.33,-187.80Z"/>
    <path d="M111.80,-187.92L92.64,-155.89L93.50,-155.37L112.66,-187.41Z"/>
    <path d="M112.79,-186.97L93.76,-155.58L94.61,-155.06L113.64,-186.45Z"/>
    <path d="M113.29,-185.23L95.35,-156.05L96.20,-155.52L114.14,-184.70Z"/>
    <path d="M113.49,-183.03L97.24,-156.96L98.09,-156.43L114.34,-182.50Z"/>
    <path d="M113.15,-180.00L99.67,-158.68L100.52,-158.15L113.99,-179.47Z"/>
    <path d="M112.67,-176.84L102.23,-160.54L103.07,-160.00L113.51,-176.30Z"/>
    <path d="M111.70,-172.97L105.27,-163.07L106.11,-162.53L112.53,-172.43Z"/>
    <path d="M110.70,-169.16L108.33,-165.55L109.16,-165.00L111.54,-168.61Z"/>
    <path d="M109.74,-165.48L111.34,-167.88L112.17,-167.32L110.57,-164.92Z"/>
    <path d="M108.88,-162.03L114.24,-169.96L115.07,-169.40L109.71,-161.47Z"/>
    <path d="M108.21,-158.93L116.95,-171.69L117.77,-171.12L109.03,-158.36Z"/>
    <path d="M107.71,-156.14L119.47,-173.09L120.29,-172.52L108.53,-155.57Z"/>
    <path d="M107.69,-154.08L121.51,-173.74L122.33,-173.17L108.51,-153.51Z"/>
    <path d="M107.91,-152.40L123.30,-174.01L124.12,-173.43L108.72,-151.82Z"/>
    <path d="M108.83,-151.72L124.38,-173.27L125.19,-172.68L109.64,-151.13Z"/>
    <path d="M110.10,-151.52L125.10,-172.03L125.90,-171.44L110.91,-150.93Z"/>
    <path d="M111.87,-151.97L125.31,-170.13L126.12,-169.53L112.67,-151.37Z"/>
    <path d="M113.97,-152.83L125.19,-167.80L125.99,-167.20L114.77,-152.23Z"/>
    <path d="M116.40,-154.10L124.72,-165.06L125.52,-164.45L117.20,-153.49Z"/>
    <path d="M119.35,-155.99L123.73,-161.68L124.52,-161.08L120.14,-155.38Z"/>
    <path d="M122.69,-158.31L122.33,-157.86L123.12,-157.24L123.48,-157.70Z"/>
    <path d="M126.05,-160.58L120.92,-154.08L121.70,-153.46L126.83,-159.96Z"/>
    <path d="M129.24,-162.58L119.64,-150.56L120.43,-149.94L130.03,-161.95Z"/>
    <path d="M132.61,-164.71L118.20,-146.89L118.97,-146.26L133.39,-164.08Z"/>
    <path d="M135.04,-165.63L117.67,-144.43L118.45,-143.79L135.82,-165.00Z"/>
    <path d="M137.56,-166.61L117.06,-141.89L117.83,-141.25L138.33,-165.97Z"/>
    <path d="M139.52,-166.88L116.99,-140.05L117.75,-139.41L140.28,-166.23Z"/>
    <path d="M141.04,-166.60L117.35,-138.74L118.11,-138.10L141.80,-165.96Z"/>
    <path d="M142.09,-165.76L118.17,-137.99L118.93,-137.34L142.84,-165.11Z"/>
    <path d="M142.17,-163.82L119.95,-138.33L120.70,-137.68L142.92,-163.16Z"/>
    <path d="M141.87,-161.46L122.10,-139.07L122.85,-138.41L142.62,-160.80Z"/>
    <path d="M141.03,-158.55L124.78,-140.36L125.52,-139.69L141.78,-157.88Z"/>
    <path d="M140.19,-155.67L127.45,-141.60L128.19,-140.93L140.93,-155.00Z"/>
    <path d="M138.94,-152.41L130.52,-143.21L131.25,-142.54L139.68,-151.73Z"/>
    <path d="M137.53,-149.03L133.74,-144.93L134.47,-144.25L138.27,-148.35Z"/>
    <path d="M135.83,-145.40L137.24,-146.89L137.97,-146.21L136.56,-144.71Z"/>
    <path d="M134.39,-142.10L140.47,-148.50L141.20,-147.81L135.12,-141.42Z"/>
    <path d="M133.39,-139.33L143.26,-149.59L143.98,-148.89L134.11,-138.63Z"/>
    <path d="M132.30,-136.51L146.11,-150.70L146.83,-150.00L133.01,-135.81Z"/>
    <path d="M131.97,-134.52L148.20,-150.98L148.91,-150.27L132.68,-133.82Z"/>
    <path d="M132.01,-132.92L149.91,-150.85L150.62,-150.14L132.71,-132.21Z"/>
    <path d="M132.74,-132.02L150.92,-150.01L151.62,-149.30L133.44,-131.31Z"/>
    <path d="M133.81,-131.46L151.57,-148.82L152.27,-148.11L134.51,-130.75Z"/>
    <path d="M135.53,-131.52L151.57,-147.00L152.26,-146.28L136.23,-130.80Z"/>
    <path d="M137.86,-132.14L150.94,-144.62L151.63,-143.89L138.55,-131.42Z"/>
    <path d="M140.56,-133.07L149.94,-141.90L150.62,-141.17L141.25,-132.35Z"/>
    <path d="M143.92,-134.58L148.26,-138.61L148.94,-137.88L144.60,-133.84Z"/>
    <path d="M147.29,-136.03L146.56,-135.36L147.24,-134.62L147.97,-135.29Z"/>
    <path d="M150.94,-137.68L144.57,-131.90L145.24,-131.16L151.62,-136.94Z"/>
    <path d="M154.47,-139.15L142.70,-128.60L143.37,-127.86L155.13,-138.41Z"/>
    <path d="M157.73,-140.34L141.08,-125.59L141.74,-124.84L158.39,-139.59Z"/>
    <path d="M160.81,-141.31L139.62,-122.78L140.28,-122.03L161.47,-140.55Z"/>
    <path d="M163.22,-141.65L138.83,-120.58L139.48,-119.83L163.87,-140.90Z"/>
    <path d="M165.33,-141.71L138.32,-118.67L138.97,-117.91L165.98,-140.95Z"/>
    <path d="M166.70,-141.12L138.54,-117.39L139.19,-116.62L167.35,-140.35Z"/>
    <path d="M167.48,-140.01L139.35,-116.61L139.99,-115.84L168.12,-139.25Z"/>
    <path d="M167.75,-138.51L140.65,-116.23L141.28,-115.46L168.39,-137.73Z"/>
    <path d="M167.18,-136.32L142.77,-116.51L143.40,-115.74L167.81,-135.55Z"/>
    <path d="M166.04,-133.71L145.47,-117.22L146.09,-116.44L166.66,-132.93Z"/>
    <path d="M164.45,-130.78L148.59,-118.23L149.21,-117.44L165.07,-130.00Z"/>
    <path d="M162.26,-127.43L152.30,-119.65L152.92,-118.86L162.88,-126.65Z"/>
    <path d="M160.36,-124.37L155.71,-120.78L156.32,-119.99L160.97,-123.58Z"/>
    <path d="M158.31,-121.24L159.26,-121.96L159.87,-121.17L158.92,-120.44Z"/>
    <path d="M156.34,-118.22L162.72,-123.02L163.32,-122.23L156.94,-117.42Z"/>
    <path d="M154.53,-115.38L166.01,-123.91L166.61,-123.10L155.12,-114.57Z"/>
    <path d="M153.13,-112.88L168.88,-124.43L169.47,-123.62L153.72,-112.08Z"/>
    <path d="M152.14,-110.73L171.31,-124.60L171.90,-123.79L152.73,-109.92Z"/>
    <path d="M151.91,-109.14L172.99,-124.20L173.57,-123.38L152.49,-108.32Z"/>
    <path d="M152.26,-107.98L174.06,-123.35L174.64,-122.54L152.84,-107.17Z"/>
    <path d="M153.26,-107.28L174.48,-122.05L175.05,-121.23L153.83,-106.46Z"/>
    <path d="M155.11,-107.16L174.03,-120.15L174.59,-119.33L155.67,-106.33Z"/>
    <path d="M157.38,-107.30L173.14,-117.99L173.70,-117.16L157.94,-106.47Z"/>
    <path d="M160.52,-107.99L171.38,-115.26L171.94,-114.43L161.08,-107.16Z"/>
    <path d="M163.60,-108.60L169.67,-112.60L170.22,-111.77L164.15,-107.77Z"/>
    <path d="M167.05,-109.41L167.57,-109.75L168.12,-108.91L167.60,-108.57Z"/>
    <path d="M170.80,-110.36L165.16,-106.73L165.70,-105.89L171.34,-109.52Z"/>
    <path d="M174.63,-111.31L162.66,-103.72L163.19,-102.88L175.16,-110.46Z"/>
    <path d="M178.19,-112.04L160.41,-100.92L160.94,-100.07L178.72,-111.19Z"/>
    <path d="M181.77,-112.73L158.13,-98.14L158.66,-97.29L182.30,-111.88Z"/>
    <path d="M184.22,-112.68L156.97,-96.10L157.49,-95.24L184.74,-111.83Z"/>
    <path d="M186.17,-112.31L156.29,-94.37L156.81,-93.52L186.69,-111.45Z"/>
    <path d="M187.76,-111.69L155.97,-92.88L156.48,-92.02L188.27,-110.83Z"/>
    <path d="M188.12,-110.35L156.86,-92.11L157.36,-91.24L188.63,-109.49Z"/>
    <path d="M188.28,-108.89L157.94,-91.44L158.44,-90.57L188.78,-108.03Z"/>
    <path d="M187.34,-106.82L160.11,-91.38L160.60,-90.51L187.83,-105.95Z"/>
    <path d="M186.25,-104.70L162.41,-91.37L162.89,-90.50L186.74,-103.83Z"/>
    <path d="M184.09,-102.01L165.76,-91.91L166.24,-91.03L184.58,-101.14Z"/>
    <path d="M181.87,-99.33L169.17,-92.44L169.64,-91.56L182.35,-98.45Z"/>
    <path d="M179.17,-96.45L173.03,-93.16L173.50,-92.28L179.65,-95.57Z"/>
    <path d="M176.45,-93.60L176.92,-93.84L177.38,-92.96L176.92,-92.71Z"/>
    <path d="M174.05,-90.97L180.45,-94.30L180.92,-93.41L174.52,-90.08Z"/>
    <path d="M172.24,-88.69L183.40,-94.40L183.85,-93.51L172.70,-87.80Z"/>
    <path d="M170.49,-86.48L186.26,-94.42L186.71,-93.53L170.94,-85.58Z"/>
    <path d="M169.19,-84.52L188.67,-94.18L189.11,-93.29L169.64,-83.63Z"/>
    <path d="M168.79,-83.03L190.16,-93.47L190.60,-92.57L169.23,-82.13Z"/>
    <path d="M168.80,-81.75L191.23,-92.54L191.67,-91.64L169.23,-80.85Z"/>
    <path d="M169.73,-80.92L191.37,-91.16L191.79,-90.26L170.16,-80.01Z"/>
    <path d="M171.15,-80.30L191.00,-89.56L191.42,-88.65L171.57,-79.40Z"/>
    <path d="M173.40,-80.06L189.78,-87.57L190.20,-86.66L173.81,-79.15Z"/>
    <path d="M176.03,-79.96L188.18,-85.44L188.59,-84.53L176.44,-79.05Z"/>
    <path d="M179.42,-80.17L185.79,-82.99L186.20,-82.08L179.83,-79.25Z"/>
    <path d="M183.04,-80.43L183.16,-80.48L183.56,-79.57L183.44,-79.51Z"/>
    <path d="M187.04,-80.81L180.15,-77.85L180.55,-76.93L187.43,-79.89Z"/>
    <path d="M190.55,-80.93L177.60,-75.47L177.99,-74.55L190.94,-80.01Z"/>
    <path d="M194.25,-81.09L174.86,-73.05L175.25,-72.13L194.63,-80.16Z"/>
    <path d="M197.41,-80.98L172.64,-70.89L173.02,-69.96L197.79,-80.05Z"/>
    <path d="M200.32,-80.73L170.66,-68.86L171.03,-67.93L200.69,-79.80Z"/>
    <path d="M202.32,-80.10L169.56,-67.22L169.93,-66.28L202.69,-79.17Z"/>
    <path d="M203.31,-79.04L169.48,-65.98L169.84,-65.05L203.67,-78.11Z"/>
    <path d="M204.07,-77.90L169.60,-64.83L169.96,-63.90L204.42,-76.96Z"/>
    <path d="M203.21,-76.15L171.33,-64.29L171.68,-63.35L203.55,-75.21Z"/>
    <path d="M202.40,-74.44L172.99,-63.70L173.34,-62.76L202.74,-73.50Z"/>
    <path d="M200.60,-72.38L175.64,-63.44L175.97,-62.50L200.94,-71.44Z"/>
    <path d="M198.30,-70.19L178.77,-63.32L179.10,-62.38L198.63,-69.24Z"/>
    <path d="M195.84,-67.97L182.04,-63.22L182.36,-62.27L196.16,-67.03Z"/>
    <path d="M192.73,-65.58L185.95,-63.29L186.27,-62.34L193.04,-64.63Z"/>
    <path d="M189.47,-63.19L189.98,-63.35L190.30,-62.40L189.79,-62.24Z"/>
    <path d="M186.78,-61.02L193.45,-63.18L193.76,-62.23L187.09,-60.07Z"/>
    <path d="M183.95,-58.86L197.03,-63.01L197.34,-62.06L184.25,-57.91Z"/>
    <path d="M182.39,-57.13L199.34,-62.40L199.64,-61.44L182.68,-56.18Z"/>
    <path d="M180.53,-55.34L201.93,-61.84L202.22,-60.88L180.82,-54.38Z"/>
    <path d="M179.78,-53.91L203.39,-60.92L203.67,-59.96L180.06,-52.95Z"/>
    <path d="M179.45,-52.61L204.41,-59.86L204.69,-58.90L179.73,-51.65Z"/>
    <path d="M179.90,-51.55L204.65,-58.57L204.92,-57.60L180.17,-50.59Z"/>
    <path d="M181.72,-50.86L203.49,-56.89L203.76,-55.93L181.99,-49.90Z"/>
    <path d="M183.35,-50.10L202.52,-55.28L202.78,-54.32L183.61,-49.13Z"/>
    <path d="M186.20,-49.64L200.31,-53.37L200.57,-52.40L186.45,-48.68Z"/>
    <path d="M189.07,-49.16L198.06,-51.47L198.31,-50.51L189.32,-48.19Z"/>
    <path d="M193.21,-48.96L194.54,-49.29L194.78,-48.32L193.45,-47.99Z"/>
    <path d="M196.82,-48.58L191.53,-47.29L191.76,-46.32L197.05,-47.61Z"/>
    <path d="M200.83,-48.26L188.09,-45.23L188.32,-44.26L201.06,-47.28Z"/>
    <path d="M204.51,-47.81L184.98,-43.29L185.20,-42.31L204.74,-46.83Z"/>
    <path d="M207.47,-47.15L182.57,-41.55L182.79,-40.58L207.69,-46.17Z"/>
    <path d="M210.23,-46.41L180.35,-39.89L180.56,-38.91L210.45,-45.44Z"/>
    <path d="M212.15,-45.47L178.96,-38.43L179.16,-37.46L212.35,-44.49Z"/>
    <path d="M213.79,-44.45L177.82,-37.05L178.02,-36.07L214.00,-43.47Z"/>
    <path d="M213.87,-43.09L178.23,-36.00L178.43,-35.02L214.07,-42.11Z"/>
    <path d="M213.62,-41.68L178.96,-35.00L179.15,-34.02L213.81,-40.70Z"/>
    <path d="M211.98,-40.01L181.07,-34.26L181.25,-33.27L212.16,-39.03Z"/>
    <path d="M209.79,-38.28L183.71,-33.58L183.88,-32.60L209.97,-37.29Z"/>
    <path d="M207.60,-36.57L186.33,-32.87L186.50,-31.89L207.77,-35.58Z"/>
    <path d="M204.57,-34.75L189.78,-32.27L189.94,-31.28L204.74,-33.76Z"/>
    <path d="M201.47,-32.96L193.28,-31.64L193.44,-30.65L201.63,-31.97Z"/>
    <path d="M198.19,-31.18L196.95,-30.99L197.10,-30.00L198.35,-30.19Z"/>
    <path d="M194.99,-29.46L200.52,-30.28L200.67,-29.29L195.14,-28.47Z"/>
    <path d="M192.04,-27.82L203.83,-29.49L203.97,-28.50L192.18,-26.83Z"/>
    <path d="M189.86,-26.32L206.36,-28.56L206.50,-27.57L189.99,-25.32Z"/>
    <path d="M187.73,-24.85L208.82,-27.59L208.95,-26.60L187.86,-23.86Z"/>
    <path d="M186.70,-23.55L210.16,-26.45L210.28,-25.46L186.82,-22.56Z"/>
    <path d="M185.75,-22.28L211.41,-25.29L211.53,-24.29L185.87,-21.29Z"/>
    <path d="M186.36,-21.19L211.09,-23.94L211.20,-22.94L186.47,-20.20Z"/>
    <path d="M187.52,-20.15L210.20,-22.53L210.30,-21.54L187.63,-19.16Z"/>
    <path d="M189.40,-19.18L208.57,-21.07L208.67,-20.07L189.50,-18.18Z"/>
    <path d="M191.94,-18.24L206.27,-19.56L206.36,-18.56L192.03,-17.24Z"/>
    <path d="M195.06,-17.32L203.37,-18.03L203.46,-17.04L195.15,-16.32Z"/>
    <path d="M198.52,-16.39L200.13,-16.51L200.21,-15.52L198.60,-15.39Z"/>
    <path d="M202.14,-15.43L196.70,-15.03L196.77,-14.03L202.21,-14.43Z"/>
    <path d="M205.89,-14.43L193.13,-13.57L193.20,-12.57L205.95,-13.43Z"/>
    <path d="M208.77,-13.34L190.41,-12.21L190.48,-11.21L208.83,-12.34Z"/>
    <path d="M211.91,-12.23L187.42,-10.87L187.48,-9.87L211.96,-11.23Z"/>
    <path d="M214.39,-11.04L185.08,-9.60L185.12,-8.60L214.44,-10.04Z"/>
    <path d="M216.20,-9.80L183.39,-8.39L183.43,-7.39L216.24,-8.80Z"/>
    <path d="M217.25,-8.51L182.44,-7.23L182.48,-6.23L217.28,-7.51Z"/>
    <path d="M217.34,-7.18L182.44,-6.10L182.47,-5.11L217.37,-6.18Z"/>
    <path d="M216.65,-5.82L183.20,-5.00L183.23,-4.00L216.68,-4.82Z"/>
    <path d="M215.52,-4.47L184.39,-3.90L184.41,-2.90L215.54,-3.47Z"/>
    <path d="M213.22,-3.12L186.74,-2.79L186.75,-1.79L213.23,-2.12Z"/>
    <path d="M210.34,-1.79L189.65,-1.66L189.65,-0.66L210.34,-0.79Z"/>
</svg>