<?xml version="1.0"?>
<svg xmlns="http://www.w3.org/2000/svg" width="1000" height="1000" viewBox="-500 -500 1000 1000">
    <path d="M-500,-500L500,-500L500,500L-500,500Z" fill="none"/>
    <g>
        <path d="M-533,-550L-467,-550L-467,-537L-533,-537Z" fill="#ffffff"/>
        <path d="M-536.40,-532.60L-463.60,-532.60L-463.60,-519.60L-536.40,-519.60Z" fill="#cccccc"/>
        <path d="M-539.80,-515.20L-460.20,-515.20L-460.20,-502.20L-539.80,-502.20Z" fill="#999999"/>
        <path d="M-543.20,-497.80L-456.80,-497.80L-456.80,-484.80L-543.20,-484.80Z" fill="#666666"/>
        <path d="M-546.60,-480.40L-453.40,-480.40L-453.40,-467.40L-546.60,-467.40Z" fill="#333333"/>
        <path d="M-550,-463L-450,-463L-450,-450L-550,-450Z"/>
    </g>
    <g>
        <path d="M-333,-550L-267,-550L-267,-537L-333,-537Z" fill="#ffffff"/>
        <path d="M-336.40,-532.60L-263.60,-532.60L-263.60,-519.60L-336.40,-519.60Z" fill="#cccccc"/>
        <path d="M-339.80,-515.20L-260.20,-515.20L-260.20,-502.20L-339.80,-502.20Z" fill="#999999"/>
        <path d="M-343.20,-497.80L-256.80,-497.80L-256.80,-484.80L-343.20,-484.80Z" fill="#666666"/>
        <path d="M-346.60,-480.40L-253.40,-480.40L-253.40,-467.40L-346.60,-467.40Z" fill="#333333"/>
        <path d="M-350,-463L-250,-463L-250,-450L-350,-450Z"/>
    </g>
    <g>
        <path d="M-133,-550L-67,-550L-67,-537L-133,-537Z" fill="#ffffff"/>
        <path d="M-136.40,-532.60L-63.60,-532.60L-63.60,-519.60L-136.40,-519.60Z" fill="#cccccc"/>
        <path d="M-139.80,-515.20L-60.20,-515.20L-60.20,-502.20L-139.80,-502.20Z" fill="#999999"/>
        <path d="M-143.20,-497.80L-56.80,-497.80L-56.80,-484.80L-143.20,-484.80Z" fill="#666666"/>
        <path d="M-146.60,-480.40L-53.40,-480.40L-53.40,-467.40L-146.60,-467.40Z" fill="#333333"/>
        <path d="M-150,-463L-50,-463L-50,-450L-150,-450Z"/>
    </g>
    <g>
        <path d="M67,-550L133,-550L133,-537L67,-537Z" fill="#ffffff"/>
        <path d="M63.60,-532.60L136.40,-532.60L136.40,-519.60L63.60,-519.60Z" fill="#cccccc"/>
        <path d="M60.20,-515.20L139.80,-515.20L139.80,-502.20L60.20,-502.20Z" fill="#999999"/>
        <path d="M56.80,-497.80L143.20,-497.80L143.20,-484.80L56.80,-484.80Z" fill="#666666"/>
        <path d="M53.40,-480.40L146.60,-480.40L146.60,-467.40L53.40,-467.40Z" fill="#333333"/>
        <path d="M50,-463L150,-463L150,-450L50,-450Z"/>
    </g>
    <g>
        <path d="M267,-550L333,-550L333,-537L267,-537Z" fill="#ffffff"/>
        <path d="M263.60,-532.60L336.40,-532.60L336.40,-519.60L263.60,-519.60Z" fill="#cccccc"/>
        <path d="M260.20,-515.20L339.80,-515.20L339.80,-502.20L260.20,-502.20Z" fill="#999999"/>
        <path d="M256.80,-497.80L343.20,-497.80L343.20,-484.80L256.80,-484.80Z" fill="#666666"/>
        <path d="M253.40,-480.40L346.60,-480.40L346.60,-467.40L253.40,-467.40Z" fill="#333333"/>
        <path d="M250,-463L350,-463L350,-450L250,-450Z"/>
    </g>
    <g>
        <path d="M467,-550L533,-550L533,-537L467,-537Z" fill="#ffffff"/>
        <path d="M463.60,-532.60L536.40,-532.60L536.40,-519.60L463.60,-519.60Z" fill="#cccccc"/>
        <path d="M460.20,-515.20L539.80,-515.20L539.80,-502.20L460.20,-502.20Z" fill="#999999"/>
        <path d="M456.80,-497.80L543.20,-497.80L543.20,-484.80L456.80,-484.80Z" fill="#666666"/>
        <path d="M453.40,-480.40L546.60,-480.40L546.60,-467.40L453.40,-467.40Z" fill="#333333"/>
        <path d="M450,-463L550,-463L550,-450L450,-450Z"/>
    </g>
    <g>
        <path d="M-433,-450L-367,-450L-367,-437L-433,-437Z" fill="#ffffff"/>
        <path d="M-436.40,-432.60L-363.60,-432.60L-363.60,-419.60L-436.40,-419.60Z" fill="#cccccc"/>
        <path d="M-439.80,-415.20L-360.20,-415.20L-360.20,-402.20L-439.80,-402.20Z" fill="#999999"/>
        <path d="M-443.20,-397.80L-356.80,-397.80L-356.80,-384.80L-443.20,-384.80Z" fill="#666666"/>
        <path d="M-446.60,-380.40L-353.40,-380.40L-353.40,-367.40L-446.60,-367.40Z" fill="#333333"/>
        <path d="M-450,-363L-350,-363L-350,-350L-450,-350Z"/>
    </g>
    <g>
        <path d="M-233,-450L-167,-450L-167,-437L-233,-437Z" fill="#ffffff"/>
        <path d="M-236.40,-432.60L-163.60,-432.60L-163.60,-419.60L-236.40,-419.60Z" fill="#cccccc"/>
        <path d="M-239.80,-415.20L-160.20,-415.20L-160.20,-402.20L-239.80,-402.20Z" fill="#999999"/>
        <path d="M-243.20,-397.80L-156.80,-397.80L-156.80,-384.80L-243.20,-384.80Z" fill="#666666"/>
        <path d="M-246.60,-380.40L-153.40,-380.40L-153.40,-367.40L-246.60,-367.40Z" fill="#333333"/>
        <path d="M-250,-363L-150,-363L-150,-350L-250,-350Z"/>
    </g>
    <g>
        <path d="M-33,-450L33,-450L33,-437L-33,-437Z" fill="#ffffff"/>
        <path d="M-36.40,-432.60L36.40,-432.60L36.40,-419.60L-36.40,-419.60Z" fill="#cccccc"/>
        <path d="M-39.80,-415.20L39.80,-415.20L39.80,-402.20L-39.80,-402.20Z" fill="#999999"/>
        <path d="M-43.20,-397.80L43.20,-397.80L43.20,-384.80L-43.20,-384.80Z" fill="#666666"/>
        <path d="M-46.60,-380.40L46.60,-380.40L46.60,-367.40L-46.60,-367.40Z" fill="#333333"/>
        <path d="M-50,-363L50,-363L50,-350L-50,-350Z"/>
    </g>
    <g>
        <path d="M167,-450L233,-450L233,-437L167,-437Z" fill="#ffffff"/>
        <path d="M163.60,-432.60L236.40,-432.60L236.40,-419.60L163.60,-419.60Z" fill="#cccccc"/>
        <path d="M160.20,-415.20L239.80,-415.20L239.80,-402.20L160.20,-402.20Z" fill="#999999"/>
        <path d="M156.80,-397.80L243.20,-397.80L243.20,-384.80L156.80,-384.80Z" fill="#666666"/>
        <path d="M153.40,-380.40L246.60,-380.40L246.60,-367.40L153.40,-367.40Z" fill="#333333"/>
        <path d="M150,-363L250,-363L250,-350L150,-350Z"/>
    </g>
    <g>
        <path d="M367,-450L433,-450L433,-437L367,-437Z" fill="#ffffff"/>
        <path d="M363.60,-432.60L436.40,-432.60L436.40,-419.60L363.60,-419.60Z" fill="#cccccc"/>
        <path d="M360.20,-415.20L439.80,-415.20L439.80,-402.20L360.20,-402.20Z" fill="#999999"/>
        <path d="M356.80,-397.80L443.20,-397.80L443.20,-384.80L356.80,-384.80Z" fill="#666666"/>
        <path d="M353.40,-380.40L446.60,-380.40L446.60,-367.40L353.40,-367.40Z" fill="#333333"/>
        <path d="M350,-363L450,-363L450,-350L350,-350Z"/>
    </g>
    <g>
        <path d="M-533,-350L-467,-350L-467,-337L-533,-337Z" fill="#ffffff"/>
        <path d="M-536.40,-332.60L-463.60,-332.60L-463.60,-319.60L-536.40,-319.60Z" fill="#cccccc"/>
        <path d="M-539.80,-315.20L-460.20,-315.20L-460.20,-302.20L-539.80,-302.20Z" fill="#999999"/>
        <path d="M-543.20,-297.80L-456.80,-297.80L-456.80,-284.80L-543.20,-284.80Z" fill="#666666"/>
        <path d="M-546.60,-280.40L-453.40,-280.40L-453.40,-267.40L-546.60,-267.40Z" fill="#333333"/>
        <path d="M-550,-263L-450,-263L-450,-250L-550,-250Z"/>
    </g>
    <g>
        <path d="M-333,-350L-267,-350L-267,-337L-333,-337Z" fill="#ffffff"/>
        <path d="M-336.40,-332.60L-263.60,-332.60L-263.60,-319.60L-336.40,-319.60Z" fill="#cccccc"/>
        <path d="M-339.80,-315.20L-260.20,-315.20L-260.20,-302.20L-339.80,-302.20Z" fill="#999999"/>
        <path d="M-343.20,-297.80L-256.80,-297.80L-256.80,-284.80L-343.20,-284.80Z" fill="#666666"/>
        <path d="M-346.60,-280.40L-253.40,-280.40L-253.40,-267.40L-346.60,-267.40Z" fill="#333333"/>
        <path d="M-350,-263L-250,-263L-250,-250L-350,-250Z"/>
    </g>
    <g>
        <path d="M-133,-350L-67,-350L-67,-337L-133,-337Z" fill="#ffffff"/>
        <path d="M-136.40,-332.60L-63.60,-332.60L-63.60,-319.60L-136.40,-319.60Z" fill="#cccccc"/>
        <path d="M-139.80,-315.20L-60.20,-315.20L-60.20,-302.20L-139.80,-302.20Z" fill="#999999"/>
        <path d="M-143.20,-297.80L-56.80,-297.80L-56.80,-284.80L-143.20,-284.80Z" fill="#666666"/>
        <path d="M-146.60,-280.40L-53.40,-280.40L-53.40,-267.40L-146.60,-267.40Z" fill="#333333"/>
        <path d="M-150,-263L-50,-263L-50,-250L-150,-250Z"/>
    </g>
    <g>
        <path d="M67,-350L133,-350L133,-337L67,-337Z" fill="#ffffff"/>
        <path d="M63.60,-332.60L136.40,-332.60L136.40,-319.60L63.60,-319.60Z" fill="#cccccc"/>
        <path d="M60.20,-315.20L139.80,-315.20L139.80,-302.20L60.20,-302.20Z" fill="#999999"/>
        <path d="M56.80,-297.80L143.20,-297.80L143.20,-284.80L56.80,-284.80Z" fill="#666666"/>
        <path d="M53.40,-280.40L146.60,-280.40L146.60,-267.40L53.40,-267.40Z" fill="#333333"/>
        <path d="M50,-263L150,-263L150,-250L50,-250Z"/>
    </g>
    <g>
        <path d="M267,-350L333,-350L333,-337L267,-337Z" fill="#ffffff"/>
        <path d="M263.60,-332.60L336.40,-332.60L336.40,-319.60L263.60,-319.60Z" fill="#cccccc"/>
        <path d="M260.20,-315.20L339.80,-315.20L339.80,-302.20L260.20,-302.20Z" fill="#999999"/>
        <path d="M256.80,-297.80L343.20,-297.80L343.20,-284.80L256.80,-284.80Z" fill="#666666"/>
        <path d="M253.40,-280.40L346.60,-280.40L346.60,-267.40L253.40,-267.40Z" fill="#333333"/>
        <path d="M250,-263L350,-263L350,-250L250,-250Z"/>
    </g>
    <g>
        <path d="M467,-350L533,-350L533,-337L467,-337Z" fill="#ffffff"/>
        <path d="M463.60,-332.60L536.40,-332.60L536.40,-319.60L463.60,-319.60Z" fill="#cccccc"/>
        <path d="M460.20,-315.20L539.80,-315.20L539.80,-302.20L460.20,-302.20Z" fill="#999999"/>
        <path d="M456.80,-297.80L543.20,-297.80L543.20,-284.80L456.80,-284.80Z" fill="#666666"/>
        <path d="M453.40,-280.40L546.60,-280.40L546.60,-267.40L453.40,-267.40Z" fill="#333333"/>
        <path d="M450,-263L550,-263L550,-250L450,-250Z"/>
    </g>
    <g>
        <path d="M-433,-250L-367,-250L-367,-237L-433,-237Z" fill="#ffffff"/>
        <path d="M-436.40,-232.60L-363.60,-232.60L-363.60,-219.60L-436.40,-219.60Z" fill="#cccccc"/>
        <path d="M-439.80,-215.20L-360.20,-215.20L-360.20,-202.20L-439.80,-202.20Z" fill="#999999"/>
        <path d="M-443.20,-197.80L-356.80,-197.80L-356.80,-184.80L-443.20,-184.80Z" fill="#666666"/>
        <path d="M-446.60,-180.40L-353.40,-180.40L-353.40,-167.40L-446.60,-167.40Z" fill="#333333"/>
        <path d="M-450,-163L-350,-163L-350,-150L-450,-150Z"/>
    </g>
    <g>
        <path d="M-233,-250L-167,-250L-167,-237L-233,-237Z" fill="#ffffff"/>
        <path d="M-236.40,-232.60L-163.60,-232.60L-163.60,-219.60L-236.40,-219.60Z" fill="#cccccc"/>
        <path d="M-239.80,-215.20L-160.20,-215.20L-160.20,-202.20L-239.80,-202.20Z" fill="#999999"/>
        <path d="M-243.20,-197.80L-156.80,-197.80L-156.80,-184.80L-243.20,-184.80Z" fill="#666666"/>
        <path d="M-246.60,-180.40L-153.40,-180.40L-153.40,-167.40L-246.60,-167.40Z" fill="#333333"/>
        <path d="M-250,-163L-150,-163L-150,-150L-250,-150Z"/>
    </g>
    <g>
        <path d="M-33,-250L33,-250L33,-237L-33,-237Z" fill="#ffffff"/>
        <path d="M-36.40,-232.60L36.40,-232.60L36.40,-219.60L-36.40,-219.60Z" fill="#cccccc"/>
        <path d="M-39.80,-215.20L39.80,-215.20L39.80,-202.20L-39.80,-202.20Z" fill="#999999"/>
        <path d="M-43.20,-197.80L43.20,-197.80L43.20,-184.80L-43.20,-184.80Z" fill="#666666"/>
        <path d="M-46.60,-180.40L46.60,-180.40L46.60,-167.40L-46.60,-167.40Z" fill="#333333"/>
        <path d="M-50,-163L50,-163L50,-150L-50,-150Z"/>
    </g>
    <g>
        <path d="M167,-250L233,-250L233,-237L167,-237Z" fill="#ffffff"/>
        <path d="M163.60,-232.60L236.40,-232.60L236.40,-219.60L163.60,-219.60Z" fill="#cccccc"/>
        <path d="M160.20,-215.20L239.80,-215.20L239.80,-202.20L160.20,-202.20Z" fill="#999999"/>
        <path d="M156.80,-197.80L243.20,-197.80L243.20,-184.80L156.80,-184.80Z" fill="#666666"/>
        <path d="M153.40,-180.40L246.60,-180.40L246.60,-167.40L153.40,-167.40Z" fill="#333333"/>
        <path d="M150,-163L250,-163L250,-150L150,-150Z"/>
    </g>
    <g>
        <path d="M367,-250L433,-250L433,-237L367,-237Z" fill="#ffffff"/>
        <path d="M363.60,-232.60L436.40,-232.60L436.40,-219.60L363.60,-219.60Z" fill="#cccccc"/>
        <path d="M360.20,-215.20L439.80,-215.20L439.80,-202.20L360.20,-202.20Z" fill="#999999"/>
        <path d="M356.80,-197.80L443.20,-197.80L443.20,-184.80L356.80,-184.80Z" fill="#666666"/>
        <path d="M353.40,-180.40L446.60,-180.40L446.60,-167.40L353.40,-167.40Z" fill="#333333"/>
        <path d="M350,-163L450,-163L450,-150L350,-150Z"/>
    </g>
    <g>
        <path d="M-533,-150L-467,-150L-467,-137L-533,-137Z" fill="#ffffff"/>
        <path d="M-536.40,-132.60L-463.60,-132.60L-463.60,-119.60L-536.40,-119.60Z" fill="#cccccc"/>
        <path d="M-539.80,-115.20L-460.20,-115.20L-460.20,-102.20L-539.80,-102.20Z" fill="#999999"/>
        <path d="M-543.20,-97.80L-456.80,-97.80L-456.80,-84.80L-543.20,-84.80Z" fill="#666666"/>
        <path d="M-546.60,-80.40L-453.40,-80.40L-453.40,-67.40L-546.60,-67.40Z" fill="#333333"/>
        <path d="M-550,-63L-450,-63L-450,-50L-550,-50Z"/>
    </g>
    <g>
        <path d="M-333,-150L-267,-150L-267,-137L-333,-137Z" fill="#ffffff"/>
        <path d="M-336.40,-132.60L-263.60,-132.60L-263.60,-119.60L-336.40,-119.60Z" fill="#cccccc"/>
        <path d="M-339.80,-115.20L-260.20,-115.20L-260.20,-102.20L-339.80,-102.20Z" fill="#999999"/>
        <path d="M-343.20,-97.80L-256.80,-97.80L-256.80,-84.80L-343.20,-84.80Z" fill="#666666"/>
        <path d="M-346.60,-80.40L-253.40,-80.40L-253.40,-67.40L-346.60,-67.40Z" fill="#333333"/>
        <path d="M-350,-63L-250,-63L-250,-50L-350,-50Z"/>
    </g>
    <g>
        <path d="M-133,-150L-67,-150L-67,-137L-133,-137Z" fill="#ffffff"/>
        <path d="M-136.40,-132.60L-63.60,-132.60L-63.60,-119.60L-136.40,-119.60Z" fill="#cccccc"/>
        <path d="M-139.80,-115.20L-60.20,-115.20L-60.20,-102.20L-139.80,-102.20Z" fill="#999999"/>
        <path d="M-143.20,-97.80L-56.80,-97.80L-56.80,-84.80L-143.20,-84.80Z" fill="#666666"/>
        <path d="M-146.60,-80.40L-53.40,-80.40L-53.40,-67.40L-146.60,-67.40Z" fill="#333333"/>
        <path d="M-150,-63L-50,-63L-50,-50L-150,-50Z"/>
    </g>
    <g>
        <path d="M67,-150L133,-150L133,-137L67,-137Z" fill="#ffffff"/>
        <path d="M63.60,-132.60L136.40,-132.60L136.40,-119.60L63.60,-119.60Z" fill="#cccccc"/>
        <path d="M60.20,-115.20L139.80,-115.20L139.80,-102.20L60.20,-102.20Z" fill="#999999"/>
        <path d="M56.80,-97.80L143.20,-97.80L143.20,-84.80L56.80,-84.80Z" fill="#666666"/>
        <path d="M53.40,-80.40L146.60,-80.40L146.60,-67.40L53.40,-67.40Z" fill="#333333"/>
        <path d="M50,-63L150,-63L150,-50L50,-50Z"/>
    </g>
    <g>
        <path d="M267,-150L333,-150L333,-137L267,-137Z" fill="#ffffff"/>
        <path d="M263.60,-132.60L336.40,-132.60L336.40,-119.60L263.60,-119.60Z" fill="#cccccc"/>
        <path d="M260.20,-115.20L339.80,-115.20L339.80,-102.20L260.20,-102.20Z" fill="#999999"/>
        <path d="M256.80,-97.80L343.20,-97.80L343.20,-84.80L256.80,-84.80Z" fill="#666666"/>
        <path d="M253.40,-80.40L346.60,-80.40L346.60,-67.40L253.40,-67.40Z" fill="#333333"/>
        <path d="M250,-63L350,-63L350,-50L250,-50Z"/>
    </g>
    <g>
        <path d="M467,-150L533,-150L533,-137L467,-137Z" fill="#ffffff"/>
        <path d="M463.60,-132.60L536.40,-132.60L536.40,-119.60L463.60,-119.60Z" fill="#cccccc"/>
        <path d="M460.20,-115.20L539.80,-115.20L539.80,-102.20L460.20,-102.20Z" fill="#999999"/>
        <path d="M456.80,-97.80L543.20,-97.80L543.20,-84.80L456.80,-84.80Z" fill="#666666"/>
        <path d="M453.40,-80.40L546.60,-80.40L546.60,-67.40L453.40,-67.40Z" fill="#333333"/>
        <path d="M450,-63L550,-63L550,-50L450,-50Z"/>
    </g>
    <g>
        <path d="M-433,-50L-367,-50L-367,-37L-433,-37Z" fill="#ffffff"/>
        <path d="M-436.40,-32.60L-363.60,-32.60L-363.60,-19.60L-436.40,-19.60Z" fill="#cccccc"/>
        <path d="M-439.80,-15.20L-360.20,-15.20L-360.20,-2.20L-439.80,-2.20Z" fill="#999999"/>
        <path d="M-443.20,2.20L-356.80,2.20L-356.80,15.20L-443.20,15.20Z" fill="#666666"/>
        <path d="M-446.60,19.60L-353.40,19.60L-353.40,32.60L-446.60,32.60Z" fill="#333333"/>
        <path d="M-450,37L-350,37L-350,50L-450,50Z"/>
    </g>
    <g>
        <path d="M-233,-50L-167,-50L-167,-37L-233,-37Z" fill="#ffffff"/>
        <path d="M-236.40,-32.60L-163.60,-32.60L-163.60,-19.60L-236.40,-19.60Z" fill="#cccccc"/>
        <path d="M-239.80,-15.20L-160.20,-15.20L-160.20,-2.20L-239.80,-2.20Z" fill="#999999"/>
        <path d="M-243.20,2.20L-156.80,2.20L-156.80,15.20L-243.20,15.20Z" fill="#666666"/>
        <path d="M-246.60,19.60L-153.40,19.60L-153.40,32.60L-246.60,32.60Z" fill="#333333"/>
        <path d="M-250,37L-150,37L-150,50L-250,50Z"/>
    </g>
    <g>
        <path d="M-33,-50L33,-50L33,-37L-33,-37Z" fill="#ffffff"/>
        <path d="M-36.40,-32.60L36.40,-32.60L36.40,-19.60L-36.40,-19.60Z" fill="#cccccc"/>
        <path d="M-39.80,-15.20L39.80,-15.20L39.80,-2.20L-39.80,-2.20Z" fill="#999999"/>
        <path d="M-43.20,2.20L43.20,2.20L43.20,15.20L-43.20,15.20Z" fill="#666666"/>
        <path d="M-46.60,19.60L46.60,19.60L46.60,32.60L-46.60,32.60Z" fill="#333333"/>
        <path d="M-50,37L50,37L50,50L-50,50Z"/>
    </g>
    <g>
        <path d="M167,-50L233,-50L233,-37L167,-37Z" fill="#ffffff"/>
        <path d="M163.60,-32.60L236.40,-32.60L236.40,-19.60L163.60,-19.60Z" fill="#cccccc"/>
        <path d="M160.20,-15.20L239.80,-15.20L239.80,-2.20L160.20,-2.20Z" fill="#999999"/>
        <path d="M156.80,2.20L243.20,2.20L243.20,15.20L156.80,15.20Z" fill="#666666"/>
        <path d="M153.40,19.60L246.60,19.60L246.60,32.60L153.40,32.60Z" fill="#333333"/>
        <path d="M150,37L250,37L250,50L150,50Z"/>
    </g>
    <g>
        <path d="M367,-50L433,-50L433,-37L367,-37Z" fill="#ffffff"/>
        <path d="M363.60,-32.60L436.40,-32.60L436.40,-19.60L363.60,-19.60Z" fill="#cccccc"/>
        <path d="M360.20,-15.20L439.80,-15.20L439.80,-2.20L360.20,-2.20Z" fill="#999999"/>
        <path d="M356.80,2.20L443.20,2.20L443.20,15.20L356.80,15.20Z" fill="#666666"/>
        <path d="M353.40,19.60L446.60,19.60L446.60,32.60L353.40,32.60Z" fill="#333333"/>
        <path d="M350,37L450,37L450,50L350,50Z"/>
    </g>
    <g>
        <path d="M-533,50L-467,50L-467,63L-533,63Z" fill="#ffffff"/>
        <path d="M-536.40,67.40L-463.60,67.40L-463.60,80.40L-536.40,80.40Z" fill="#cccccc"/>
        <path d="M-539.80,84.80L-460.20,84.80L-460.20,97.80L-539.80,97.80Z" fill="#999999"/>
        <path d="M-543.20,102.20L-456.80,102.20L-456.80,115.20L-543.20,115.20Z" fill="#666666"/>
        <path d="M-546.60,119.60L-453.40,119.60L-453.40,132.60L-546.60,132.60Z" fill="#333333"/>
        <path d="M-550,137L-450,137L-450,150L-550,150Z"/>
    </g>
    <g>
        <path d="M-333,50L-267,50L-267,63L-333,63Z" fill="#ffffff"/>
        <path d="M-336.40,67.40L-263.60,67.40L-263.60,80.40L-336.40,80.40Z" fill="#cccccc"/>
        <path d="M-339.80,84.80L-260.20,84.80L-260.20,97.80L-339.80,97.80Z" fill="#999999"/>
        <path d="M-343.20,102.20L-256.80,102.20L-256.80,115.20L-343.20,115.20Z" fill="#666666"/>
        <path d="M-346.60,119.60L-253.40,119.60L-253.40,132.60L-346.60,132.60Z" fill="#333333"/>
        <path d="M-350,137L-250,137L-250,150L-350,150Z"/>
    </g>
    <g>
        <path d="M-133,50L-67,50L-67,63L-133,63Z" fill="#ffffff"/>
        <path d="M-136.40,67.40L-63.60,67.40L-63.60,80.40L-136.40,80.40Z" fill="#cccccc"/>
        <path d="M-139.80,84.80L-60.20,84.80L-60.20,97.80L-139.80,97.80Z" fill="#999999"/>
        <path d="M-143.20,102.20L-56.80,102.20L-56.80,115.20L-143.20,115.20Z" fill="#666666"/>
        <path d="M-146.60,119.60L-53.40,119.60L-53.40,132.60L-146.60,132.60Z" fill="#333333"/>
        <path d="M-150,137L-50,137L-50,150L-150,150Z"/>
    </g>
    <g>
        <path d="M67,50L133,50L133,63L67,63Z" fill="#ffffff"/>
        <path d="M63.60,67.40L136.40,67.40L136.40,80.40L63.60,80.40Z" fill="#cccccc"/>
        <path d="M60.20,84.80L139.80,84.80L139.80,97.80L60.20,97.80Z" fill="#999999"/>
        <path d="M56.80,102.20L143.20,102.20L143.20,115.20L56.80,115.20Z" fill="#666666"/>
        <path d="M53.40,119.60L146.60,119.60L146.60,132.60L53.40,132.60Z" fill="#333333"/>
        <path d="M50,137L150,137L150,150L50,150Z"/>
    </g>
    <g>
        <path d="M267,50L333,50L333,63L267,63Z" fill="#ffffff"/>
        <path d="M263.60,67.40L336.40,67.40L336.40,80.40L263.60,80.40Z" fill="#cccccc"/>
        <path d="M260.20,84.80L339.80,84.80L339.80,97.80L260.20,97.80Z" fill="#999999"/>
        <path d="M256.80,102.20L343.20,102.20L343.20,115.20L256.80,115.20Z" fill="#666666"/>
        <path d="M253.40,119.60L346.60,119.60L346.60,132.60L253.40,132.60Z" fill="#333333"/>
        <path d="M250,137L350,137L350,150L250,150Z"/>
    </g>
    <g>
        <path d="M467,50L533,50L533,63L467,63Z" fill="#ffffff"/>
        <path d="M463.60,67.40L536.40,67.40L536.40,80.40L463.60,80.40Z" fill="#cccccc"/>
        <path d="M460.20,84.80L539.80,84.80L539.80,97.80L460.20,97.80Z" fill="#999999"/>
        <path d="M456.80,102.20L543.20,102.20L543.20,115.20L456.80,115.20Z" fill="#666666"/>
        <path d="M453.40,119.60L546.60,119.60L546.60,132.60L453.40,132.60Z" fill="#333333"/>
        <path d="M450,137L550,137L550,150L450,150Z"/>
    </g>
    <g>
        <path d="M-433,150L-367,150L-367,163L-433,163Z" fill="#ffffff"/>
        <path d="M-436.40,167.40L-363.60,167.40L-363.60,180.40L-436.40,180.40Z" fill="#cccccc"/>
        <path d="M-439.80,184.80L-360.20,184.80L-360.20,197.80L-439.80,197.80Z" fill="#999999"/>
        <path d="M-443.20,202.20L-356.80,202.20L-356.80,215.20L-443.20,215.20Z" fill="#666666"/>
        <path d="M-446.60,219.60L-353.40,219.60L-353.40,232.60L-446.60,232.60Z" fill="#333333"/>
        <path d="M-450,237L-350,237L-350,250L-450,250Z"/>
    </g>
    <g>
        <path d="M-233,150L-167,150L-167,163L-233,163Z" fill="#ffffff"/>
        <path d="M-236.40,167.40L-163.60,167.40L-163.60,180.40L-236.40,180.40Z" fill="#cccccc"/>
        <path d="M-239.80,184.80L-160.20,184.80L-160.20,197.80L-239.80,197.80Z" fill="#999999"/>
        <path d="M-243.20,202.20L-156.80,202.20L-156.80,215.20L-243.20,215.20Z" fill="#666666"/>
        <path d="M-246.60,219.60L-153.40,219.60L-153.40,232.60L-246.60,232.60Z" fill="#333333"/>
        <path d="M-250,237L-150,237L-150,250L-250,250Z"/>
    </g>
    <g>
        <path d="M-33,150L33,150L33,163L-33,163Z" fill="#ffffff"/>
        <path d="M-36.40,167.40L36.40,167.40L36.40,180.40L-36.40,180.40Z" fill="#cccccc"/>
        <path d="M-39.80,184.80L39.80,184.80L39.80,197.80L-39.80,197.80Z" fill="#999999"/>
        <path d="M-43.20,202.20L43.20,202.20L43.20,215.20L-43.20,215.20Z" fill="#666666"/>
        <path d="M-46.60,219.60L46.60,219.60L46.60,232.60L-46.60,232.60Z" fill="#333333"/>
        <path d="M-50,237L50,237L50,250L-50,250Z"/>
    </g>
    <g>
        <path d="M167,150L233,150L233,163L167,163Z" fill="#ffffff"/>
        <path d="M163.60,167.40L236.40,167.40L236.40,180.40L163.60,180.40Z" fill="#cccccc"/>
        <path d="M160.20,184.80L239.80,184.80L239.80,197.80L160.20,197.80Z" fill="#999999"/>
        <path d="M156.80,202.20L243.20,202.20L243.20,215.20L156.80,215.20Z" fill="#666666"/>
        <path d="M153.40,219.60L246.60,219.60L246.60,232.60L153.40,232.60Z" fill="#333333"/>
        <path d="M150,237L250,237L250,250L150,250Z"/>
    </g>
    <g>
        <path d="M367,150L433,150L433,163L367,163Z" fill="#ffffff"/>
        <path d="M363.60,167.40L436.40,167.40L436.40,180.40L363.60,180.40Z" fill="#cccccc"/>
        <path d="M360.20,184.80L439.80,184.80L439.80,197.80L360.20,197.80Z" fill="#999999"/>
        <path d="M356.80,202.20L443.20,202.20L443.20,215.20L356.80,215.20Z" fill="#666666"/>
        <path d="M353.40,219.60L446.60,219.60L446.60,232.60L353.40,232.60Z" fill="#333333"/>
        <path d="M350,237L450,237L450,250L350,250Z"/>
    </g>
    <g>
        <path d="M-533,250L-467,250L-467,263L-533,263Z" fill="#ffffff"/>
        <path d="M-536.40,267.40L-463.60,267.40L-463.60,280.40L-536.40,280.40Z" fill="#cccccc"/>
        <path d="M-539.80,284.80L-460.20,284.80L-460.20,297.80L-539.80,297.80Z" fill="#999999"/>
        <path d="M-543.20,302.20L-456.80,302.20L-456.80,315.20L-543.20,315.20Z" fill="#666666"/>
        <path d="M-546.60,319.60L-453.40,319.60L-453.40,332.60L-546.60,332.60Z" fill="#333333"/>
        <path d="M-550,337L-450,337L-450,350L-550,350Z"/>
    </g>
    <g>
        <path d="M-333,250L-267,250L-267,263L-333,263Z" fill="#ffffff"/>
        <path d="M-336.40,267.40L-263.60,267.40L-263.60,280.40L-336.40,280.40Z" fill="#cccccc"/>
        <path d="M-339.80,284.80L-260.20,284.80L-260.20,297.80L-339.80,297.80Z" fill="#999999"/>
        <path d="M-343.20,302.20L-256.80,302.20L-256.80,315.20L-343.20,315.20Z" fill="#666666"/>
        <path d="M-346.60,319.60L-253.40,319.60L-253.40,332.60L-346.60,332.60Z" fill="#333333"/>
        <path d="M-350,337L-250,337L-250,350L-350,350Z"/>
    </g>
    <g>
        <path d="M-133,250L-67,250L-67,263L-133,263Z" fill="#ffffff"/>
        <path d="M-136.40,267.40L-63.60,267.40L-63.60,280.40L-136.40,280.40Z" fill="#cccccc"/>
        <path d="M-139.80,284.80L-60.20,284.80L-60.20,297.80L-139.80,297.80Z" fill="#999999"/>
        <path d="M-143.20,302.20L-56.80,302.20L-56.80,315.20L-143.20,315.20Z" fill="#666666"/>
        <path d="M-146.60,319.60L-53.40,319.60L-53.40,332.60L-146.60,332.60Z" fill="#333333"/>
        <path d="M-150,337L-50,337L-50,350L-150,350Z"/>
    </g>
    <g>
        <path d="M67,250L133,250L133,263L67,263Z" fill="#ffffff"/>
        <path d="M63.60,267.40L136.40,267.40L136.40,280.40L63.60,280.40Z" fill="#cccccc"/>
        <path d="M60.20,284.80L139.80,284.80L139.80,297.80L60.20,297.80Z" fill="#999999"/>
        <path d="M56.80,302.20L143.20,302.20L143.20,315.20L56.80,315.20Z" fill="#666666"/>
        <path d="M53.40,319.60L146.60,319.60L146.60,332.60L53.40,332.60Z" fill="#333333"/>
        <path d="M50,337L150,337L150,350L50,350Z"/>
    </g>
    <g>
        <path d="M267,250L333,250L333,263L267,263Z" fill="#ffffff"/>
        <path d="M263.60,267.40L336.40,267.40L336.40,280.40L263.60,280.40Z" fill="#cccccc"/>
        <path d="M260.20,284.80L339.80,284.80L339.80,297.80L260.20,297.80Z" fill="#999999"/>
        <path d="M256.80,302.20L343.20,302.20L343.20,315.20L256.80,315.20Z" fill="#666666"/>
        <path d="M253.40,319.60L346.60,319.60L346.60,332.60L253.40,332.60Z" fill="#333333"/>
        <path d="M250,337L350,337L350,350L250,350Z"/>
    </g>
    <g>
        <path d="M467,250L533,250L533,263L467,263Z" fill="#ffffff"/>
        <path d="M463.60,267.40L536.40,267.40L536.40,280.40L463.60,280.40Z" fill="#cccccc"/>
        <path d="M460.20,284.80L539.80,284.80L539.80,297.80L460.20,297.80Z" fill="#999999"/>
        <path d="M456.80,302.20L543.20,302.20L543.20,315.20L456.80,315.20Z" fill="#666666"/>
        <path d="M453.40,319.60L546.60,319.60L546.60,332.60L453.40,332.60Z" fill="#333333"/>
        <path d="M450,337L550,337L550,350L450,350Z"/>
    </g>
    <g>
        <path d="M-433,350L-367,350L-367,363L-433,363Z" fill="#ffffff"/>
        <path d="M-436.40,367.40L-363.60,367.40L-363.60,380.40L-436.40,380.40Z" fill="#cccccc"/>
        <path d="M-439.80,384.80L-360.20,384.80L-360.20,397.80L-439.80,397.80Z" fill="#999999"/>
        <path d="M-443.20,402.20L-356.80,402.20L-356.80,415.20L-443.20,415.20Z" fill="#666666"/>
        <path d="M-446.60,419.60L-353.40,419.60L-353.40,432.60L-446.60,432.60Z" fill="#333333"/>
        <path d="M-450,437L-350,437L-350,450L-450,450Z"/>
    </g>
    <g>
        <path d="M-233,350L-167,350L-167,363L-233,363Z" fill="#ffffff"/>
        <path d="M-236.40,367.40L-163.60,367.40L-163.60,380.40L-236.40,380.40Z" fill="#cccccc"/>
        <path d="M-239.80,384.80L-160.20,384.80L-160.20,397.80L-239.80,397.80Z" fill="#999999"/>
        <path d="M-243.20,402.20L-156.80,402.20L-156.80,415.20L-243.20,415.20Z" fill="#666666"/>
        <path d="M-246.60,419.60L-153.40,419.60L-153.40,432.60L-246.60,432.60Z" fill="#333333"/>
        <path d="M-250,437L-150,437L-150,450L-250,450Z"/>
    </g>
    <g>
        <path d="M-33,350L33,350L33,363L-33,363Z" fill="#ffffff"/>
        <path d="M-36.40,367.40L36.40,367.40L36.40,380.40L-36.40,380.40Z" fill="#cccccc"/>
        <path d="M-39.80,384.80L39.80,384.80L39.80,397.80L-39.80,397.80Z" fill="#999999"/>
        <path d="M-43.20,402.20L43.20,402.20L43.20,415.20L-43.20,415.20Z" fill="#666666"/>
        <path d="M-46.60,419.60L46.60,419.60L46.60,432.60L-46.60,432.60Z" fill="#333333"/>
        <path d="M-50,437L50,437L50,450L-50,450Z"/>
    </g>
    <g>
        <path d="M167,350L233,350L233,363L167,363Z" fill="#ffffff"/>
        <path d="M163.60,367.40L236.40,367.40L236.40,380.40L163.60,380.40Z" fill="#cccccc"/>
        <path d="M160.20,384.80L239.80,384.80L239.80,397.80L160.20,397.80Z" fill="#999999"/>
        <path d="M156.80,402.20L243.20,402.20L243.20,415.20L156.80,415.20Z" fill="#666666"/>
        <path d="M153.40,419.60L246.60,419.60L246.60,432.60L153.40,432.60Z" fill="#333333"/>
        <path d="M150,437L250,437L250,450L150,450Z"/>
    </g>
    <g>
        <path d="M367,350L433,350L433,363L367,363Z" fill="#ffffff"/>
        <path d="M363.60,367.40L436.40,367.40L436.40,380.40L363.60,380.40Z" fill="#cccccc"/>
        <path d="M360.20,384.80L439.80,384.80L439.80,397.80L360.20,397.80Z" fill="#999999"/>
        <path d="M356.80,402.20L443.20,402.20L443.20,415.20L356.80,415.20Z" fill="#666666"/>
        <path d="M353.40,419.60L446.60,419.60L446.60,432.60L353.40,432.60Z" fill="#333333"/>
        <path d="M350,437L450,437L450,450L350,450Z"/>
    </g>
    <g>
        <path d="M-533,450L-467,450L-467,463L-533,463Z" fill="#ffffff"/>
        <path d="M-536.40,467.40L-463.60,467.40L-463.60,480.40L-536.40,480.40Z" fill="#cccccc"/>
        <path d="M-539.80,484.80L-460.20,484.80L-460.20,497.80L-539.80,497.80Z" fill="#999999"/>
        <path d="M-543.20,502.20L-456.80,502.20L-456.80,515.20L-543.20,515.20Z" fill="#666666"/>
        <path d="M-546.60,519.60L-453.40,519.60L-453.40,532.60L-546.60,532.60Z" fill="#333333"/>
        <path d="M-550,537L-450,537L-450,550L-550,550Z"/>
    </g>
    <g>
        <path d="M-333,450L-267,450L-267,463L-333,463Z" fill="#ffffff"/>
        <path d="M-336.40,467.40L-263.60,467.40L-263.60,480.40L-336.40,480.40Z" fill="#cccccc"/>
        <path d="M-339.80,484.80L-260.20,484.80L-260.20,497.80L-339.80,497.80Z" fill="#999999"/>
        <path d="M-343.20,502.20L-256.80,502.20L-256.80,515.20L-343.20,515.20Z" fill="#666666"/>
        <path d="M-346.60,519.60L-253.40,519.60L-253.40,532.60L-346.60,532.60Z" fill="#333333"/>
        <path d="M-350,537L-250,537L-250,550L-350,550Z"/>
    </g>
    <g>
        <path d="M-133,450L-67,450L-67,463L-133,463Z" fill="#ffffff"/>
        <path d="M-136.40,467.40L-63.60,467.40L-63.60,480.40L-136.40,480.40Z" fill="#cccccc"/>
        <path d="M-139.80,484.80L-60.20,484.80L-60.20,497.80L-139.80,497.80Z" fill="#999999"/>
        <path d="M-143.20,502.20L-56.80,502.20L-56.80,515.20L-143.20,515.20Z" fill="#666666"/>
        <path d="M-146.60,519.60L-53.40,519.60L-53.40,532.60L-146.60,532.60Z" fill="#333333"/>
        <path d="M-150,537L-50,537L-50,550L-150,550Z"/>
    </g>
    <g>
        <path d="M67,450L133,450L133,463L67,463Z" fill="#ffffff"/>
        <path d="M63.60,467.40L136.40,467.40L136.40,480.40L63.60,480.40Z" fill="#cccccc"/>
        <path d="M60.20,484.80L139.80,484.80L139.80,497.80L60.20,497.80Z" fill="#999999"/>
        <path d="M56.80,502.20L143.20,502.20L143.20,515.20L56.80,515.20Z" fill="#666666"/>
        <path d="M53.40,519.60L146.60,519.60L146.60,532.60L53.40,532.60Z" fill="#333333"/>
        <path d="M50,537L150,537L150,550L50,550Z"/>
    </g>
    <g>
        <path d="M267,450L333,450L333,463L267,463Z" fill="#ffffff"/>
        <path d="M263.60,467.40L336.40,467.40L336.40,480.40L263.60,480.40Z" fill="#cccccc"/>
        <path d="M260.20,484.80L339.80,484.80L339.80,497.80L260.20,497.80Z" fill="#999999"/>
        <path d="M256.80,502.20L343.20,502.20L343.20,515.20L256.80,515.20Z" fill="#666666"/>
        <path d="M253.40,519.60L346.60,519.60L346.60,532.60L253.40,532.60Z" fill="#333333"/>
        <path d="M250,537L350,537L350,550L250,550Z"/>
    </g>
    <g>
        <path d="M467,450L533,450L533,463L467,463Z" fill="#ffffff"/>
        <path d="M463.60,467.40L536.40,467.40L536.40,480.40L463.60,480.40Z" fill="#cccccc"/>
        <path d="M460.20,484.80L539.80,484.80L539.80,497.80L460.20,497.80Z" fill="#999999"/>
        <path d="M456.80,502.20L543.20,502.20L543.20,515.20L456.80,515.20Z" fill="#666666"/>
        <path d="M453.40,519.60L546.60,519.60L546.60,532.60L453.40,532.60Z" fill="#333333"/>
        <path d="M450,537L550,537L550,550L450,550Z"/>
    </g>
    <g>
        <path d="M-450,-467L-450,-533L-437,-533L-437,-467Z" fill="#ffffff"/>
        <path d="M-432.60,-463.60L-432.60,-536.40L-419.60,-536.40L-419.60,-463.60Z" fill="#cccccc"/>
        <path d="M-415.20,-460.20L-415.20,-539.80L-402.20,-539.80L-402.20,-460.20Z" fill="#999999"/>
        <path d="M-397.80,-456.80L-397.80,-543.20L-384.80,-543.20L-384.80,-456.80Z" fill="#666666"/>
        <path d="M-380.40,-453.40L-380.40,-546.60L-367.40,-546.60L-367.40,-453.40Z" fill="#333333"/>
        <path d="M-363,-450L-363,-550L-350,-550L-350,-450Z"/>
    </g>
    <g>
        <path d="M-250,-467L-250,-533L-237,-533L-237,-467Z" fill="#ffffff"/>
        <path d="M-232.60,-463.60L-232.60,-536.40L-219.60,-536.40L-219.60,-463.60Z" fill="#cccccc"/>
        <path d="M-215.20,-460.20L-215.20,-539.80L-202.20,-539.80L-202.20,-460.20Z" fill="#999999"/>
        <path d="M-197.80,-456.80L-197.80,-543.20L-184.80,-543.20L-184.80,-456.80Z" fill="#666666"/>
        <path d="M-180.40,-453.40L-180.40,-546.60L-167.40,-546.60L-167.40,-453.40Z" fill="#333333"/>
        <path d="M-163,-450L-163,-550L-150,-550L-150,-450Z"/>
    </g>
    <g>
        <path d="M-50,-467L-50,-533L-37,-533L-37,-467Z" fill="#ffffff"/>
        <path d="M-32.60,-463.60L-32.60,-536.40L-19.60,-536.40L-19.60,-463.60Z" fill="#cccccc"/>
        <path d="M-15.20,-460.20L-15.20,-539.80L-2.20,-539.80L-2.20,-460.20Z" fill="#999999"/>
        <path d="M2.20,-456.80L2.20,-543.20L15.20,-543.20L15.20,-456.80Z" fill="#666666"/>
        <path d="M19.60,-453.40L19.60,-546.60L32.60,-546.60L32.60,-453.40Z" fill="#333333"/>
        <path d="M37,-450L37,-550L50,-550L50,-450Z"/>
    </g>
    <g>
        <path d="M150,-467L150,-533L163,-533L163,-467Z" fill="#ffffff"/>
        <path d="M167.40,-463.60L167.40,-536.40L180.40,-536.40L180.40,-463.60Z" fill="#cccccc"/>
        <path d="M184.80,-460.20L184.80,-539.80L197.80,-539.80L197.80,-460.20Z" fill="#999999"/>
        <path d="M202.20,-456.80L202.20,-543.20L215.20,-543.20L215.20,-456.80Z" fill="#666666"/>
        <path d="M219.60,-453.40L219.60,-546.60L232.60,-546.60L232.60,-453.40Z" fill="#333333"/>
        <path d="M237,-450L237,-550L250,-550L250,-450Z"/>
    </g>
    <g>
        <path d="M350,-467L350,-533L363,-533L363,-467Z" fill="#ffffff"/>
        <path d="M367.40,-463.60L367.40,-536.40L380.40,-536.40L380.40,-463.60Z" fill="#cccccc"/>
        <path d="M384.80,-460.20L384.80,-539.80L397.80,-539.80L397.80,-460.20Z" fill="#999999"/>
        <path d="M402.20,-456.80L402.20,-543.20L415.20,-543.20L415.20,-456.80Z" fill="#666666"/>
        <path d="M419.60,-453.40L419.60,-546.60L432.60,-546.60L432.60,-453.40Z" fill="#333333"/>
        <path d="M437,-450L437,-550L450,-550L450,-450Z"/>
    </g>
    <g>
        <path d="M-550,-367L-550,-433L-537,-433L-537,-367Z" fill="#ffffff"/>
        <path d="M-532.60,-363.60L-532.60,-436.40L-519.60,-436.40L-519.60,-363.60Z" fill="#cccccc"/>
        <path d="M-515.20,-360.20L-515.20,-439.80L-502.20,-439.80L-502.20,-360.20Z" fill="#999999"/>
        <path d="M-497.80,-356.80L-497.80,-443.20L-484.80,-443.20L-484.80,-356.80Z" fill="#666666"/>
        <path d="M-480.40,-353.40L-480.40,-446.60L-467.40,-446.60L-467.40,-353.40Z" fill="#333333"/>
        <path d="M-463,-350L-463,-450L-450,-450L-450,-350Z"/>
    </g>
    <g>
        <path d="M-350,-367L-350,-433L-337,-433L-337,-367Z" fill="#ffffff"/>
        <path d="M-332.60,-363.60L-332.60,-436.40L-319.60,-436.40L-319.60,-363.60Z" fill="#cccccc"/>
        <path d="M-315.20,-360.20L-315.20,-439.80L-302.20,-439.80L-302.20,-360.20Z" fill="#999999"/>
        <path d="M-297.80,-356.80L-297.80,-443.20L-284.80,-443.20L-284.80,-356.80Z" fill="#666666"/>
        <path d="M-280.40,-353.40L-280.40,-446.60L-267.40,-446.60L-267.40,-353.40Z" fill="#333333"/>
        <path d="M-263,-350L-263,-450L-250,-450L-250,-350Z"/>
    </g>
    <g>
        <path d="M-150,-367L-150,-433L-137,-433L-137,-367Z" fill="#ffffff"/>
        <path d="M-132.60,-363.60L-132.60,-436.40L-119.60,-436.40L-119.60,-363.60Z" fill="#cccccc"/>
        <path d="M-115.20,-360.20L-115.20,-439.80L-102.20,-439.80L-102.20,-360.20Z" fill="#999999"/>
        <path d="M-97.80,-356.80L-97.80,-443.20L-84.80,-443.20L-84.80,-356.80Z" fill="#666666"/>
        <path d="M-80.40,-353.40L-80.40,-446.60L-67.40,-446.60L-67.40,-353.40Z" fill="#333333"/>
        <path d="M-63,-350L-63,-450L-50,-450L-50,-350Z"/>
    </g>
    <g>
        <path d="M50,-367L50,-433L63,-433L63,-367Z" fill="#ffffff"/>
        <path d="M67.40,-363.60L67.40,-436.40L80.40,-436.40L80.40,-363.60Z" fill="#cccccc"/>
        <path d="M84.80,-360.20L84.80,-439.80L97.80,-439.80L97.80,-360.20Z" fill="#999999"/>
        <path d="M102.20,-356.80L102.20,-443.20L115.20,-443.20L115.20,-356.80Z" fill="#666666"/>
        <path d="M119.60,-353.40L119.60,-446.60L132.60,-446.60L132.60,-353.40Z" fill="#333333"/>
        <path d="M137,-350L137,-450L150,-450L150,-350Z"/>
    </g>
    <g>
        <path d="M250,-367L250,-433L263,-433L263,-367Z" fill="#ffffff"/>
        <path d="M267.40,-363.60L267.40,-436.40L280.40,-436.40L280.40,-363.60Z" fill="#cccccc"/>
        <path d="M284.80,-360.20L284.80,-439.80L297.80,-439.80L297.80,-360.20Z" fill="#999999"/>
        <path d="M302.20,-356.80L302.20,-443.20L315.20,-443.20L315.20,-356.80Z" fill="#666666"/>
        <path d="M319.60,-353.40L319.60,-446.60L332.60,-446.60L332.60,-353.40Z" fill="#333333"/>
        <path d="M337,-350L337,-450L350,-450L350,-350Z"/>
    </g>
    <g>
        <path d="M450,-367L450,-433L463,-433L463,-367Z" fill="#ffffff"/>
        <path d="M467.40,-363.60L467.40,-436.40L480.40,-436.40L480.40,-363.60Z" fill="#cccccc"/>
        <path d="M484.80,-360.20L484.80,-439.80L497.80,-439.80L497.80,-360.20Z" fill="#999999"/>
        <path d="M502.20,-356.80L502.20,-443.20L515.20,-443.20L515.20,-356.80Z" fill="#666666"/>
        <path d="M519.60,-353.40L519.60,-446.60L532.60,-446.60L532.60,-353.40Z" fill="#333333"/>
        <path d="M537,-350L537,-450L550,-450L550,-350Z"/>
    </g>
    <g>
        <path d="M-450,-267L-450,-333L-437,-333L-437,-267Z" fill="#ffffff"/>
        <path d="M-432.60,-263.60L-432.60,-336.40L-419.60,-336.40L-419.60,-263.60Z" fill="#cccccc"/>
        <path d="M-415.20,-260.20L-415.20,-339.80L-402.20,-339.80L-402.20,-260.20Z" fill="#999999"/>
        <path d="M-397.80,-256.80L-397.80,-343.20L-384.80,-343.20L-384.80,-256.80Z" fill="#666666"/>
        <path d="M-380.40,-253.40L-380.40,-346.60L-367.40,-346.60L-367.40,-253.40Z" fill="#333333"/>
        <path d="M-363,-250L-363,-350L-350,-350L-350,-250Z"/>
    </g>
    <g>
        <path d="M-250,-267L-250,-333L-237,-333L-237,-267Z" fill="#ffffff"/>
        <path d="M-232.60,-263.60L-232.60,-336.40L-219.60,-336.40L-219.60,-263.60Z" fill="#cccccc"/>
        <path d="M-215.20,-260.20L-215.20,-339.80L-202.20,-339.80L-202.20,-260.20Z" fill="#999999"/>
        <path d="M-197.80,-256.80L-197.80,-343.20L-184.80,-343.20L-184.80,-256.80Z" fill="#666666"/>
        <path d="M-180.40,-253.40L-180.40,-346.60L-167.40,-346.60L-167.40,-253.40Z" fill="#333333"/>
        <path d="M-163,-250L-163,-350L-150,-350L-150,-250Z"/>
    </g>
    <g>
        <path d="M-50,-267L-50,-333L-37,-333L-37,-267Z" fill="#ffffff"/>
        <path d="M-32.60,-263.60L-32.60,-336.40L-19.60,-336.40L-19.60,-263.60Z" fill="#cccccc"/>
        <path d="M-15.20,-260.20L-15.20,-339.80L-2.20,-339.80L-2.20,-260.20Z" fill="#999999"/>
        <path d="M2.20,-256.80L2.20,-343.20L15.20,-343.20L15.20,-256.80Z" fill="#666666"/>
        <path d="M19.60,-253.40L19.60,-346.60L32.60,-346.60L32.60,-253.40Z" fill="#333333"/>
        <path d="M37,-250L37,-350L50,-350L50,-250Z"/>
    </g>
    <g>
        <path d="M150,-267L150,-333L163,-333L163,-267Z" fill="#ffffff"/>
        <path d="M167.40,-263.60L167.40,-336.40L180.40,-336.40L180.40,-263.60Z" fill="#cccccc"/>
        <path d="M184.80,-260.20L184.80,-339.80L197.80,-339.80L197.80,-260.20Z" fill="#999999"/>
        <path d="M202.20,-256.80L202.20,-343.20L215.20,-343.20L215.20,-256.80Z" fill="#666666"/>
        <path d="M219.60,-253.40L219.60,-346.60L232.60,-346.60L232.60,-253.40Z" fill="#333333"/>
        <path d="M237,-250L237,-350L250,-350L250,-250Z"/>
    </g>
    <g>
        <path d="M350,-267L350,-333L363,-333L363,-267Z" fill="#ffffff"/>
        <path d="M367.40,-263.60L367.40,-336.40L380.40,-336.40L380.40,-263.60Z" fill="#cccccc"/>
        <path d="M384.80,-260.20L384.80,-339.80L397.80,-339.80L397.80,-260.20Z" fill="#999999"/>
        <path d="M402.20,-256.80L402.20,-343.20L415.20,-343.20L415.20,-256.80Z" fill="#666666"/>
        <path d="M419.60,-253.40L419.60,-346.60L432.60,-346.60L432.60,-253.40Z" fill="#333333"/>
        <path d="M437,-250L437,-350L450,-350L450,-250Z"/>
    </g>
    <g>
        <path d="M-550,-167L-550,-233L-537,-233L-537,-167Z" fill="#ffffff"/>
        <path d="M-532.60,-163.60L-532.60,-236.40L-519.60,-236.40L-519.60,-163.60Z" fill="#cccccc"/>
        <path d="M-515.20,-160.20L-515.20,-239.80L-502.20,-239.80L-502.20,-160.20Z" fill="#999999"/>
        <path d="M-497.80,-156.80L-497.80,-243.20L-484.80,-243.20L-484.80,-156.80Z" fill="#666666"/>
        <path d="M-480.40,-153.40L-480.40,-246.60L-467.40,-246.60L-467.40,-153.40Z" fill="#333333"/>
        <path d="M-463,-150L-463,-250L-450,-250L-450,-150Z"/>
    </g>
    <g>
        <path d="M-350,-167L-350,-233L-337,-233L-337,-167Z" fill="#ffffff"/>
        <path d="M-332.60,-163.60L-332.60,-236.40L-319.60,-236.40L-319.60,-163.60Z" fill="#cccccc"/>
        <path d="M-315.20,-160.20L-315.20,-239.80L-302.20,-239.80L-302.20,-160.20Z" fill="#999999"/>
        <path d="M-297.80,-156.80L-297.80,-243.20L-284.80,-243.20L-284.80,-156.80Z" fill="#666666"/>
        <path d="M-280.40,-153.40L-280.40,-246.60L-267.40,-246.60L-267.40,-153.40Z" fill="#333333"/>
        <path d="M-263,-150L-263,-250L-250,-250L-250,-150Z"/>
    </g>
    <g>
        <path d="M-150,-167L-150,-233L-137,-233L-137,-167Z" fill="#ffffff"/>
        <path d="M-132.60,-163.60L-132.60,-236.40L-119.60,-236.40L-119.60,-163.60Z" fill="#cccccc"/>
        <path d="M-115.20,-160.20L-115.20,-239.80L-102.20,-239.80L-102.20,-160.20Z" fill="#999999"/>
        <path d="M-97.80,-156.80L-97.80,-243.20L-84.80,-243.20L-84.80,-156.80Z" fill="#666666"/>
        <path d="M-80.40,-153.40L-80.40,-246.60L-67.40,-246.60L-67.40,-153.40Z" fill="#333333"/>
        <path d="M-63,-150L-63,-250L-50,-250L-50,-150Z"/>
    </g>
    <g>
        <path d="M50,-167L50,-233L63,-233L63,-167Z" fill="#ffffff"/>
        <path d="M67.40,-163.60L67.40,-236.40L80.40,-236.40L80.40,-163.60Z" fill="#cccccc"/>
        <path d="M84.80,-160.20L84.80,-239.80L97.80,-239.80L97.80,-160.20Z" fill="#999999"/>
        <path d="M102.20,-156.80L102.20,-243.20L115.20,-243.20L115.20,-156.80Z" fill="#666666"/>
        <path d="M119.60,-153.40L119.60,-246.60L132.60,-246.60L132.60,-153.40Z" fill="#333333"/>
        <path d="M137,-150L137,-250L150,-250L150,-150Z"/>
    </g>
    <g>
        <path d="M250,-167L250,-233L263,-233L263,-167Z" fill="#ffffff"/>
        <path d="M267.40,-163.60L267.40,-236.40L280.40,-236.40L280.40,-163.60Z" fill="#cccccc"/>
        <path d="M284.80,-160.20L284.80,-239.80L297.80,-239.80L297.80,-160.20Z" fill="#999999"/>
        <path d="M302.20,-156.80L302.20,-243.20L315.20,-243.20L315.20,-156.80Z" fill="#666666"/>
        <path d="M319.60,-153.40L319.60,-246.60L332.60,-246.60L332.60,-153.40Z" fill="#333333"/>
        <path d="M337,-150L337,-250L350,-250L350,-150Z"/>
    </g>
    <g>
        <path d="M450,-167L450,-233L463,-233L463,-167Z" fill="#ffffff"/>
        <path d="M467.40,-163.60L467.40,-236.40L480.40,-236.40L480.40,-163.60Z" fill="#cccccc"/>
        <path d="M484.80,-160.20L484.80,-239.80L497.80,-239.80L497.80,-160.20Z" fill="#999999"/>
        <path d="M502.20,-156.80L502.20,-243.20L515.20,-243.20L515.20,-156.80Z" fill="#666666"/>
        <path d="M519.60,-153.40L519.60,-246.60L532.60,-246.60L532.60,-153.40Z" fill="#333333"/>
        <path d="M537,-150L537,-250L550,-250L550,-150Z"/>
    </g>
    <g>
        <path d="M-450,-67L-450,-133L-437,-133L-437,-67Z" fill="#ffffff"/>
        <path d="M-432.60,-63.60L-432.60,-136.40L-419.60,-136.40L-419.60,-63.60Z" fill="#cccccc"/>
        <path d="M-415.20,-60.20L-415.20,-139.80L-402.20,-139.80L-402.20,-60.20Z" fill="#999999"/>
        <path d="M-397.80,-56.80L-397.80,-143.20L-384.80,-143.20L-384.80,-56.80Z" fill="#666666"/>
        <path d="M-380.40,-53.40L-380.40,-146.60L-367.40,-146.60L-367.40,-53.40Z" fill="#333333"/>
        <path d="M-363,-50L-363,-150L-350,-150L-350,-50Z"/>
    </g>
    <g>
        <path d="M-250,-67L-250,-133L-237,-133L-237,-67Z" fill="#ffffff"/>
        <path d="M-232.60,-63.60L-232.60,-136.40L-219.60,-136.40L-219.60,-63.60Z" fill="#cccccc"/>
        <path d="M-215.20,-60.20L-215.20,-139.80L-202.20,-139.80L-202.20,-60.20Z" fill="#999999"/>
        <path d="M-197.80,-56.80L-197.80,-143.20L-184.80,-143.20L-184.80,-56.80Z" fill="#666666"/>
        <path d="M-180.40,-53.40L-180.40,-146.60L-167.40,-146.60L-167.40,-53.40Z" fill="#333333"/>
        <path d="M-163,-50L-163,-150L-150,-150L-150,-50Z"/>
    </g>
    <g>
        <path d="M-50,-67L-50,-133L-37,-133L-37,-67Z" fill="#ffffff"/>
        <path d="M-32.60,-63.60L-32.60,-136.40L-19.60,-136.40L-19.60,-63.60Z" fill="#cccccc"/>
        <path d="M-15.20,-60.20L-15.20,-139.80L-2.20,-139.80L-2.20,-60.20Z" fill="#999999"/>
        <path d="M2.20,-56.80L2.20,-143.20L15.20,-143.20L15.20,-56.80Z" fill="#666666"/>
        <path d="M19.60,-53.40L19.60,-146.60L32.60,-146.60L32.60,-53.40Z" fill="#333333"/>
        <path d="M37,-50L37,-150L50,-150L50,-50Z"/>
    </g>
    <g>
        <path d="M150,-67L150,-133L163,-133L163,-67Z" fill="#ffffff"/>
        <path d="M167.40,-63.60L167.40,-136.40L180.40,-136.40L180.40,-63.60Z" fill="#cccccc"/>
        <path d="M184.80,-60.20L184.80,-139.80L197.80,-139.80L197.80,-60.20Z" fill="#999999"/>
        <path d="M202.20,-56.80L202.20,-143.20L215.20,-143.20L215.20,-56.80Z" fill="#666666"/>
        <path d="M219.60,-53.40L219.60,-146.60L232.60,-146.60L232.60,-53.40Z" fill="#333333"/>
        <path d="M237,-50L237,-150L250,-150L250,-50Z"/>
    </g>
    <g>
        <path d="M350,-67L350,-133L363,-133L363,-67Z" fill="#ffffff"/>
        <path d="M367.40,-63.60L367.40,-136.40L380.40,-136.40L380.40,-63.60Z" fill="#cccccc"/>
        <path d="M384.80,-60.20L384.80,-139.80L397.80,-139.80L397.80,-60.20Z" fill="#999999"/>
        <path d="M402.20,-56.80L402.20,-143.20L415.20,-143.20L415.20,-56.80Z" fill="#666666"/>
        <path d="M419.60,-53.40L419.60,-146.60L432.60,-146.60L432.60,-53.40Z" fill="#333333"/>
        <path d="M437,-50L437,-150L450,-150L450,-50Z"/>
    </g>
    <g>
        <path d="M-550,33L-550,-33L-537,-33L-537,33Z" fill="#ffffff"/>
        <path d="M-532.60,36.40L-532.60,-36.40L-519.60,-36.40L-519.60,36.40Z" fill="#cccccc"/>
        <path d="M-515.20,39.80L-515.20,-39.80L-502.20,-39.80L-502.20,39.80Z" fill="#999999"/>
        <path d="M-497.80,43.20L-497.80,-43.20L-484.80,-43.20L-484.80,43.20Z" fill="#666666"/>
        <path d="M-480.40,46.60L-480.40,-46.60L-467.40,-46.60L-467.40,46.60Z" fill="#333333"/>
        <path d="M-463,50L-463,-50L-450,-50L-450,50Z"/>
    </g>
    <g>
        <path d="M-350,33L-350,-33L-337,-33L-337,33Z" fill="#ffffff"/>
        <path d="M-332.60,36.40L-332.60,-36.40L-319.60,-36.40L-319.60,36.40Z" fill="#cccccc"/>
        <path d="M-315.20,39.80L-315.20,-39.80L-302.20,-39.80L-302.20,39.80Z" fill="#999999"/>
        <path d="M-297.80,43.20L-297.80,-43.20L-284.80,-43.20L-284.80,43.20Z" fill="#666666"/>
        <path d="M-280.40,46.60L-280.40,-46.60L-267.40,-46.60L-267.40,46.60Z" fill="#333333"/>
        <path d="M-263,50L-263,-50L-250,-50L-250,50Z"/>
    </g>
    <g>
        <path d="M-150,33L-150,-33L-137,-33L-137,33Z" fill="#ffffff"/>
        <path d="M-132.60,36.40L-132.60,-36.40L-119.60,-36.40L-119.60,36.40Z" fill="#cccccc"/>
        <path d="M-115.20,39.80L-115.20,-39.80L-102.20,-39.80L-102.20,39.80Z" fill="#999999"/>
        <path d="M-97.80,43.20L-97.80,-43.20L-84.80,-43.20L-84.80,43.20Z" fill="#666666"/>
        <path d="M-80.40,46.60L-80.40,-46.60L-67.40,-46.60L-67.40,46.60Z" fill="#333333"/>
        <path d="M-63,50L-63,-50L-50,-50L-50,50Z"/>
    </g>
    <g>
        <path d="M50,33L50,-33L63,-33L63,33Z" fill="#ffffff"/>
        <path d="M67.40,36.40L67.40,-36.40L80.40,-36.40L80.40,36.40Z" fill="#cccccc"/>
        <path d="M84.80,39.80L84.80,-39.80L97.80,-39.80L97.80,39.80Z" fill="#999999"/>
        <path d="M102.20,43.20L102.20,-43.20L115.20,-43.20L115.20,43.20Z" fill="#666666"/>
        <path d="M119.60,46.60L119.60,-46.60L132.60,-46.60L132.60,46.60Z" fill="#333333"/>
        <path d="M137,50L137,-50L150,-50L150,50Z"/>
    </g>
    <g>
        <path d="M250,33L250,-33L263,-33L263,33Z" fill="#ffffff"/>
        <path d="M267.40,36.40L267.40,-36.40L280.40,-36.40L280.40,36.40Z" fill="#cccccc"/>
        <path d="M284.80,39.80L284.80,-39.80L297.80,-39.80L297.80,39.80Z" fill="#999999"/>
        <path d="M302.20,43.20L302.20,-43.20L315.20,-43.20L315.20,43.20Z" fill="#666666"/>
        <path d="M319.60,46.60L319.60,-46.60L332.60,-46.60L332.60,46.60Z" fill="#333333"/>
        <path d="M337,50L337,-50L350,-50L350,50Z"/>
    </g>
    <g>
        <path d="M450,33L450,-33L463,-33L463,33Z" fill="#ffffff"/>
        <path d="M467.40,36.40L467.40,-36.40L480.40,-36.40L480.40,36.40Z" fill="#cccccc"/>
        <path d="M484.80,39.80L484.80,-39.80L497.80,-39.80L497.80,39.80Z" fill="#999999"/>
        <path d="M502.20,43.20L502.20,-43.20L515.20,-43.20L515.20,43.20Z" fill="#666666"/>
        <path d="M519.60,46.60L519.60,-46.60L532.60,-46.60L532.60,46.60Z" fill="#333333"/>
        <path d="M537,50L537,-50L550,-50L550,50Z"/>
    </g>
    <g>
        <path d="M-450,133L-450,67L-437,67L-437,133Z" fill="#ffffff"/>
        <path d="M-432.60,136.40L-432.60,63.60L-419.60,63.60L-419.60,136.40Z" fill="#cccccc"/>
        <path d="M-415.20,139.80L-415.20,60.20L-402.20,60.20L-402.20,139.80Z" fill="#999999"/>
        <path d="M-397.80,143.20L-397.80,56.80L-384.80,56.80L-384.80,143.20Z" fill="#666666"/>
        <path d="M-380.40,146.60L-380.40,53.40L-367.40,53.40L-367.40,146.60Z" fill="#333333"/>
        <path d="M-363,150L-363,50L-350,50L-350,150Z"/>
    </g>
    <g>
        <path d="M-250,133L-250,67L-237,67L-237,133Z" fill="#ffffff"/>
        <path d="M-232.60,136.40L-232.60,63.60L-219.60,63.60L-219.60,136.40Z" fill="#cccccc"/>
        <path d="M-215.20,139.80L-215.20,60.20L-202.20,60.20L-202.20,139.80Z" fill="#999999"/>
        <path d="M-197.80,143.20L-197.80,56.80L-184.80,56.80L-184.80,143.20Z" fill="#666666"/>
        <path d="M-180.40,146.60L-180.40,53.40L-167.40,53.40L-167.40,146.60Z" fill="#333333"/>
        <path d="M-163,150L-163,50L-150,50L-150,150Z"/>
    </g>
    <g>
        <path d="M-50,133L-50,67L-37,67L-37,133Z" fill="#ffffff"/>
        <path d="M-32.60,136.40L-32.60,63.60L-19.60,63.60L-19.60,136.40Z" fill="#cccccc"/>
        <path d="M-15.20,139.80L-15.20,60.20L-2.20,60.20L-2.20,139.80Z" fill="#999999"/>
        <path d="M2.20,143.20L2.20,56.80L15.20,56.80L15.20,143.20Z" fill="#666666"/>
        <path d="M19.60,146.60L19.60,53.40L32.60,53.40L32.60,146.60Z" fill="#333333"/>
        <path d="M37,150L37,50L50,50L50,150Z"/>
    </g>
    <g>
        <path d="M150,133L150,67L163,67L163,133Z" fill="#ffffff"/>
        <path d="M167.40,136.40L167.40,63.60L180.40,63.60L180.40,136.40Z" fill="#cccccc"/>
        <path d="M184.80,139.80L184.80,60.20L197.80,60.20L197.80,139.80Z" fill="#999999"/>
        <path d="M202.20,143.20L202.20,56.80L215.20,56.80L215.20,143.20Z" fill="#666666"/>
        <path d="M219.60,146.60L219.60,53.40L232.60,53.40L232.60,146.60Z" fill="#333333"/>
        <path d="M237,150L237,50L250,50L250,150Z"/>
    </g>
    <g>
        <path d="M350,133L350,67L363,67L363,133Z" fill="#ffffff"/>
        <path d="M367.40,136.40L367.40,63.60L380.40,63.60L380.40,136.40Z" fill="#cccccc"/>
        <path d="M384.80,139.80L384.80,60.20L397.80,60.20L397.80,139.80Z" fill="#999999"/>
        <path d="M402.20,143.20L402.20,56.80L415.20,56.80L415.20,143.20Z" fill="#666666"/>
        <path d="M419.60,146.60L419.60,53.40L432.60,53.40L432.60,146.60Z" fill="#333333"/>
        <path d="M437,150L437,50L450,50L450,150Z"/>
    </g>
    <g>
        <path d="M-550,233L-550,167L-537,167L-537,233Z" fill="#ffffff"/>
        <path d="M-532.60,236.40L-532.60,163.60L-519.60,163.60L-519.60,236.40Z" fill="#cccccc"/>
        <path d="M-515.20,239.80L-515.20,160.20L-502.20,160.20L-502.20,239.80Z" fill="#999999"/>
        <path d="M-497.80,243.20L-497.80,156.80L-484.80,156.80L-484.80,243.20Z" fill="#666666"/>
        <path d="M-480.40,246.60L-480.40,153.40L-467.40,153.40L-467.40,246.60Z" fill="#333333"/>
        <path d="M-463,250L-463,150L-450,150L-450,250Z"/>
    </g>
    <g>
        <path d="M-350,233L-350,167L-337,167L-337,233Z" fill="#ffffff"/>
        <path d="M-332.60,236.40L-332.60,163.60L-319.60,163.60L-319.60,236.40Z" fill="#cccccc"/>
        <path d="M-315.20,239.80L-315.20,160.20L-302.20,160.20L-302.20,239.80Z" fill="#999999"/>
        <path d="M-297.80,243.20L-297.80,156.80L-284.80,156.80L-284.80,243.20Z" fill="#666666"/>
        <path d="M-280.40,246.60L-280.40,153.40L-267.40,153.40L-267.40,246.60Z" fill="#333333"/>
        <path d="M-263,250L-263,150L-250,150L-250,250Z"/>
    </g>
    <g>
        <path d="M-150,233L-150,167L-137,167L-137,233Z" fill="#ffffff"/>
        <path d="M-132.60,236.40L-132.60,163.60L-119.60,163.60L-119.60,236.40Z" fill="#cccccc"/>
        <path d="M-115.20,239.80L-115.20,160.20L-102.20,160.20L-102.20,239.80Z" fill="#999999"/>
        <path d="M-97.80,243.20L-97.80,156.80L-84.80,156.80L-84.80,243.20Z" fill="#666666"/>
        <path d="M-80.40,246.60L-80.40,153.40L-67.40,153.40L-67.40,246.60Z" fill="#333333"/>
        <path d="M-63,250L-63,150L-50,150L-50,250Z"/>
    </g>
    <g>
        <path d="M50,233L50,167L63,167L63,233Z" fill="#ffffff"/>
        <path d="M67.40,236.40L67.40,163.60L80.40,163.60L80.40,236.40Z" fill="#cccccc"/>
        <path d="M84.80,239.80L84.80,160.20L97.80,160.20L97.80,239.80Z" fill="#999999"/>
        <path d="M102.20,243.20L102.20,156.80L115.20,156.80L115.20,243.20Z" fill="#666666"/>
        <path d="M119.60,246.60L119.60,153.40L132.60,153.40L132.60,246.60Z" fill="#333333"/>
        <path d="M137,250L137,150L150,150L150,250Z"/>
    </g>
    <g>
        <path d="M250,233L250,167L263,167L263,233Z" fill="#ffffff"/>
        <path d="M267.40,236.40L267.40,163.60L280.40,163.60L280.40,236.40Z" fill="#cccccc"/>
        <path d="M284.80,239.80L284.80,160.20L297.80,160.20L297.80,239.80Z" fill="#999999"/>
        <path d="M302.20,243.20L302.20,156.80L315.20,156.80L315.20,243.20Z" fill="#666666"/>
        <path d="M319.60,246.60L319.60,153.40L332.60,153.40L332.60,246.60Z" fill="#333333"/>
        <path d="M337,250L337,150L350,150L350,250Z"/>
    </g>
    <g>
        <path d="M450,233L450,167L463,167L463,233Z" fill="#ffffff"/>
        <path d="M467.40,236.40L467.40,163.60L480.40,163.60L480.40,236.40Z" fill="#cccccc"/>
        <path d="M484.80,239.80L484.80,160.20L497.80,160.20L497.80,239.80Z" fill="#999999"/>
        <path d="M502.20,243.20L502.20,156.80L515.20,156.80L515.20,243.20Z" fill="#666666"/>
        <path d="M519.60,246.60L519.60,153.40L532.60,153.40L532.60,246.60Z" fill="#333333"/>
        <path d="M537,250L537,150L550,150L550,250Z"/>
    </g>
    <g>
        <path d="M-450,333L-450,267L-437,267L-437,333Z" fill="#ffffff"/>
        <path d="M-432.60,336.40L-432.60,263.60L-419.60,263.60L-419.60,336.40Z" fill="#cccccc"/>
        <path d="M-415.20,339.80L-415.20,260.20L-402.20,260.20L-402.20,339.80Z" fill="#999999"/>
        <path d="M-397.80,343.20L-397.80,256.80L-384.80,256.80L-384.80,343.20Z" fill="#666666"/>
        <path d="M-380.40,346.60L-380.40,253.40L-367.40,253.40L-367.40,346.60Z" fill="#333333"/>
        <path d="M-363,350L-363,250L-350,250L-350,350Z"/>
    </g>
    <g>
        <path d="M-250,333L-250,267L-237,267L-237,333Z" fill="#ffffff"/>
        <path d="M-232.60,336.40L-232.60,263.60L-219.60,263.60L-219.60,336.40Z" fill="#cccccc"/>
        <path d="M-215.20,339.80L-215.20,260.20L-202.20,260.20L-202.20,339.80Z" fill="#999999"/>
        <path d="M-197.80,343.20L-197.80,256.80L-184.80,256.80L-184.80,343.20Z" fill="#666666"/>
        <path d="M-180.40,346.60L-180.40,253.40L-167.40,253.40L-167.40,346.60Z" fill="#333333"/>
        <path d="M-163,350L-163,250L-150,250L-150,350Z"/>
    </g>
    <g>
        <path d="M-50,333L-50,267L-37,267L-37,333Z" fill="#ffffff"/>
        <path d="M-32.60,336.40L-32.60,263.60L-19.60,263.60L-19.60,336.40Z" fill="#cccccc"/>
        <path d="M-15.20,339.80L-15.20,260.20L-2.20,260.20L-2.20,339.80Z" fill="#999999"/>
        <path d="M2.20,343.20L2.20,256.80L15.20,256.80L15.20,343.20Z" fill="#666666"/>
        <path d="M19.60,346.60L19.60,253.40L32.60,253.40L32.60,346.60Z" fill="#333333"/>
        <path d="M37,350L37,250L50,250L50,350Z"/>
    </g>
    <g>
        <path d="M150,333L150,267L163,267L163,333Z" fill="#ffffff"/>
        <path d="M167.40,336.40L167.40,263.60L180.40,263.60L180.40,336.40Z" fill="#cccccc"/>
        <path d="M184.80,339.80L184.80,260.20L197.80,260.20L197.80,339.80Z" fill="#999999"/>
        <path d="M202.20,343.20L202.20,256.80L215.20,256.80L215.20,343.20Z" fill="#666666"/>
        <path d="M219.60,346.60L219.60,253.40L232.60,253.40L232.60,346.60Z" fill="#333333"/>
        <path d="M237,350L237,250L250,250L250,350Z"/>
    </g>
    <g>
        <path d="M350,333L350,267L363,267L363,333Z" fill="#ffffff"/>
        <path d="M367.40,336.40L367.40,263.60L380.40,263.60L380.40,336.40Z" fill="#cccccc"/>
        <path d="M384.80,339.80L384.80,260.20L397.80,260.20L397.80,339.80Z" fill="#999999"/>
        <path d="M402.20,343.20L402.20,256.80L415.20,256.80L415.20,343.20Z" fill="#666666"/>
        <path d="M419.60,346.60L419.60,253.40L432.60,253.40L432.60,346.60Z" fill="#333333"/>
        <path d="M437,350L437,250L450,250L450,350Z"/>
    </g>
    <g>
        <path d="M-550,433L-550,367L-537,367L-537,433Z" fill="#ffffff"/>
        <path d="M-532.60,436.40L-532.60,363.60L-519.60,363.60L-519.60,436.40Z" fill="#cccccc"/>
        <path d="M-515.20,439.80L-515.20,360.20L-502.20,360.20L-502.20,439.80Z" fill="#999999"/>
        <path d="M-497.80,443.20L-497.80,356.80L-484.80,356.80L-484.80,443.20Z" fill="#666666"/>
        <path d="M-480.40,446.60L-480.40,353.40L-467.40,353.40L-467.40,446.60Z" fill="#333333"/>
        <path d="M-463,450L-463,350L-450,350L-450,450Z"/>
    </g>
    <g>
        <path d="M-350,433L-350,367L-337,367L-337,433Z" fill="#ffffff"/>
        <path d="M-332.60,436.40L-332.60,363.60L-319.60,363.60L-319.60,436.40Z" fill="#cccccc"/>
        <path d="M-315.20,439.80L-315.20,360.20L-302.20,360.20L-302.20,439.80Z" fill="#999999"/>
        <path d="M-297.80,443.20L-297.80,356.80L-284.80,356.80L-284.80,443.20Z" fill="#666666"/>
        <path d="M-280.40,446.60L-280.40,353.40L-267.40,353.40L-267.40,446.60Z" fill="#333333"/>
        <path d="M-263,450L-263,350L-250,350L-250,450Z"/>
    </g>
    <g>
        <path d="M-150,433L-150,367L-137,367L-137,433Z" fill="#ffffff"/>
        <path d="M-132.60,436.40L-132.60,363.60L-119.60,363.60L-119.60,436.40Z" fill="#cccccc"/>
        <path d="M-115.20,439.80L-115.20,360.20L-102.20,360.20L-102.20,439.80Z" fill="#999999"/>
        <path d="M-97.80,443.20L-97.80,356.80L-84.80,356.80L-84.80,443.20Z" fill="#666666"/>
        <path d="M-80.40,446.60L-80.40,353.40L-67.40,353.40L-67.40,446.60Z" fill="#333333"/>
        <path d="M-63,450L-63,350L-50,350L-50,450Z"/>
    </g>
    <g>
        <path d="M50,433L50,367L63,367L63,433Z" fill="#ffffff"/>
        <path d="M67.40,436.40L67.40,363.60L80.40,363.60L80.40,436.40Z" fill="#cccccc"/>
        <path d="M84.80,439.80L84.80,360.20L97.80,360.20L97.80,439.80Z" fill="#999999"/>
        <path d="M102.20,443.20L102.20,356.80L115.20,356.80L115.20,443.20Z" fill="#666666"/>
        <path d="M119.60,446.60L119.60,353.40L132.60,353.40L132.60,446.60Z" fill="#333333"/>
        <path d="M137,450L137,350L150,350L150,450Z"/>
    </g>
    <g>
        <path d="M250,433L250,367L263,367L263,433Z" fill="#ffffff"/>
        <path d="M267.40,436.40L267.40,363.60L280.40,363.60L280.40,436.40Z" fill="#cccccc"/>
        <path d="M284.80,439.80L284.80,360.20L297.80,360.20L297.80,439.80Z" fill="#999999"/>
        <path d="M302.20,443.20L302.20,356.80L315.20,356.80L315.20,443.20Z" fill="#666666"/>
        <path d="M319.60,446.60L319.60,353.40L332.60,353.40L332.60,446.60Z" fill="#333333"/>
        <path d="M337,450L337,350L350,350L350,450Z"/>
    </g>
    <g>
        <path d="M450,433L450,367L463,367L463,433Z" fill="#ffffff"/>
        <path d="M467.40,436.40L467.40,363.60L480.40,363.60L480.40,436.40Z" fill="#cccccc"/>
        <path d="M484.80,439.80L484.80,360.20L497.80,360.20L497.80,439.80Z" fill="#999999"/>
        <path d="M502.20,443.20L502.20,356.80L515.20,356.80L515.20,443.20Z" fill="#666666"/>
        <path d="M519.60,446.60L519.60,353.40L532.60,353.40L532.60,446.60Z" fill="#333333"/>
        <path d="M537,450L537,350L550,350L550,450Z"/>
    </g>
    <g>
        <path d="M-450,533L-450,467L-437,467L-437,533Z" fill="#ffffff"/>
        <path d="M-432.60,536.40L-432.60,463.60L-419.60,463.60L-419.60,536.40Z" fill="#cccccc"/>
        <path d="M-415.20,539.80L-415.20,460.20L-402.20,460.20L-402.20,539.80Z" fill="#999999"/>
        <path d="M-397.80,543.20L-397.80,456.80L-384.80,456.80L-384.80,543.20Z" fill="#666666"/>
        <path d="M-380.40,546.60L-380.40,453.40L-367.40,453.40L-367.40,546.60Z" fill="#333333"/>
        <path d="M-363,550L-363,450L-350,450L-350,550Z"/>
    </g>
    <g>
        <path d="M-250,533L-250,467L-237,467L-237,533Z" fill="#ffffff"/>
        <path d="M-232.60,536.40L-232.60,463.60L-219.60,463.60L-219.60,536.40Z" fill="#cccccc"/>
        <path d="M-215.20,539.80L-215.20,460.20L-202.20,460.20L-202.20,539.80Z" fill="#999999"/>
        <path d="M-197.80,543.20L-197.80,456.80L-184.80,456.80L-184.80,543.20Z" fill="#666666"/>
        <path d="M-180.40,546.60L-180.40,453.40L-167.40,453.40L-167.40,546.60Z" fill="#333333"/>
        <path d="M-163,550L-163,450L-150,450L-150,550Z"/>
    </g>
    <g>
        <path d="M-50,533L-50,467L-37,467L-37,533Z" fill="#ffffff"/>
        <path d="M-32.60,536.40L-32.60,463.60L-19.60,463.60L-19.60,536.40Z" fill="#cccccc"/>
        <path d="M-15.20,539.80L-15.20,460.20L-2.20,460.20L-2.20,539.80Z" fill="#999999"/>
        <path d="M2.20,543.20L2.20,456.80L15.20,456.80L15.20,543.20Z" fill="#666666"/>
        <path d="M19.60,546.60L19.60,453.40L32.60,453.40L32.60,546.60Z" fill="#333333"/>
        <path d="M37,550L37,450L50,450L50,550Z"/>
    </g>
    <g>
        <path d="M150,533L150,467L163,467L163,533Z" fill="#ffffff"/>
        <path d="M167.40,536.40L167.40,463.60L180.40,463.60L180.40,536.40Z" fill="#cccccc"/>
        <path d="M184.80,539.80L184.80,460.20L197.80,460.20L197.80,539.80Z" fill="#999999"/>
        <path d="M202.20,543.20L202.20,456.80L215.20,456.80L215.20,543.20Z" fill="#666666"/>
        <path d="M219.60,546.60L219.60,453.40L232.60,453.40L232.60,546.60Z" fill="#333333"/>
        <path d="M237,550L237,450L250,450L250,550Z"/>
    </g>
    <g>
        <path d="M350,533L350,467L363,467L363,533Z" fill="#ffffff"/>
        <path d="M367.40,536.40L367.40,463.60L380.40,463.60L380.40,536.40Z" fill="#cccccc"/>
        <path d="M384.80,539.80L384.80,460.20L397.80,460.20L397.80,539.80Z" fill="#999999"/>
        <path d="M402.20,543.20L402.20,456.80L415.20,456.80L415.20,543.20Z" fill="#666666"/>
        <path d="M419.60,546.60L419.60,453.40L432.60,453.40L432.60,546.60Z" fill="#333333"/>
        <path d="M437,550L437,450L450,450L450,550Z"/>
    </g>
</svg>