name, value
1, 1
2, 5
3, 15
4, 25
5, 35
6, 45
7, 55
8, 65
9, 75
10, 85
11, 85
12, 75
13, 65
14, 55
15, 45
16, 35
17, 25
18, 15
19, 5
20, 1
1, 1
2, 5
3, 15
4, 25
5, 35
6, 45
7, 55
8, 65
9, 75
10, 85
11, 85
12, 75
13, 65
14, 55
15, 45
16, 35
17, 25
18, 15
19, 5
20, 1
1, 1
2, 5
3, 15
4, 25
5, 35
6, 45
7, 55
8, 65
9, 75
10, 85
11, 85
12, 75
13, 65
14, 55
15, 45
16, 35
17, 25
18, 15
19, 5
20, 1
1, 1
2, 5
3, 15
4, 25
5, 35
6, 45
7, 55
8, 65
9, 75
10, 85
11, 85
12, 75
13, 65
14, 55
15, 45
16, 35
17, 25
18, 15
19, 5
20, 1
1, 1
2, 5
3, 15
4, 25
5, 35
6, 45
7, 55
8, 65
9, 75
10, 85
11, 85
12, 75
13, 65
14, 55
15, 45
16, 35
17, 25
18, 15
19, 5
20, 1
1, 1
2, 5
3, 15
4, 25
5, 35
6, 45
7, 55
8, 65
9, 75
10, 85
11, 85
12, 75
13, 65
14, 55
15, 45
16, 35
17, 25
18, 15
19, 5
20, 1
1, 1
2, 5
3, 15
4, 25
5, 35
6, 45
7, 55
8, 65
9, 75
10, 85
11, 85
12, 75
13, 65
14, 55
15, 45
16, 35
17, 25
18, 15
19, 5
20, 1