"x","y","z"
"0.000","-650.000","0.000"
"-341.506","-503.553","-91.506"
"149.244","325.528","39.990"
"341.506","203.553","91.506"
"390.725","143.893","104.695"
"-283.878","-554.509","-76.065"
"482.963","-150.000","129.410"
"-390.725","143.893","-104.695"
"-75.552","343.844","-20.244"
"-477.017","-228.217","-127.816"
"-459.325","-304.508","-123.076"
"430.323","-376.995","115.305"
"-459.325","4.508","-123.076"
"390.725","-443.892","104.695"
"-283.878","254.509","-76.065"
"-430.323","76.995","-115.305"
"477.017","-228.217","127.816"
"-390.725","-443.893","-104.694"
"459.325","4.508","123.076"
"75.552","343.844","20.244"
"477.017","-71.783","127.816"
"-341.506","203.553","-91.506"
"459.325","-304.508","123.076"
"75.552","-643.844","20.244"
"-477.017","-71.783","-127.816"
"-149.244","-625.528","-39.990"
"219.261","295.503","58.751"
"341.506","-503.553","91.506"
"-0.000","350.000","-0.000"
"-219.261","295.503","-58.751"
"219.261","-595.503","58.751"
"283.879","-554.508","76.065"
"-149.244","325.528","-39.990"
"-430.323","-376.995","-115.305"
"-219.260","-595.503","-58.751"
"-482.963","-150.000","-129.410"
"149.244","-625.528","39.990"
"430.323","76.995","115.305"
"-75.552","-643.844","-20.244"
"283.878","254.509","76.065"
