"x","y","z"
"0","0","0"
"0","-109","0"
"0","-177","0"
<<<<<<< HEAD
"0","-199","0"
"0","-199","0"
=======
>>>>>>> 1ba5ca66201f6675c8410990d39ce5863cf1523f
"0","-266","0"
"0","-379","0"
"0","-513","0"
"0","-626","0"
"0","-783","0"
"0","-850","0"
"0","-693","0"
"0","-536","0"
"0","-199","0"
"0","-87","0"
"0","0","0"
<<<<<<< HEAD
"0","0","0"
"-154","0","0"
"0","0","0"
"317","0","0"
"0","0","0"
"0","0","0"
=======
>>>>>>> 1ba5ca66201f6675c8410990d39ce5863cf1523f
"0","205","0"
"0","497","0"
"0","609","0"
"0","452","0"
"0","272","0"
"0","160","0"
"0","0","0"
"-154","0","0"
"-379","0","0"
"-491","0","0"
"-715","0","0"
"-401","0","0"
"-244","0","0"
"-64","0","0"
"295","0","0"
"542","0","0"
"699","0","0"
"609","0","205"
"429","0","362"
"182","0","519"
"3","0","699"
"0","0","699"
"-177","0","654"
"-334","0","564"
"-446","0","407"
"-536","0","272"
"-738","0","93"
"-738","0","0"
<<<<<<< HEAD
"-738","0","0"
"-536","0","0"
"-289","0","0"
"-87","0","0"
"0","0","0"
=======
>>>>>>> 1ba5ca66201f6675c8410990d39ce5863cf1523f
